,Player,Pos,Cur. Team,GP,G,A,P,Plus_minus,PIM,PPG,PPP,SHG,SHP,GWG,OTG,S,S_Perc,TOI_GP,Shifts_GP,FOW_Perc
1,Jaromir Jagr,R,FLA,1563,729,1085,1814,291,1057,206,588,11,15,130,19,5308,13.7,14:20,15.2,23.9
2,Joe Thornton,C,SJS,1300,360,909,1269,179,1061,122,453,6,12,56,9,2581,13.9,19:33,24,52.7
3,Jarome Iginla,R,COL,1407,596,642,1238,78,933,180,403,13,22,95,6,4460,13.4,18:53,22.1,51.8
4,Marian Hossa,R,CHI,1184,487,573,1060,224,596,137,357,30,41,76,11,3904,12.5,18:50,24.2,34.1
5,Patrik Elias,C,NJD,1224,406,611,1017,167,539,113,331,16,33,80,16,3266,12.4,17:49,22.8,43
6,Patrick Marleau,L,SJS,1344,460,537,997,7,421,142,354,16,20,89,8,3438,13.4,18:13,22.5,47
7,Vincent Lecavalier,C,PHI,1169,411,521,932,-141,828,121,314,13,23,63,9,3408,12,18:37,21.9,47.3
8,Henrik Sedin,C,VAN,1108,216,711,927,220,600,56,319,6,8,34,4,1615,13.4,17:29,22.7,49.2
9,Alex Ovechkin,L,WSH,773,483,428,911,64,516,177,357,4,5,81,15,3907,12.4,21:23,22,34.7
10,Brad Richards,C,DET,1064,288,618,906,-71,243,91,363,8,14,40,2,3300,8.7,20:12,22.9,48.9
11,Shane Doan,R,ARI,1409,371,534,905,-61,1223,115,294,6,19,65,11,3664,10.1,16:52,20.4,42.2
12,Daniel Sedin,L,VAN,1077,332,564,896,180,448,116,315,0,3,73,13,2867,11.6,16:57,22.2,38.5
13,Pavel Datsyuk,C,DET,887,298,571,869,242,214,89,310,6,11,50,7,2063,14.4,18:48,23.4,53.9
14,Sidney Crosby,C,PIT,642,304,558,862,123,514,93,329,3,8,37,7,2134,14.2,21:02,23.9,51.7
15,Alex Tanguay,L,COL,1032,277,557,834,158,505,61,235,7,10,42,4,1466,18.9,17:53,23.9,38.9
16,Henrik Zetterberg,L,DET,851,300,501,801,159,341,96,289,9,18,60,7,2898,10.4,19:35,24.2,51
17,Jason Spezza,C,DAL,784,273,488,761,48,468,94,283,2,4,38,3,2053,13.3,18:26,22,52.6
18,Scott Gomez,C,STL,1055,181,573,754,9,649,48,254,1,3,33,3,2500,7.2,17:20,21.2,49.5
19,Marian Gaborik,R,LAK,894,375,378,753,97,434,103,242,7,10,65,9,2897,12.9,18:13,23.6,26.7
20,Eric Staal,C,CAR,861,316,435,751,-52,652,105,247,16,21,47,3,2914,10.8,20:17,25.8,47.3
21,Mike Ribeiro,C,NSH,961,218,508,726,0,509,69,258,2,4,32,6,1478,14.7,17:35,20,44.5
22,Evgeni Malkin,C,PIT,602,272,442,714,59,598,99,274,4,5,47,8,2132,12.8,20:28,22.3,43.7
23,Marc Savard,C,FLA,807,207,499,706,-54,737,80,292,4,12,36,8,1932,10.7,18:31,22.3,50.7
24,Rick Nash,L,NYR,875,380,325,705,-13,676,96,211,21,29,64,6,3053,12.4,18:38,24.6,39.6
25,Chris Pronger,D,ARI,1167,157,541,698,183,1590,83,374,2,18,27,5,2610,6,20:50,22.3,33.3
26,Ryan Getzlaf,C,ANA,722,208,475,683,120,634,65,252,5,8,40,7,1704,12.2,19:28,23.1,48.2
27,Matt Cullen,C,PIT,1227,220,411,631,-32,512,53,173,14,28,28,1,2390,9.2,16:24,21.9,51.1
28,Thomas Vanek,L,MIN,757,304,316,620,33,451,119,218,3,3,49,6,2085,14.6,16:56,20.4,38.3
29,Anze Kopitar,C,LAK,698,223,393,616,51,188,70,231,9,13,32,5,1809,12.3,20:47,25.1,51
30,Corey Perry,R,ANA,738,300,312,612,88,887,82,188,6,10,54,6,2248,13.3,18:22,22,31
31,Scott Hartnell,L,CBJ,1046,285,324,609,61,1567,97,171,4,8,50,4,2480,11.5,16:08,21,40.1
32,David Legwand,C,BUF,1069,223,384,607,8,543,43,152,10,17,43,9,2067,10.8,17:14,22.8,46
33,Martin Havlat,R,STL,789,242,352,594,79,404,69,173,1,6,44,6,1907,12.7,16:49,21.6,30
34,Justin Williams,R,WSH,932,229,364,593,97,574,53,148,6,13,28,2,2479,9.2,17:03,22.1,38.3
35,Jason Pominville,R,MIN,766,237,348,585,54,173,53,181,10,15,30,4,2143,11.1,18:33,22.9,45.4
36,Dan Boyle,D,NYR,1031,153,431,584,0,669,69,291,1,3,29,6,2144,7.1,23:15,25.7,15.4
37,Nicklas Backstrom,C,WSH,588,150,433,583,83,298,48,245,2,2,22,4,1299,11.5,19:57,22.5,50.7
38,Patrick Kane,R,CHI,591,215,365,580,62,224,66,199,0,1,38,2,1782,12.1,19:23,23.4,42
39,Zach Parise,L,MIN,703,281,294,575,90,268,86,180,6,13,50,8,2427,11.6,18:40,22.8,43.3
40,Patrice Bergeron,C,BOS,754,211,353,564,111,277,61,170,9,23,42,6,2080,10.1,18:39,24.8,56.7
41,Mike Cammalleri,L,NJD,752,268,290,558,-53,370,98,226,2,3,49,3,2141,12.5,17:56,22.7,51.7
42,Zdeno Chara,D,BOS,1207,170,375,545,194,1659,91,214,6,31,25,3,2666,6.4,24:22,28.1,38.2
43,Patrick Sharp,L,DAL,761,256,283,539,82,468,68,151,16,22,43,8,2239,11.4,17:26,22.7,48.6
44,Jeff Carter,C,LAK,733,290,247,537,61,396,86,157,14,18,60,6,2497,11.6,18:10,23.5,49.9
45,Ales Hemsky,R,DAL,763,159,375,534,-52,325,42,207,2,3,18,1,1485,10.7,16:14,21,35.5
46,Radim Vrbata,R,VAN,887,249,284,533,27,254,86,182,5,9,44,4,2647,9.4,16:22,21.8,38.8
47,Phil Kessel,R,PIT,683,253,278,531,-73,198,67,158,1,1,43,4,2330,10.9,18:16,21.6,42.4
48,Brian Gionta,R,BUF,857,262,262,524,46,343,77,146,8,10,47,7,2440,10.7,17:53,22.6,41.9
49,Mike Fisher,C,NSH,960,247,277,524,42,731,53,113,15,29,44,7,2121,11.6,17:37,22.8,50
50,Alexander Semin,R,MTL,645,239,277,516,69,576,65,181,4,7,32,5,1867,12.8,17:45,20.5,31.3
51,Jonathan Toews,C,CHI,580,228,287,515,172,308,56,141,11,24,45,5,1521,15,0.825,25.4,57
52,Tomas Plekanec,C,MTL,778,209,306,515,49,442,50,164,18,29,32,2,1916,10.9,0.7666666667,24.1,49.4
53,Chris Kunitz,L,PIT,748,226,287,513,156,613,76,146,5,8,40,0,1755,12.9,0.7083333333,21.2,43.3
54,Mikko Koivu,C,MIN,695,147,366,513,31,424,44,182,10,19,25,4,1678,8.8,0.8138888889,25.9,53.4
55,Steven Stamkos,C,TBL,509,284,225,509,0,326,98,180,2,2,40,8,1644,17.3,0.8215277778,23.1,47.8
56,Paul Stastny,C,STL,617,177,332,509,15,304,55,175,1,4,32,3,1401,12.6,0.8097222222,25.2,52.7
57,Andrei Markov,D,MTL,863,110,397,507,61,457,57,273,3,13,19,3,1435,7.7,0.9583333333,26.8,28.6
58,Shawn Horcoff,C,ANA,964,182,318,500,-26,596,49,143,6,14,26,1,1467,12.4,0.7083333333,22.1,50
59,Joe Pavelski,C,SJS,658,236,262,498,83,248,85,187,8,14,38,0,2036,11.6,0.7784722222,24.9,55.5
60,Brad Boyes,R,TOR,775,204,283,487,-15,245,54,142,2,3,37,5,1731,11.8,0.6930555556,21.4,47.8
61,Jussi Jokinen,L,FLA,756,160,308,468,-5,286,54,175,2,2,23,0,1282,12.5,0.6548611111,21,53.5
62,Brian Campbell,D,FLA,935,77,386,463,23,235,30,193,1,5,15,1,1303,5.9,0.9319444444,25.2,0
63,Claude Giroux,C,PHI,511,148,311,459,17,229,52,183,4,10,26,6,1303,11.4,0.8097222222,24.4,53.5
64,Loui Eriksson,R,BOS,657,187,266,453,47,134,48,110,7,14,26,8,1369,13.7,0.7597222222,22.1,30
65,Dustin Brown,R,LAK,817,208,240,448,-35,554,71,146,3,8,30,4,2173,9.6,0.7472222222,23.2,45.2
66,Ryan Kesler,C,ANA,752,203,242,445,9,683,66,138,11,20,29,5,1793,11.3,0.7805555556,24.5,53.4
67,Alexander Steen,L,STL,694,188,254,442,47,327,47,129,8,11,39,2,1840,10.2,0.7541666667,25.1,45.8
68,Antoine Vermette,C,ARI,843,194,241,435,-21,453,39,90,21,28,26,3,1545,12.6,0.7145833333,23.3,55.8
69,Milan Michalek,L,OTT,712,203,230,433,15,376,57,126,9,14,33,0,1697,12,0.7347222222,22.8,40.8
70,Andrew Ladd,L,WPG,707,189,242,431,49,447,37,84,2,7,28,4,1661,11.4,0.6958333333,22.3,42.3
71,David Krejci,C,BOS,565,124,302,426,106,216,21,108,4,9,26,3,1048,11.8,0.74375,21.2,50.9
72,David Backes,C,STL,663,188,233,421,64,894,50,99,4,9,24,2,1507,12.5,0.75625,25.7,49.5
73,Nathan Horton,R,TOR,627,203,218,421,54,567,51,95,5,5,24,3,1402,14.5,0.71875,22.2,44.2
74,Duncan Keith,D,CHI,772,75,342,417,135,465,19,122,5,18,9,1,1593,4.7,1.0541666667,29,0
75,John Tavares,C,NYI,445,181,233,414,-38,223,58,150,0,1,33,8,1385,13.1,0.8305555556,21.9,50.7
76,Joffrey Lupul,L,TOR,670,199,215,414,-72,399,58,131,2,3,24,1,1726,11.5,0.68125,20.9,38.5
77,Dion Phaneuf,D,TOR,765,118,291,409,-6,1075,65,213,1,6,26,5,2029,5.8,1.0291666667,29.3,0
78,Pascal Dupuis,R,PIT,860,190,217,407,66,381,22,44,15,23,30,2,1904,10,0.6666666667,21.9,38.1
79,Marek Zidlicky,D,NYI,798,86,320,406,-68,670,59,216,0,2,16,3,1245,6.9,0.8798611111,26.2,0
80,Bobby Ryan,R,OTT,541,193,211,404,53,326,46,100,3,3,22,2,1497,12.9,0.7298611111,22.2,38.3
81,Shea Weber,D,NSH,699,150,250,400,55,547,69,166,5,7,23,7,1901,7.9,0.9951388889,27.9,0
82,Mark Streit,D,PHI,669,87,305,392,-61,332,45,189,2,3,11,3,1186,7.3,0.8743055556,24.1,25
83,Daniel Cleary,R,DET,938,165,222,387,6,492,32,67,7,12,28,1,1711,9.6,0.6006944444,19.5,48.2
84,R.J. Umberger,C,PHI,751,178,207,385,-62,304,53,98,7,18,21,3,1662,10.7,0.7034722222,23,48.7
85,Jiri Hudler,C,CGY,620,149,234,383,38,221,32,111,0,0,18,2,992,15,0.6152777778,19.7,37.1
86,Jarret Stoll,C,NYR,806,141,241,382,8,592,50,147,8,18,24,4,1577,8.9,0.6951388889,23.4,55.4
87,Lee Stempniak,R,NJD,723,168,213,381,-24,261,36,90,3,11,20,4,1577,10.7,0.6652777778,21,33.6
88,Blake Wheeler,R,WPG,549,154,227,381,70,368,26,77,8,12,24,2,1342,11.5,0.7236111111,22,38
89,Jamie Benn,L,DAL,442,161,219,380,26,332,32,86,8,17,27,2,1244,12.9,0.7590277778,24.3,48.5
90,Jakub Voracek,R,PHI,546,124,253,377,11,265,33,111,0,0,14,4,1269,9.8,0.6833333333,21.4,38.7
91,Johan Franzen,R,DET,602,187,183,370,93,401,69,118,4,8,44,4,1607,11.6,0.6972222222,22.2,48.9
92,Ruslan Fedotenko,L,MIN,863,173,193,366,25,472,28,51,2,6,33,3,1441,12,0.6180555556,19.2,41.8
93,Valtteri Filppula,C,TBL,657,138,226,364,25,210,23,81,2,3,14,0,1014,13.6,0.7104166667,22.1,52.4
94,Matt Stajan,C,CGY,790,130,233,363,-5,420,18,49,9,22,18,3,977,13.3,0.6381944444,20.7,48.8
95,James Neal,R,NSH,494,191,172,363,34,422,60,110,1,2,29,6,1564,12.2,0.7430555556,21.3,32.8
96,Mike Green,D,DET,584,113,250,363,55,420,52,165,1,3,20,8,1378,8.2,0.9229166667,23.9,0
97,Ryan Suter,D,MIN,763,54,309,363,66,506,18,147,1,7,9,2,1247,4.3,1.0152777778,27.9,25
98,Jay Bouwmeester,D,STL,933,79,283,362,-22,519,25,133,0,6,7,0,1626,4.9,1.0388888889,30.3,60
99,Bryan Little,C,WPG,572,154,205,359,9,209,45,94,7,12,20,3,1172,13.1,0.7659722222,22.8,48.2
100,Brent Burns,D,SJS,730,119,240,359,1,490,42,128,1,5,20,7,1631,7.3,0.8458333333,26.8,45.7
101,Travis Zajac,C,NJD,639,133,226,359,38,211,37,104,6,12,16,3,1260,10.5,18:45,24.2,53.3
102,Dennis Wideman,D,CGY,723,92,264,356,-66,447,51,170,2,6,14,4,1482,6.2,23:29,27.3,25
103,Dustin Byfuglien,D,WPG,613,137,216,353,-35,701,46,136,0,2,28,8,1871,7.3,20:22,23.3,15.8
104,Milan Lucic,L,LAK,581,142,208,350,96,790,21,63,0,0,28,1,970,14.6,15:45,18.8,44.9
105,Alexandre Burrows,R,VAN,704,178,172,350,122,972,16,35,17,23,27,1,1393,12.8,15:59,22.8,42.8
106,Jordan Staal,C,CAR,622,154,195,349,29,313,22,62,14,29,21,3,1315,11.7,18:48,24.2,49.2
107,Drew Stafford,R,WPG,605,159,189,348,-22,339,39,82,2,3,21,2,1428,11.1,16:04,20.2,47.6
108,John-Michael Liles,D,CAR,734,81,264,345,-42,266,38,175,0,0,9,2,1287,6.3,19:24,25.3,66.7
109,Tuomo Ruutu,L,NJD,705,148,197,345,-63,590,44,83,0,0,15,3,1250,11.8,15:49,21,42.4
110,Niklas Kronwall,D,DET,689,71,273,344,39,428,31,141,0,7,12,3,1008,7,22:27,28.7,100
111,Mattias Ohlund,D,TBL,909,93,250,343,-6,885,36,141,5,16,19,6,1644,5.7,24:08,30.5,0
112,Sam Gagner,C,PHI,574,118,223,341,-103,276,37,100,1,4,9,2,1204,9.8,17:07,21.3,45.2
113,Brad Stuart,D,COL,1056,80,255,335,8,565,29,100,2,12,21,5,1546,5.2,21:24,26.1,28.6
114,Jason Chimera,L,WSH,883,146,187,333,-23,797,10,24,8,9,25,5,1675,8.7,13:50,19,47.9
115,Chris Higgins,L,VAN,682,164,167,331,-14,216,36,73,9,12,23,4,1658,9.9,16:49,22,41.5
116,Christian Ehrhoff,D,LAK,754,72,259,331,52,491,29,154,1,7,24,7,1532,4.7,21:28,25.8,0
117,Keith Yandle,D,NYR,594,68,263,331,-22,386,24,149,0,1,11,1,1370,5,21:17,26,0
118,Brandon Dubinsky,C,CBJ,561,116,214,330,42,682,20,65,9,17,19,0,1227,9.5,17:35,22.3,52.4
119,Brent Seabrook,D,CHI,778,75,255,330,110,520,28,107,2,11,14,6,1394,5.4,22:29,28.4,33.3
120,Matt Duchene,C,COL,434,132,195,327,-25,108,29,82,1,2,19,4,1108,11.9,18:24,22.9,50.4
121,Ryan Callahan,R,TBL,564,166,159,325,6,317,58,93,6,12,31,4,1514,11,18:16,22.6,45.6
122,Matt Moulson,L,BUF,489,158,164,322,-25,100,52,101,0,0,21,2,1221,12.9,17:46,20.9,49.1
123,Tomas Fleischmann,L,MTL,598,127,194,321,-28,180,29,91,1,2,23,3,1204,10.5,15:41,20.4,41.9
124,T.J. Oshie,R,WSH,457,114,204,318,74,241,25,95,7,13,21,2,974,11.7,18:42,26.1,42.9
125,Brooks Laich,C,WSH,697,133,185,318,-4,287,42,88,10,17,24,4,1378,9.7,15:49,21.2,48.4
126,Erik Karlsson,D,OTT,412,85,232,317,-14,216,21,128,1,2,15,1,1221,7,25:05,26.3,0
127,Kyle Okposo,R,NYI,466,121,195,316,-60,265,29,86,0,3,19,4,1177,10.3,18:34,21.5,48.8
128,Ryane Clowe,L,NJD,491,112,197,309,7,618,32,88,0,0,11,1,1020,11,16:28,21.2,41.2
129,Frans Nielsen,C,NYI,541,104,203,307,3,102,20,98,14,20,11,1,1016,10.2,16:47,22.7,47.9
130,Tyler Seguin,C,DAL,370,139,166,305,74,104,37,85,0,0,24,0,1174,11.8,17:08,20.9,47.9
131,Clarke MacArthur,L,OTT,548,133,171,304,-5,343,34,75,2,4,22,3,971,13.7,15:33,20.2,40.5
132,David Perron,L,PIT,514,130,170,300,3,392,30,73,3,6,16,0,1075,12.1,16:31,22.6,31.7
133,Derick Brassard,C,NYR,498,104,191,295,-20,268,36,97,0,0,15,4,944,11,15:57,20.9,47.3
134,Max Pacioretty,L,MTL,416,152,143,295,57,245,34,70,5,7,30,6,1326,11.5,16:58,22.2,35.6
135,Michal Rozsival,D,CHI,890,66,227,293,83,657,28,92,2,9,17,2,998,6.6,20:45,25.8,22.2
136,Kris Letang,D,PIT,506,67,225,292,35,348,24,119,3,5,14,2,1203,5.6,22:49,25,33.3
137,Dan Hamhuis,D,VAN,827,52,240,292,88,541,12,69,3,11,9,2,1267,4.1,22:28,27.6,0
138,Rene Bourque,R,CBJ,620,148,143,291,-25,498,28,59,13,17,21,3,1387,10.7,16:04,21.2,39.4
139,Wayne Simmonds,R,PHI,539,141,150,291,-15,654,50,88,0,1,25,0,1106,12.7,15:15,19.8,40.7
140,Logan Couture,C,SJS,382,139,150,289,47,101,39,90,6,9,29,1,1194,11.6,17:58,24.7,50.9
141,Chris Phillips,D,OTT,1179,71,217,288,68,756,17,59,3,22,13,3,1421,5,20:31,26.2,20
142,Jordan Eberle,R,EDM,359,121,164,285,-39,90,31,82,3,3,18,1,859,14.1,18:33,23.6,40
143,Nick Foligno,L,CBJ,561,117,168,285,-5,490,30,71,0,0,20,2,977,12,15:09,19.1,44.6
144,Kris Versteeg,R,CAR,488,118,167,285,22,283,27,77,9,13,15,3,1049,11.2,16:45,21.7,43.7
145,Steve Ott,C,STL,787,106,175,281,-56,1473,28,56,4,13,16,2,1062,10,14:53,20,54.8
146,Taylor Hall,L,EDM,315,112,168,280,-16,192,36,74,0,1,18,4,1021,11,19:00,23.5,44.7
147,Mikhail Grabovski,C,NYI,492,119,159,278,5,281,27,59,1,1,18,5,944,12.6,16:22,20.2,49
148,Drew Doughty,D,LAK,539,67,210,277,43,411,31,121,0,2,17,2,1127,5.9,25:46,29.5,0
149,Chris Kelly,C,BOS,751,118,159,277,56,392,4,7,10,26,17,0,1065,11.1,14:54,20.1,49.2
150,Toby Enstrom,D,WPG,560,50,227,277,5,326,22,125,1,6,7,0,699,7.2,23:26,26.8,66.7
151,Paul Martin,D,SJS,709,43,231,274,105,196,16,103,0,4,9,1,842,5.1,23:26,27.1,0
152,James Wisniewski,D,CAR,552,53,221,274,-22,459,27,116,1,5,7,2,1029,5.1,21:22,24.7,0
153,Matthew Carle,D,TBL,675,43,230,273,78,237,21,87,0,0,6,0,930,4.6,21:06,26.5,33.3
154,Patric Hornqvist,R,PIT,442,134,138,272,42,217,41,77,0,0,27,1,1419,9.4,15:53,20.6,40.9
155,Andrew Cogliano,L,ANA,638,120,150,270,-2,204,8,27,11,16,24,3,988,12.1,14:55,20.6,40.2
156,Chris Stewart,R,ANA,478,132,138,270,-43,544,33,66,1,1,18,2,1033,12.8,15:19,20.5,32
157,Teddy Purcell,R,EDM,499,90,178,268,-40,92,27,97,0,0,13,3,958,9.4,15:23,19.7,27.4
158,Troy Brouwer,R,STL,546,135,131,266,-2,407,48,92,5,6,28,2,948,14.2,16:45,22.2,52.1
159,Alexander Edler,D,VAN,583,69,196,265,10,359,36,126,1,1,4,1,1284,5.4,22:33,27.6,35.7
160,Martin Hanzal,C,ARI,506,90,171,261,1,427,23,66,3,6,19,1,1025,8.8,18:00,23.3,50.6
161,Raffi Torres,L,SJS,635,137,123,260,2,497,27,38,0,0,22,1,1039,13.2,12:50,17.8,42
162,Derek Stepan,C,NYR,377,93,166,259,86,94,20,66,3,12,19,2,832,11.2,18:14,23.1,44.1
163,Ryan O'Reilly,C,BUF,442,94,165,259,-16,68,23,66,4,6,13,5,918,10.2,18:31,23.9,52.3
164,Stephane Robidas,D,TOR,937,57,201,258,16,713,23,94,2,7,8,3,1283,4.4,20:19,25,71.4
165,James van Riemsdyk,L,TOR,421,127,129,256,-38,212,34,58,3,5,21,1,1181,10.8,17:05,21.7,42.1
166,Mark Giordano,D,CGY,526,70,181,251,29,484,30,98,2,7,10,4,973,7.2,21:29,28,0
167,Fedor Tyutin,D,CBJ,756,53,196,249,-28,488,17,95,3,12,5,1,1114,4.8,21:51,27.2,40
168,Mason Raymond,L,CGY,523,112,136,248,-1,150,26,59,3,4,17,1,1166,9.6,15:28,21,35.9
169,Patrik Berglund,C,STL,513,118,129,247,21,164,28,63,4,5,14,1,998,11.8,15:51,22.6,46.2
170,Michael Frolik,R,CGY,528,98,148,246,14,157,11,37,3,5,12,0,1283,7.6,15:40,21.4,41.8
171,Alex Goligoski,D,DAL,496,51,194,245,53,174,19,94,0,4,5,1,837,6.1,22:27,26.3,0
172,Kevin Bieksa,D,ANA,613,56,187,243,18,893,19,85,0,3,12,1,1183,4.7,22:24,26.8,50
173,P.K. Subban,D,MTL,383,58,185,243,42,469,34,110,0,1,9,4,942,6.2,24:14,28.2,0
174,Vernon Fiddler,C,DAL,752,92,150,242,-6,469,10,17,9,17,14,0,1033,8.9,13:36,20.5,52.2
175,Kyle Turris,C,OTT,413,101,138,239,27,177,18,59,3,4,21,3,950,10.6,16:41,21.3,48.9
176,Brad Marchand,L,BOS,389,121,117,238,120,369,16,20,16,20,21,4,809,15,16:03,21.2,36.6
177,Tyler Bozak,C,TOR,389,96,142,238,-76,112,33,66,5,6,13,1,599,16,19:28,24.5,52.7
178,Scottie Upshall,R,STL,564,118,119,237,8,486,17,35,2,2,21,1,1184,10,13:42,19.2,43.8
179,Chris Neil,R,OTT,908,107,129,236,-5,2331,16,32,0,0,12,0,1153,9.3,11:16,15.6,39.7
180,Joel Ward,R,SJS,532,105,129,234,18,183,25,39,6,8,16,1,865,12.1,15:50,21.7,49
181,Nikolay Kulemin,L,NYI,519,101,133,234,6,133,8,29,5,7,15,2,840,12,15:43,21.3,44.1
182,Trevor Daley,D,CHI,771,67,167,234,7,511,15,53,2,7,15,3,1058,6.3,20:51,26.5,50
183,Jack Johnson,D,CBJ,585,54,179,233,-119,383,25,112,0,1,7,3,1013,5.3,23:21,25.8,42.9
184,Pierre-Alexandre Parenteau,R,TOR,362,84,148,232,-31,245,27,65,0,0,7,1,707,11.9,17:09,20.8,31.5
185,Dominic Moore,C,NYR,699,84,147,231,-23,399,15,29,7,9,12,0,1150,7.3,14:05,20.1,52.9
186,Kyle Brodziak,C,STL,636,99,130,229,-52,339,9,23,6,12,13,2,970,10.2,15:07,21,49.5
187,Francois Beauchemin,D,COL,688,61,167,228,22,400,19,71,0,5,11,2,1179,5.2,24:15,27.1,45.5
188,Alex Pietrangelo,D,STL,401,45,182,227,47,135,16,79,0,4,10,1,861,5.2,24:14,31,0
189,Jay McClement,C,CAR,779,82,145,227,-99,283,2,12,4,10,15,0,955,8.6,14:50,21.2,51.9
190,Paul Gaustad,C,NSH,677,87,140,227,12,739,15,32,1,6,11,1,921,9.4,14:29,20.2,56.3
191,Steve Bernier,R,NYI,616,104,121,225,-16,291,26,56,1,1,13,1,972,10.7,13:19,18.3,29.7
192,Andrew Ference,D,EDM,906,43,182,225,-31,753,8,52,0,8,4,1,1064,4,19:26,25,42.9
193,Evander Kane,L,BUF,369,110,115,225,-15,387,17,34,4,6,18,2,1242,8.9,18:03,22.1,42.2
194,David Desharnais,C,MTL,356,69,156,225,44,114,16,65,0,0,13,3,430,16,16:35,21.7,50.6
195,Josh Bailey,L,NYI,491,84,140,224,-32,151,17,52,4,7,8,2,729,11.5,16:03,20.3,43.2
196,Ron Hainsey,D,CAR,769,42,179,221,-61,336,20,78,0,5,5,3,1041,4,20:55,26.1,50
197,Jeff Skinner,L,CAR,351,118,102,220,-63,174,30,67,0,0,16,1,1134,10.4,17:11,22.5,41.3
198,Tyler Ennis,C,BUF,358,92,128,220,-51,147,23,70,1,1,4,0,854,10.8,17:37,20.6,40.7
199,Tom Gilbert,D,MTL,609,43,173,216,-32,184,14,61,1,7,4,0,705,6.1,21:50,27.2,0
200,Dennis Seidenberg,D,BOS,697,38,174,212,24,286,8,60,0,4,8,1,1244,3.1,21:06,25.8,25
201,Dave Bolland,C,FLA,421,85,122,207,35,295,16,42,7,10,10,2,618,13.8,16:19,24,46.1
202,Gabriel Landeskog,L,COL,296,85,120,205,33,239,20,44,3,6,12,2,856,9.9,18:42,23.5,39.2
203,Matt Niskanen,D,WSH,587,41,162,203,48,313,13,65,0,1,10,0,885,4.6,19:48,23.7,0
204,Dan Girardi,D,NYR,666,41,162,203,34,243,13,47,1,9,9,1,944,4.3,22:42,28.5,0
205,Benoit Pouliot,L,EDM,445,98,105,203,41,295,19,33,1,1,21,1,725,13.5,13:20,18.8,42.3
206,Ryan Nugent-Hopkins,C,EDM,274,71,131,202,-21,77,15,73,0,1,8,2,613,11.6,19:40,24.6,42.9
207,John Carlson,D,WSH,412,48,153,201,38,148,15,62,1,4,7,0,843,5.7,22:39,26.5,33.3
208,Artem Anisimov,C,CHI,427,92,109,201,3,128,13,26,5,8,15,3,786,11.7,15:32,20.7,46.7
209,Kevin Shattenkirk,D,STL,343,41,158,199,38,212,21,94,0,2,10,1,703,5.8,21:03,27.3,25
210,Erik Johnson,D,COL,471,51,148,199,-25,307,21,77,2,4,12,3,981,5.2,21:38,27.7,0
211,Blake Comeau,L,COL,498,88,110,198,-48,300,8,27,3,6,12,3,919,9.6,14:54,19.4,37.6
212,Max Talbot,C,BOS,671,89,108,197,-19,482,1,6,16,18,13,0,863,10.3,14:26,19.4,46
213,David Clarkson,R,CBJ,555,112,85,197,-60,978,26,45,0,0,22,1,1239,9,14:07,18.5,38.6
214,Jannik Hansen,R,VAN,486,81,113,194,38,205,1,4,4,10,14,0,766,10.6,14:31,20.8,31.9
215,Brandon Sutter,C,VAN,511,102,91,193,12,96,17,31,11,12,18,2,983,10.4,16:02,22.5,48.3
216,Marcus Johansson,L,WSH,359,64,129,193,-11,36,16,52,1,2,9,0,498,12.9,16:30,20.2,41
217,Victor Hedman,D,TBL,408,40,153,193,10,348,6,38,0,7,4,1,667,6,22:00,27.5,0
218,Steve Downie,R,ARI,422,74,119,193,23,1034,17,33,1,1,9,0,597,12.4,13:24,17.7,44.4
219,Marc-Edouard Vlasic,D,SJS,685,40,152,192,114,271,7,47,1,6,7,1,874,4.6,22:00,27.4,0
220,Daniel Winnik,C,TOR,583,60,130,190,30,255,2,6,5,14,8,0,953,6.3,15:22,20.9,42.6
221,Mikkel Boedker,L,ARI,398,72,114,186,-16,76,13,41,0,0,11,1,614,11.7,15:36,20.3,25.7
222,Colin Wilson,L,NSH,382,78,106,184,32,98,16,40,0,0,19,2,607,12.9,15:16,19.6,46.7
223,Barret Jackman,D,NSH,816,29,154,183,58,1037,3,8,2,9,6,1,832,3.5,20:17,26.5,0
224,Eric Fehr,C,PIT,459,91,89,180,49,154,10,24,4,5,17,4,883,10.3,12:35,16.6,49.4
225,Gregory Campbell,C,CBJ,737,69,110,179,-29,641,2,6,7,13,9,0,873,7.9,12:41,17.7,49.4
226,David Jones,R,CGY,403,98,80,178,-44,114,18,28,3,4,17,6,722,13.6,15:21,21.7,47.9
227,Ryan Johansen,C,CBJ,285,74,103,177,-18,129,17,57,2,2,10,2,654,11.3,16:48,21.8,51.6
228,Jiri Tlusty,R,NJD,429,88,88,176,-13,120,15,29,2,3,11,0,681,12.9,14:07,20,24.7
229,Cody Franson,D,BUF,415,36,140,176,-2,144,14,71,0,0,6,1,653,5.5,17:37,23.6,0
230,Willie Mitchell,D,FLA,876,33,142,175,125,773,0,13,2,11,8,0,860,3.8,21:43,27.5,25
231,Andy Greene,D,NJD,574,32,142,174,9,182,13,50,1,6,10,2,636,5,21:41,26.9,0
232,Patrick Eaves,R,DAL,494,88,85,173,14,155,20,32,5,5,12,0,866,10.2,12:17,17.6,36.6
233,Zbynek Michalek,D,ARI,725,41,132,173,-11,306,11,35,0,6,8,2,966,4.2,21:47,27.9,100
234,Braydon Coburn,D,TBL,635,38,134,172,23,519,10,34,1,7,4,0,872,4.4,21:07,27.6,0
235,Tyler Myers,D,WPG,405,48,122,170,-29,280,15,56,0,3,9,3,608,7.9,22:50,27.9,0
236,Andrej Sekera,D,EDM,502,32,134,166,6,138,7,39,1,3,3,1,648,4.9,20:49,26.5,0
237,Mathieu Perreault,C,WPG,306,70,94,164,36,156,16,34,0,0,9,2,440,15.9,13:22,17.2,50.4
238,Adam Henrique,L,NJD,284,75,89,164,7,86,16,42,11,18,13,1,509,14.7,18:09,24.2,47.8
239,Oliver Ekman-Larsson,D,ARI,355,56,108,164,-16,182,20,63,2,2,17,4,809,6.9,23:16,27.3,0
240,Lauri Korpikoski,L,EDM,479,70,92,162,-41,118,7,15,5,11,11,1,667,10.5,14:48,20.4,38.2
241,Nick Schultz,D,PHI,975,29,133,162,-18,437,4,13,0,9,4,0,725,4,19:14,27.6,25
242,Kris Russell,D,CGY,527,35,125,160,-15,179,9,57,0,2,5,2,709,4.9,18:52,24.8,0
243,Michael Del Zotto,D,PHI,396,37,122,159,-22,164,9,65,3,5,7,0,569,6.5,20:32,24.6,0
244,Nazem Kadri,C,TOR,265,65,93,158,-8,148,16,38,1,1,5,1,573,11.3,16:50,21.5,45.6
245,Michael Grabner,R,TOR,330,95,62,157,-4,58,7,14,11,12,12,3,786,12.1,14:34,20.5,43.4
246,Boyd Gordon,C,ARI,643,53,104,157,-14,141,2,7,8,17,7,0,775,6.8,14:09,21,55.4
247,Anton Stralman,D,TBL,493,27,130,157,14,191,7,60,0,0,2,0,674,4,18:45,23.7,50
248,Johnny Oduya,D,DAL,680,32,123,155,62,302,3,21,1,3,6,3,695,4.6,20:10,26,100
249,Mats Zuccarello,R,NYR,237,52,102,154,47,101,6,38,1,2,11,1,464,11.2,16:20,21.1,41.2
250,Cam Fowler,D,ANA,361,31,123,154,-47,77,14,65,2,3,7,3,517,6,22:20,25.7,100
251,Brooks Orpik,D,WSH,795,14,140,154,36,818,1,7,0,9,0,0,559,2.5,19:53,24.5,100
252,John Mitchell,C,COL,423,61,92,153,-12,176,11,22,1,5,7,0,580,10.5,14:38,18.9,50.3
253,Carlo Colaiacovo,D,BUF,441,33,120,153,5,221,6,58,1,3,6,2,501,6.6,17:35,23.9,50
254,Brad Richardson,R,ARI,524,64,88,152,-25,275,2,3,9,11,13,2,794,8.1,12:55,18.7,49
255,Jordin Tootoo,R,NJD,622,60,91,151,-41,915,5,10,0,0,7,0,944,6.4,10:30,14.9,50.5
256,Cal Clutterbuck,R,NYI,511,84,65,149,-33,451,9,15,12,16,13,1,1022,8.2,14:14,21.1,35.4
257,Vladimir Tarasenko,R,STL,193,73,75,148,54,65,17,31,0,0,12,3,533,13.7,16:07,23.1,30
258,Craig Smith,R,NSH,291,68,79,147,8,118,22,40,0,0,10,2,764,8.9,15:16,20.1,41.5
259,Matt Read,R,PHI,291,68,78,146,1,48,7,21,6,8,13,0,547,12.4,17:42,22.9,40.1
260,Jason Garrison,D,TBL,405,44,97,141,49,187,17,48,1,4,13,2,725,6.1,21:00,26.1,50
261,Brayden Schenn,C,PHI,288,63,78,141,-26,150,19,46,0,0,17,2,550,11.5,15:35,19.9,44.3
262,Roman Josi,D,NSH,267,42,98,140,9,76,9,44,1,4,8,2,569,7.4,24:15,28.5,0
263,Ryan McDonagh,D,NYR,332,35,105,140,96,150,5,29,3,10,9,2,584,6,23:30,28.7,33.3
264,Justin Abdelkader,L,DET,413,65,74,139,17,309,10,18,0,1,12,2,758,8.6,14:04,19.2,50.7
265,Jaden Schwartz,L,STL,214,62,77,139,42,49,14,27,3,5,7,1,443,14,16:31,23.5,50.9
266,Darren Helm,C,DET,377,59,78,137,9,82,4,8,9,10,11,1,763,7.7,14:18,20.9,51.4
267,Lars Eller,C,MTL,380,65,71,136,-22,279,8,15,3,7,16,1,619,10.5,14:25,19.5,49.5
268,Cody Hodgson,C,NSH,303,62,74,136,-56,66,19,39,1,2,5,0,610,10.2,15:01,19.3,46.4
269,Viktor Stalberg,L,NYR,351,63,73,136,6,186,0,5,0,0,12,2,738,8.5,12:51,17.8,44.1
270,Tyler Johnson,C,TBL,190,58,78,136,62,56,13,31,5,6,12,2,437,13.3,17:42,22.8,49
271,Marc Staal,D,NYR,555,33,103,136,35,308,7,18,2,10,6,0,653,5.1,21:37,27.4,66.7
272,Nick Leddy,D,NYI,352,30,105,135,24,52,7,45,0,1,4,1,453,6.6,18:40,23.1,0
273,Zach Bogosian,D,BUF,414,40,94,134,-45,363,6,28,2,3,2,1,894,4.5,22:10,26.1,0
274,Nathan Gerbe,L,CAR,362,56,78,134,-11,166,9,24,3,4,9,0,907,6.2,14:55,20.1,39.7
275,Shawn Matthias,C,TOR,422,70,64,134,-27,137,5,9,1,2,4,0,690,10.1,12:52,18.3,45.6
276,Jamie McGinn,L,BUF,381,72,62,134,-47,176,17,28,0,0,10,1,683,10.5,13:10,18.3,64.7
277,Mikael Backlund,C,CGY,314,53,81,134,-7,117,11,24,6,7,10,3,675,7.9,15:29,21.8,47.6
278,Travis Moen,L,DAL,728,59,75,134,-64,782,1,2,8,10,5,0,776,7.6,13:21,19,31.1
279,Brandon Saad,L,CBJ,223,57,77,134,40,48,9,27,1,3,10,1,505,11.3,16:44,22.3,42
280,Bryan Bickell,L,CHI,366,65,68,133,15,186,3,6,0,0,10,0,540,12,12:17,17.2,24
281,Ondrej Palat,L,TBL,186,43,90,133,68,44,7,25,3,6,10,2,349,12.3,17:19,22.4,18.5
282,Kyle Quincey,D,DET,455,27,105,132,8,439,7,49,0,5,4,1,751,3.6,20:49,27.2,0
283,Carl Hagelin,L,ANA,282,59,73,132,51,134,2,2,3,4,12,1,622,9.5,15:40,21.2,33.3
284,Brendan Gallagher,R,MTL,224,65,66,131,42,147,18,26,0,0,9,0,636,10.2,15:47,21.8,39.2
285,Jason Demers,D,DAL,375,25,105,130,28,201,9,38,1,2,5,0,483,5.2,18:27,24.3,0
286,Mark Letestu,C,EDM,334,59,71,130,-13,53,17,34,4,6,7,1,543,10.9,14:35,19.8,52.5
287,Brian Boyle,C,TBL,487,69,59,128,-17,371,5,9,4,10,13,0,865,8,13:03,18,50.1
288,Justin Faulk,D,CAR,277,38,89,127,-48,115,20,48,3,4,7,1,621,6.1,23:44,29.8,0
289,Gustav Nyquist,R,DET,194,65,60,125,2,52,24,40,0,0,11,3,451,14.4,15:42,20.9,31.8
290,Nick Bonino,C,PIT,279,51,74,125,15,78,11,31,0,0,8,1,465,11,15:02,20.5,47.7
291,Dmitry Kulikov,D,FLA,401,27,97,124,-44,251,9,43,1,2,4,2,558,4.8,20:32,25.5,0
292,Mike Santorelli,C,ANA,351,57,66,123,-44,72,8,18,2,5,7,2,644,8.9,14:30,19.2,49.3
293,Vladimir Sobotka,L,STL,381,35,88,123,2,282,3,17,2,3,5,1,489,7.2,14:00,20.2,56.3
294,Sean Couturier,C,PHI,296,46,75,121,12,101,1,14,4,9,6,0,514,8.9,17:03,22.6,47.3
295,Cam Atkinson,R,CBJ,234,63,58,121,0,58,14,25,3,3,14,0,622,10.1,16:07,21.5,33.3
296,Jonathan Huberdeau,L,FLA,211,38,82,120,-9,97,4,27,0,0,2,0,419,9.1,16:32,21.3,35.2
297,Eric Nystrom,L,NSH,557,71,48,119,-68,381,1,1,4,6,11,0,636,11.2,12:54,18.2,42.6
298,Kevin Klein,D,NYR,513,29,89,118,13,148,1,2,0,3,7,2,534,5.4,18:29,24.3,0
299,Johnny Boychuk,D,NYI,409,31,87,118,105,219,7,22,0,5,6,1,878,3.5,20:25,25.2,66.7
300,Matt Beleskey,L,BOS,341,59,58,117,2,310,6,11,0,2,14,0,589,10,12:44,17.2,39.5
301,Nathan MacKinnon,C,COL,161,44,73,117,19,64,13,28,0,0,10,0,489,9,17:25,21.6,45.7
302,Luke Schenn,D,PHI,505,25,91,116,-23,336,1,2,0,3,1,0,645,3.9,18:50,25.9,0
303,Alex Galchenyuk,C,MTL,210,44,71,115,9,87,6,27,0,0,6,0,379,11.6,14:41,20.3,47.7
304,Torrey Mitchell,C,MTL,474,47,68,115,-6,254,1,1,2,5,5,0,556,8.5,12:35,19.1,48.2
305,Travis Hamonic,D,NYI,339,18,96,114,20,367,6,24,0,2,1,0,624,2.9,22:46,26.7,0
306,Drew Miller,L,DET,503,56,58,114,-19,118,2,6,3,4,12,0,676,8.3,13:01,18.3,29.7
307,Chris Thorburn,R,WPG,620,45,68,113,-24,741,2,3,3,3,6,0,556,8.1,09:32,13.9,52.3
308,Cody Eakin,C,DAL,253,51,62,113,-8,103,9,15,5,6,9,2,426,12,15:51,21.9,48.8
309,Brandon Prust,L,VAN,460,39,74,113,22,1002,0,2,7,11,11,0,394,9.9,11:34,15.9,49.5
310,Tyson Barrie,D,COL,198,27,86,113,10,60,7,35,0,0,6,4,335,8.1,20:21,25,0
311,Tomas Tatar,L,DET,197,56,56,112,15,64,14,29,0,0,10,0,439,12.8,14:40,20.1,47.4
312,Nick Spaling,C,TOR,391,49,63,112,-27,106,6,10,1,3,8,0,448,10.9,15:04,21.6,49.4
313,Mika Zibanejad,C,OTT,215,45,66,111,-12,50,10,29,1,1,1,0,438,10.3,15:06,21,47.5
314,Jared Spurgeon,D,MIN,309,28,82,110,11,36,14,41,0,2,8,0,435,6.4,20:56,27.5,0
315,Reilly Smith,R,FLA,218,41,67,108,35,48,10,28,0,1,3,0,352,11.6,14:24,19.4,40
316,Sean Monahan,C,CGY,172,57,50,107,-19,22,14,28,1,2,10,4,358,15.9,18:03,25.5,47.7
317,Andrew Shaw,R,CHI,259,57,50,107,7,241,12,23,0,0,8,1,455,12.5,15:10,19.3,46.2
318,Cody McLeod,L,COL,564,60,47,107,-30,1207,3,4,2,3,6,0,700,8.6,10:41,15.4,30.9
319,Josh Gorges,D,BUF,621,14,91,105,3,290,3,13,0,3,3,2,416,3.4,20:11,27.1,0
320,Andrew MacDonald,D,PHI,372,19,86,105,-19,196,6,33,0,1,4,0,386,4.9,22:38,26.7,0
321,TJ Brodie,D,CGY,273,20,84,104,9,74,6,30,1,5,7,2,334,6,22:09,28.5,0
322,Jamie McBain,D,LAK,310,28,76,104,-17,70,10,33,0,1,4,2,419,6.7,19:02,23.8,0
323,Rob Scuderi,D,PIT,734,8,96,104,27,190,0,0,0,4,1,0,410,2,19:35,25.3,0
324,Nate Thompson,C,ANA,471,44,59,103,-56,238,0,1,5,5,7,3,611,7.2,13:40,20.3,52
325,Niklas Hjalmarsson,D,CHI,484,16,87,103,78,190,0,1,1,7,3,0,467,3.4,20:00,26.9,0
326,Alex Killorn,C,TBL,207,41,62,103,9,115,7,16,1,1,10,1,413,9.9,16:50,21,42.2
327,Carl Soderberg,C,COL,176,30,72,102,6,76,10,29,0,0,6,0,331,9.1,15:46,19.4,46.2
328,Carl Gunnarsson,D,STL,380,18,84,102,30,100,2,15,0,1,2,0,347,5.2,19:49,27.8,0
329,Derek Dorsett,R,VAN,426,40,62,102,-30,1082,2,4,3,6,5,0,581,6.9,12:18,17.6,40.5
330,Kyle Palmieri,R,NJD,213,48,53,101,13,103,10,21,0,0,15,3,433,11.1,12:45,17.1,36.5
331,Tommy Wingels,C,SJS,247,40,61,101,-12,125,4,18,4,6,8,1,491,8.1,15:20,22.2,41.6
332,Nail Yakupov,R,EDM,208,44,55,99,-73,86,16,28,0,0,4,1,432,10.2,14:56,20.1,0
333,Marc Methot,D,OTT,454,17,81,98,22,297,0,4,0,2,1,0,454,3.7,20:04,26.1,0
334,Kyle Chipchura,C,ARI,426,29,68,97,-38,349,1,2,1,3,2,0,337,8.6,10:47,15.4,49
335,Tyler Toffoli,C,LAK,163,47,50,97,56,51,9,16,6,7,10,0,379,12.4,14:04,18.9,31.6
336,Mikael Granlund,C,MIN,172,19,75,94,10,52,2,24,0,0,5,0,258,7.4,17:04,21.5,49.9
337,Mark Scheifele,C,WPG,172,34,59,93,26,42,5,19,0,0,4,1,322,10.5,17:03,21.4,42.8
338,Jake Gardiner,D,TOR,258,23,70,93,-30,65,3,29,1,1,2,0,339,6.8,21:06,25.8,100
339,Shawn Thornton,L,FLA,614,39,54,93,-24,972,0,1,1,1,6,0,904,4.3,09:03,12.4,43.2
340,Chris Kreider,L,NYR,184,42,51,93,43,172,13,21,0,0,5,0,371,11.3,15:02,20.6,41.5
341,Justin Schultz,D,EDM,212,25,67,92,-62,38,5,40,0,0,7,0,332,7.5,22:34,26.6,33.3
342,Nikita Kucherov,R,TBL,151,43,49,92,42,53,7,23,0,0,6,0,340,12.6,14:34,18.9,33.3
343,Shane O'Brien,D,ANA,537,13,79,92,6,916,2,7,0,3,3,0,429,3,16:43,21.8,0
344,Torey Krug,D,BOS,174,26,65,91,32,58,8,40,0,0,2,1,428,6.1,18:51,23.7,50
345,Erik Condra,R,TBL,314,35,56,91,25,142,1,1,4,9,4,0,470,7.4,13:30,19.3,32.1
346,Nick Bjugstad,C,FLA,174,46,45,91,-28,62,9,19,1,2,8,0,443,10.4,16:21,21.8,48.5
347,Roman Polak,D,TOR,493,18,72,90,-31,373,0,5,0,2,5,0,496,3.6,19:12,25.6,33.3
348,Jake Muzzin,D,LAK,223,23,66,89,18,121,8,28,0,1,4,0,468,4.9,20:00,26.9,0
349,Mark Stuart,D,WPG,583,24,64,88,47,639,0,2,1,3,5,0,468,5.1,16:45,22.1,50
350,Matt Calvert,L,CBJ,225,44,44,88,-15,151,5,8,1,2,7,1,321,13.7,14:13,19.9,37.8
351,Karl Alzner,D,WSH,441,13,74,87,29,129,0,2,0,2,1,0,385,3.4,20:03,25.2,0
352,Mark Stone,R,OTT,116,33,54,87,25,30,6,17,1,1,6,2,220,15,16:42,22.1,44.4
353,Colin Greening,L,OTT,255,38,49,87,-17,137,8,15,0,0,5,0,468,8.1,14:14,20.1,43.3
354,Derek MacKenzie,C,FLA,404,37,50,87,9,231,2,3,5,9,3,0,381,9.7,10:40,16.1,53.1
355,Dougie Hamilton,D,CGY,194,24,63,87,14,107,10,27,0,0,3,1,413,5.8,19:30,24.8,0
356,Jeff Petry,D,MTL,331,21,66,87,-65,153,4,19,1,4,2,0,475,4.4,21:28,27.2,50
357,Charlie Coyle,C,MIN,203,35,51,86,6,102,4,7,0,1,10,0,325,10.8,15:35,20.5,44.6
358,Jonathan Ericsson,D,DET,422,18,66,84,9,358,2,2,1,3,2,0,445,4,18:49,25.6,0
359,Marcus Kruger,C,CHI,302,28,56,84,4,130,0,5,0,1,6,0,381,7.3,13:59,21.7,50.9
360,Chris Butler,D,STL,384,13,71,84,-32,183,0,16,2,3,2,1,388,3.4,19:03,25,0
361,Jakob Silfverberg,R,ANA,197,33,50,83,19,58,5,8,4,6,5,0,482,6.8,15:36,21.3,38
362,Ryan Carter,C,MIN,427,36,47,83,-17,409,0,1,3,8,6,0,438,8.2,10:31,15.4,51.6
363,Matt Hendricks,L,EDM,418,41,42,83,-33,561,1,3,3,5,6,0,553,7.4,11:52,17.1,52.7
364,Nino Niederreiter,R,MIN,239,45,38,83,-16,94,8,14,1,1,7,1,401,11.2,13:26,18.2,28.3
365,Zack Smith,C,OTT,333,43,39,82,-31,436,1,4,5,7,7,0,516,8.3,13:43,19.8,51
366,Johnny Gaudreau,L,CGY,97,29,53,82,13,20,9,25,0,0,5,1,203,14.3,18:01,24.8,33.3
367,Nicklas Grossmann,D,ARI,544,12,70,82,12,290,0,1,0,1,2,1,396,3,17:59,24.5,0
368,Alec Martinez,D,LAK,274,31,50,81,34,72,9,27,0,0,3,0,395,7.8,16:37,22.7,0
369,Dwight King,L,LAK,238,37,43,80,11,62,0,4,2,3,5,0,343,10.8,14:14,18.9,47.4
370,Eric Boulton,L,NYI,648,31,48,79,-35,1419,1,1,0,0,2,0,449,6.9,06:42,10,29
371,Filip Forsberg,L,NSH,114,29,49,78,5,32,7,27,0,0,6,2,304,9.5,16:46,21.3,33.3
372,Matt Greene,D,LAK,589,16,62,78,-13,644,0,2,0,2,4,0,462,3.5,16:54,22.4,50
373,Matt Hunwick,D,TOR,362,18,60,78,-1,140,1,15,1,1,3,0,415,4.3,17:56,23.5,0
374,Ryan Ellis,D,NSH,215,22,56,78,22,76,6,20,0,0,5,0,356,6.2,16:54,21.8,0
375,Jimmy Hayes,R,BOS,182,40,37,77,-11,58,9,19,0,0,3,0,325,12.3,12:53,16.6,42.6
376,Trevor Lewis,C,LAK,364,29,48,77,-8,75,0,0,3,4,9,0,603,4.8,13:20,18.5,42.7
377,Gabriel Bourque,R,NSH,234,31,46,77,-13,34,3,4,1,1,4,0,305,10.2,13:19,19.1,50
378,Jeff Schultz,D,LAK,409,11,65,76,78,137,0,0,1,3,1,0,217,5.1,18:20,23.1,100
379,Brock Nelson,C,NYI,170,37,39,76,-2,42,13,22,0,0,4,0,350,10.6,15:07,20.6,43.7
380,Marcus Foligno,L,BUF,206,27,49,76,-21,193,3,11,1,3,4,0,231,11.7,14:55,19,48.6
381,Nikita Nikitin,D,EDM,248,17,58,75,-10,77,6,18,0,1,5,1,384,4.4,19:32,24,0
382,Jay Harrison,D,WPG,372,23,52,75,-27,360,4,14,0,0,5,2,430,5.3,17:11,22.8,0
383,Tim Jackman,R,ANA,483,32,43,75,-66,806,1,4,1,1,2,0,589,5.4,09:04,13.2,46
384,Antoine Roussel,L,DAL,214,36,38,74,-14,468,0,3,0,3,5,0,282,12.8,13:01,19.7,45.5
385,Justin Braun,D,SJS,302,9,64,73,23,109,4,9,0,0,1,0,438,2.1,19:18,25.3,0
386,Ryan Strome,C,NYI,130,25,48,73,22,57,6,18,1,1,3,0,286,8.7,15:24,19.8,45.1
387,Matt Martin,L,NYI,374,33,40,73,-48,580,1,3,0,3,8,0,497,6.6,11:37,16.1,39.1
388,Ryan Garbutt,L,CHI,211,30,42,72,-4,230,0,0,3,3,4,0,426,7,12:10,18.3,49.4
389,Magnus Paajarvi,L,STL,231,33,39,72,-28,48,5,14,1,1,3,0,408,8.1,13:14,17.7,31.3
390,Ladislav Smid,D,CGY,564,12,60,72,-62,466,0,4,0,2,0,0,357,3.4,18:36,24.6,0
391,Matt Halischuk,R,WPG,250,33,39,72,12,53,0,0,0,0,6,0,313,10.5,10:57,16,34.7
392,Grant Clitsome,D,WPG,205,15,56,71,2,98,5,20,0,1,1,0,264,5.7,18:16,22.8,0
393,Luca Sbisa,D,VAN,353,13,58,71,-31,267,1,11,0,3,4,1,358,3.6,17:51,23.1,0
394,Alex Chiasson,R,OTT,177,32,39,71,-25,117,12,22,0,1,6,0,285,11.2,14:15,20.1,41.9
395,Dale Weise,R,MTL,275,31,39,70,22,242,3,3,0,0,5,0,265,11.7,09:51,15,37.5
396,Ben Lovejoy,D,PIT,283,12,58,70,47,164,0,5,0,5,2,0,391,3.1,17:32,23.1,0
397,Hampus Lindholm,D,ANA,172,15,55,70,47,74,2,14,0,0,2,0,258,5.8,20:47,25.5,0
398,Jesse Winchester,C,COL,285,20,50,70,-10,159,1,2,2,2,3,0,463,4.3,10:57,15.5,54.8
399,David Savard,D,CBJ,203,18,51,69,-9,123,5,20,0,1,4,0,243,7.4,20:04,23.1,100
400,Patrick Maroon,L,ANA,163,23,46,69,5,208,3,12,0,0,4,0,253,9.1,12:55,16.3,33.3
401,Joe Colborne,C,CGY,171,22,45,67,-17,87,2,9,1,1,2,0,176,12.5,14:39,20.9,49.1
402,Morgan Rielly,D,TOR,169,13,54,67,-32,26,3,23,0,0,0,0,274,4.7,19:19,25,0
403,Jakub Kindl,D,DET,261,16,50,66,14,145,3,18,0,0,3,1,371,4.3,15:50,21.3,0
404,Sami Vatanen,D,ANA,139,23,43,66,17,60,10,25,1,1,1,0,237,9.7,19:38,24.5,50
405,Aleksander Barkov,C,FLA,132,27,39,66,-5,26,7,15,0,0,5,0,229,11.8,17:21,21.9,47.4
406,Zack Kassian,R,MTL,198,35,31,66,-18,307,4,6,0,0,6,0,249,14.1,12:36,16.9,35.9
407,Cody McCormick,C,BUF,405,21,44,65,-24,550,0,1,1,2,4,0,403,5.2,09:24,14,42.9
408,Kyle Clifford,L,LAK,371,28,37,65,-5,502,0,0,0,0,4,0,414,6.8,10:01,14,36.5
409,Yannick Weber,D,VAN,239,22,42,64,-23,102,12,29,0,0,3,0,366,6,15:30,21.4,0
410,Jack Skille,R,COL,254,32,32,64,-47,100,1,1,1,1,3,0,484,6.6,11:44,16.7,43.3
411,Tomas Hertl,C,SJS,134,30,34,64,8,24,7,10,0,0,7,0,284,10.6,14:56,21.1,55.4
412,Riley Sheahan,C,DET,138,24,40,64,-1,32,7,16,0,0,1,0,208,11.5,15:07,21.8,49.3
413,Mike Hoffman,L,OTT,119,34,30,64,16,18,3,8,0,0,4,1,294,11.6,14:30,19.4,54.8
414,Anders Lee,C,NYI,116,38,26,64,3,55,9,11,0,0,6,0,310,12.3,14:40,19.3,22.2
415,Jeff Tambellini,L,TBL,242,27,36,63,-20,88,4,10,0,0,0,0,347,7.8,11:17,15.6,46.9
416,Riley Nash,C,CAR,188,23,39,62,-12,55,2,9,0,1,3,0,230,10,14:06,20.4,47.8
417,Alexander Burmistrov,C,WPG,210,25,37,62,-11,97,1,3,1,2,3,0,291,8.6,15:12,19.4,43.3
418,Evgeny Kuznetsov,C,WSH,111,19,42,61,14,40,5,18,1,1,2,2,175,10.9,13:57,17.8,44.2
419,Elias Lindholm,C,CAR,154,27,34,61,-42,20,8,22,0,0,6,1,264,10.2,15:41,21.4,48.7
420,Tanner Glass,L,NYR,445,19,41,60,-47,560,1,1,0,0,2,0,344,5.5,10:16,15.2,38.7
421,Deryk Engelland,D,CGY,335,15,45,60,-13,374,0,1,0,2,2,0,299,5,14:18,18.8,0
422,Marco Scandella,D,MIN,242,20,40,60,-11,105,4,14,0,2,6,2,310,6.5,19:59,27.3,0
423,Patrick Wiercioch,D,OTT,174,12,48,60,8,105,7,30,0,0,2,1,276,4.3,16:46,21.7,0
424,Seth Jones,D,NSH,173,14,45,59,-18,46,4,22,1,1,2,1,253,5.5,19:47,24.4,0
425,Jared Boll,R,CBJ,497,26,33,59,-48,1148,1,2,0,0,5,0,358,7.3,07:50,11.7,25
426,Danny DeKeyser,D,DET,167,7,51,58,24,76,1,10,1,1,1,0,196,3.6,21:00,30,0
427,Casey Cizikas,C,NYI,226,23,35,58,-14,84,1,4,2,4,5,0,243,9.5,12:20,18.3,49.8
428,Brandon Pirri,C,FLA,120,37,20,57,9,28,11,17,0,0,4,0,266,13.9,13:58,18,45.8
429,Mark Fayne,D,EDM,329,15,42,57,-19,115,0,6,2,5,1,1,377,4,18:30,25.4,0
430,Matt Nieto,L,SJS,153,22,34,56,-15,38,2,8,1,2,3,0,277,7.9,14:27,21.4,23.1
431,Justin Fontaine,R,MIN,145,23,33,56,18,44,1,4,0,1,3,0,187,12.3,12:03,17.1,75
432,Kevin Porter,C,PIT,214,29,27,56,-24,60,2,4,2,3,5,1,241,12,12:51,16.8,36.6
433,Boone Jenner,C,CBJ,119,33,23,56,-7,63,9,16,0,0,8,0,255,12.9,15:23,20.4,48.9
434,Michael Stone,D,ARI,219,18,37,55,-23,128,3,15,0,1,1,0,341,5.3,18:50,25.4,100
435,John Klingberg,D,DAL,81,13,42,55,12,40,3,19,0,0,4,1,128,10.2,22:09,26.9,0
436,Kevin Hayes,R,NYR,94,21,34,55,19,26,2,7,1,1,3,0,146,14.4,13:10,18.8,36.4
437,Adam Larsson,D,NJD,207,7,47,54,2,99,0,4,0,5,3,1,221,3.2,20:04,24.4,0
438,Zemgus Girgensons,C,BUF,146,24,30,54,-22,43,1,4,4,5,3,1,255,9.4,17:01,22.2,43.6
439,Jacob Trouba,D,WPG,146,17,36,53,8,103,1,9,1,2,1,1,273,6.2,22:34,27.7,0
440,Lance Bouma,C,CGY,202,22,31,53,-3,108,0,1,1,2,4,0,224,9.8,12:16,19,33.7
441,Alexei Emelin,D,MTL,249,12,40,52,-8,195,1,3,1,2,0,0,204,5.9,19:00,24.8,0
442,Michael Raffl,L,PHI,150,31,21,52,6,70,2,2,1,1,5,0,267,11.6,13:42,20,50.5
443,Jori Lehtera,C,STL,90,16,36,52,25,56,2,8,1,2,2,0,124,12.9,16:30,24.4,50.1
444,David Schlemko,D,NJD,246,10,41,51,23,90,0,13,0,0,0,0,288,3.5,16:43,22.8,0
445,Eric Gelinas,D,NJD,132,14,37,51,-8,68,9,29,0,0,4,1,247,5.7,16:25,21.1,0
446,Christopher Tanev,D,VAN,241,11,40,51,43,36,1,4,1,1,4,2,179,6.1,19:08,26.5,0
447,Jay Beagle,R,WSH,268,25,26,51,-13,107,0,0,0,1,5,0,305,8.2,11:52,16.7,55
448,Paul Byron,L,MTL,145,19,32,51,8,41,3,4,3,8,2,0,130,14.6,13:25,20.8,35.4
449,Thomas Hickey,D,NYI,206,9,41,50,3,74,0,1,0,3,2,2,223,4,18:26,23.7,50
450,Andrew Desjardins,L,CHI,300,15,35,50,-19,257,0,0,0,1,5,0,313,4.8,10:21,15.6,53.5
451,Chris Conner,R,PHI,180,22,28,50,-1,38,0,1,0,0,5,0,226,9.7,11:23,14.8,27.3
452,Matt Irwin,D,BOS,155,16,34,50,2,63,6,14,0,0,1,0,322,5,18:13,23.6,0
453,Mark Arcobello,R,TOR,126,21,28,49,-17,28,2,7,0,1,3,2,211,10,14:43,21.2,50
454,Brendan Smith,D,DET,207,11,38,49,3,193,2,7,0,0,1,0,237,4.6,18:00,25.1,0
455,Raphael Diaz,D,NYR,201,8,41,49,-8,62,1,17,0,3,2,0,215,3.7,16:37,22.7,33.3
456,Jason Zucker,L,MIN,112,32,17,49,-1,32,2,5,1,2,4,0,253,12.6,14:07,18.8,25
457,Mike Weber,D,BUF,316,8,41,49,-47,390,0,0,0,3,0,0,241,3.3,17:51,23.1,0
458,Andre Benoit,D,STL,179,11,37,48,-21,60,2,12,1,2,4,1,225,4.9,18:40,25.2,0
459,Devante Smith-Pelly,R,MTL,166,16,32,48,-6,52,1,3,2,3,2,0,222,7.2,12:57,18.1,26.6
460,Adam Pardy,D,WPG,318,4,44,48,14,251,0,1,0,1,0,0,228,1.8,15:15,20.4,0
461,Jonas Brodin,D,MIN,209,13,35,48,28,48,4,11,0,1,1,0,229,5.7,23:37,29.9,0
462,Tim Brent,C,PHI,207,21,27,48,-21,76,3,13,2,3,4,0,171,12.3,10:41,15.5,50.7
463,Jordie Benn,D,DAL,196,6,41,47,10,78,2,5,0,1,0,0,204,2.9,18:09,25.2,50
464,Nick Holden,D,COL,154,15,32,47,5,52,4,13,0,1,4,0,185,8.1,19:11,25.1,0
465,Peter Holland,C,TOR,140,23,22,45,4,57,5,7,1,2,4,0,176,13.1,12:47,17,45.3
466,Brian Flynn,C,MTL,185,19,26,45,-7,22,0,1,2,4,1,0,265,7.2,14:24,20.1,48.1
467,Jared Cowen,D,OTT,227,15,30,45,-11,164,0,2,0,1,4,1,190,7.9,19:07,24.3,0
468,Adam McQuaid,D,BOS,297,9,36,45,54,447,0,0,0,1,1,0,236,3.8,15:37,21.3,0
469,Ben Smith,R,SJS,179,25,19,44,1,4,1,2,0,0,3,0,208,12,12:35,19,51.5
470,Colin McDonald,R,PHI,140,18,26,44,-25,66,1,1,0,0,0,0,216,8.3,11:35,16.2,48.1
471,Joe Vitale,C,ARI,234,11,33,44,-24,156,0,2,0,1,3,0,207,5.3,10:52,14.9,54.8
472,Aaron Ekblad,D,FLA,96,14,29,43,13,38,6,15,0,0,5,0,207,6.8,21:23,23.8,0
473,Colton Sceviour,C,DAL,113,17,26,43,1,17,2,7,0,0,4,0,204,8.3,13:09,18.6,39.8
474,Rob Klinkhammer,L,EDM,186,22,21,43,7,60,2,2,0,0,2,0,235,9.4,11:23,16.4,32.7
475,Victor Rask,C,CAR,95,15,27,42,-15,22,2,14,0,0,3,1,208,7.2,16:37,22.8,52
476,Clayton Stoner,D,ANA,309,6,36,42,3,397,0,0,0,1,2,0,254,2.4,16:30,23.2,0
477,Olli Maatta,D,PIT,113,12,30,42,20,26,3,8,1,1,2,0,159,7.5,18:36,23.5,0
478,Leo Komarov,C,TOR,119,17,25,42,0,46,0,1,1,3,4,0,162,10.5,14:37,21,49.2
479,Peter Harrold,D,STL,274,13,29,42,-29,74,2,9,0,0,1,0,267,4.9,14:21,19.4,27.3
480,Brett Connolly,R,BOS,152,22,19,41,-16,84,5,9,0,0,6,1,218,10.1,11:59,16.1,44.4
481,John Moore,D,NJD,244,10,31,41,-22,74,0,6,0,1,2,0,307,3.3,15:37,21.2,0
482,Rickard Rakell,C,ANA,106,11,30,41,-2,14,2,11,0,0,2,0,154,7.1,12:30,16.1,46.5
483,Cal O'Reilly,C,BUF,113,13,28,41,-4,12,3,8,0,0,1,0,90,14.4,14:22,18.1,45.8
484,Vincent Trocheck,C,FLA,85,18,23,41,-4,34,5,8,1,1,1,0,150,12,15:31,19.5,47.9
485,Zack Stortini,R,OTT,257,14,27,41,-6,725,1,1,0,0,1,0,141,9.9,08:03,11.4,48.1
486,Stephen Gionta,C,NJD,203,14,26,40,-9,69,0,0,1,4,3,0,261,5.4,12:30,18.6,39.6
487,J.T. Miller,C,NYR,129,17,23,40,-5,55,3,7,0,0,4,0,199,8.5,12:40,17.4,48.9
488,Ian Cole,D,PIT,202,10,30,40,27,163,0,4,0,0,0,0,198,5.1,16:29,23.1,0
489,Jacob Josefson,C,NJD,195,13,27,40,-4,46,0,8,4,5,2,0,191,6.8,12:28,18.2,49.1
490,Richard Panik,R,TOR,151,19,20,39,-19,74,3,8,0,0,2,0,177,10.7,11:56,15.9,33.3
491,Simon Despres,D,ANA,164,6,33,39,25,142,1,4,0,0,1,1,203,2.9,16:12,21.6,0
492,Jonathan Drouin,L,TBL,82,5,33,38,4,38,3,7,0,0,0,0,86,5.8,13:26,16.9,51.6
493,Valeri Nichushkin,R,DAL,101,15,23,38,18,12,2,3,0,0,3,0,159,9.4,14:36,18.8,0
494,T.J. Hensick,C,CAR,112,12,26,38,-16,18,5,14,0,0,1,0,193,6.2,11:59,16.8,45.2
495,Ryan Spooner,C,BOS,70,11,27,38,-1,27,4,14,0,0,2,1,139,7.9,13:33,17.3,42.1
496,Beau Bennett,R,PIT,106,12,25,37,1,26,1,6,0,0,4,0,155,7.7,12:46,17.3,37.5
497,Erik Gudbranson,D,FLA,260,10,27,37,-49,312,0,7,0,0,0,0,340,2.9,17:22,23.3,0
498,Brenden Dillon,D,SJS,224,11,25,36,-3,255,0,0,3,4,3,0,283,3.9,20:21,25.7,0
499,Sven Baertschi,L,VAN,82,11,25,36,-2,28,1,5,0,0,0,0,99,11.1,12:18,17.6,100
500,Dmitry Orlov,D,WSH,133,6,29,35,7,39,0,4,0,0,1,0,124,4.8,17:39,20.8,0
501,Brayden McNabb,D,LAK,122,3,32,35,14,83,1,6,0,0,1,0,124,2.4,17:02,22.9,100
502,Matt Frattin,R,TOR,135,17,18,35,-3,44,1,3,0,0,5,1,206,8.3,12:24,16.7,47.6
503,Kyle Cumiskey,D,CHI,139,9,26,35,-9,48,2,8,0,0,1,1,129,7,16:27,23,0
504,Tomas Jurco,R,DET,103,11,23,34,6,32,3,5,0,0,0,0,171,6.4,12:08,17.6,0
505,Ryan Reaves,R,STL,287,17,17,34,-1,529,0,0,0,0,4,0,155,11,07:45,11.9,62.5
506,Radko Gudas,D,PHI,138,7,26,33,2,240,1,4,0,0,3,1,226,3.1,18:18,23.2,0
507,Emerson Etem,R,NYR,118,15,18,33,5,17,1,1,1,3,2,0,173,8.7,12:05,16.1,41.7
508,Joakim Andersson,C,DET,186,14,19,33,-11,46,0,1,0,1,2,0,204,6.9,12:18,18,50.1
509,J.T. Brown,R,TBL,135,9,23,32,-7,36,0,2,0,1,0,0,220,4.1,11:46,16.1,45
510,Corey Potter,D,ARI,129,8,24,32,-11,53,1,14,0,0,0,0,160,5,17:27,23.3,0
511,Rasmus Ristolainen,D,BUF,127,14,18,32,-54,32,6,13,0,0,1,0,214,6.5,20:37,25.6,50
512,Mattias Ekholm,D,NSH,159,10,22,32,5,70,1,2,0,1,1,1,161,6.2,17:58,23.8,0
513,Kevin Connauton,D,CBJ,108,10,22,32,-4,55,0,7,0,0,4,1,169,5.9,15:47,20.3,0
514,Erik Haula,C,MIN,132,15,17,32,10,63,1,1,2,3,2,0,163,9.2,11:18,17.1,46.8
515,Cody Ceci,D,OTT,144,10,22,32,-12,28,1,4,0,0,2,1,236,4.2,18:35,23.6,0
516,Mike Brown,R,SJS,363,18,14,32,-31,715,1,1,1,3,4,0,333,5.4,08:18,12.4,33.3
517,Ryan White,C,PHI,190,12,20,32,-11,279,0,0,0,2,2,0,176,6.8,10:48,15.6,52.1
518,Dustin Jeffrey,C,ARI,125,17,15,32,4,10,1,1,1,1,1,1,146,11.6,11:19,15.2,46.2
519,Oscar Klefbom,D,EDM,93,6,25,31,-31,6,0,5,0,0,0,0,135,4.4,20:45,26.6,0
520,Eric Gryba,D,EDM,181,4,27,31,15,206,0,0,0,1,0,0,189,2.1,17:16,23.2,0
521,David Pastrnak,R,BOS,56,12,19,31,9,16,2,4,0,0,3,1,117,10.3,13:55,18.5,27.8
522,Ryan Murray,D,CBJ,94,7,24,31,3,22,4,11,0,1,0,0,85,8.2,19:52,23.1,0
523,Calvin de Haan,D,NYI,133,5,26,31,2,64,1,4,1,1,1,0,188,2.7,20:01,25.3,0
524,Tanner Pearson,L,LAK,82,17,13,30,19,26,3,3,0,0,5,0,124,13.7,12:47,17.5,42.9
525,Jordan Nolan,C,LAK,208,16,14,30,-10,199,0,0,0,0,3,0,155,10.3,09:09,12.8,15.8
526,Calle Jarnkrok,C,NSH,99,11,19,30,8,22,0,1,0,1,2,0,124,8.9,12:59,19.8,46
527,Bo Horvat,C,VAN,84,15,15,30,-11,18,1,2,1,1,2,0,119,12.6,13:03,19.3,50.9
528,Zach Boychuk,L,CAR,127,12,18,30,-3,16,1,2,0,0,1,0,155,7.7,10:37,15.5,40
529,Nick Tarnasky,L,NYR,245,13,17,30,-30,297,1,1,0,0,2,0,198,6.6,07:10,10.2,36.8
530,Jean-Gabriel Pageau,C,OTT,102,18,12,30,4,23,0,0,4,4,4,0,168,10.7,13:03,19.2,49.8
531,Ryan Murphy,D,CAR,104,6,23,29,-24,24,4,9,0,0,1,0,176,3.4,18:25,23,0
532,Linden Vey,R,VAN,93,10,19,29,-3,18,4,7,0,1,2,0,69,14.5,12:58,17.1,43.1
533,Tom Wilson,R,WSH,163,7,22,29,0,337,1,1,0,0,0,0,159,4.4,09:33,13,13.3
534,Nate Prosser,D,MIN,196,5,24,29,-7,165,0,4,0,1,3,1,110,4.5,14:50,21,0
535,Chris Porter,L,MIN,187,12,17,29,-8,33,0,0,0,0,5,0,224,5.4,10:20,15.9,43.8
536,Tobias Rieder,R,ARI,87,18,11,29,-17,18,1,3,3,3,1,0,231,7.8,17:06,23.6,30.8
537,Matt Bartkowski,D,VAN,146,2,27,29,17,91,0,0,0,0,0,0,184,1.1,17:26,23.3,0
538,Jordan Caron,R,STL,153,12,16,28,-6,78,0,0,0,0,1,0,168,7.1,10:38,14.7,21.4
539,Anton Lander,C,EDM,148,8,20,28,-40,34,4,7,1,2,2,1,164,4.9,12:47,18,48.5
540,Nate Guenin,D,COL,185,5,23,28,5,92,0,0,0,0,1,0,101,5,15:52,22,0
541,Andre Burakovsky,L,WSH,67,11,16,27,8,12,2,4,0,0,3,0,82,13.4,12:53,16.5,43.4
542,Adam Lowry,C,WPG,96,11,16,27,-7,50,0,3,1,1,2,0,121,9.1,14:06,20.3,47.1
543,Brian McGrattan,R,ANA,317,10,17,27,-11,609,0,0,0,0,1,0,207,4.8,04:54,7.4,60
544,Zach Redmond,D,COL,77,7,20,27,0,36,1,7,1,1,1,0,116,6,17:09,21.8,0
545,Ryan Stanton,D,WSH,119,4,23,27,15,69,0,0,0,0,0,0,125,3.2,15:19,21.5,100
546,Josh Jooris,C,CGY,74,14,13,27,-2,39,4,5,0,0,4,1,106,13.2,14:02,22.2,48.2
547,Corey Tropp,R,CHI,148,6,21,27,-11,133,0,0,0,0,1,0,89,6.7,09:07,13.9,12.5
548,Luke Adam,C,NYR,90,15,11,26,-11,36,0,4,0,0,1,0,138,10.9,11:53,15.9,41
549,Jiri Sekac,L,ANA,80,10,16,26,1,24,3,5,0,0,0,0,100,10,13:33,18.1,0
550,Luke Glendening,C,DET,153,13,13,26,-6,58,1,1,0,0,2,0,168,7.7,14:34,21.1,50.8
551,Brad Malone,C,CAR,129,11,15,26,-19,115,0,0,0,0,2,0,102,10.8,09:03,13.3,49.5
552,Chris Tierney,C,SJS,58,8,17,25,-1,14,1,4,0,0,1,0,72,11.1,12:46,18.6,46
553,Davis Drewiske,D,PHI,135,5,20,25,-1,67,1,2,0,0,0,0,119,4.2,15:03,20,100
554,Jon Merrill,D,NJD,129,4,21,25,-21,44,2,6,0,1,2,1,98,4.1,19:37,25.2,0
555,Chris Terry,L,CAR,85,14,11,25,-10,16,3,6,0,0,1,0,99,14.1,12:31,17.5,50
556,Zac Rinaldo,C,BOS,235,8,16,24,-34,597,0,0,0,0,1,0,177,4.5,08:02,11.8,55.6
557,Melker Karlsson,C,SJS,54,13,11,24,-3,20,1,1,0,0,2,0,103,12.6,15:26,22.7,39.4
558,Taylor Beck,L,NYI,86,11,12,23,-6,26,3,4,0,0,3,0,126,8.7,12:44,18.3,57.9
559,Brian Strait,D,NYI,143,5,18,23,-13,66,0,0,0,3,0,0,126,4,17:21,22.3,0
560,Damon Severson,D,NJD,65,5,18,23,-14,26,0,8,0,0,0,0,112,4.5,21:05,26.8,0
561,Victor Bartley,D,NSH,112,1,22,23,2,55,0,0,0,0,0,0,68,1.5,15:36,20.2,0
562,Johan Larsson,L,BUF,82,6,17,23,1,31,1,5,0,0,0,0,95,6.3,13:56,17.7,45.5
563,Drew Shore,C,CGY,78,9,14,23,-16,22,2,4,2,2,2,0,132,6.8,13:54,18.8,46.1
564,Robert Bortuzzo,D,STL,136,6,17,23,-6,207,0,0,0,1,0,0,132,4.5,14:42,20.6,50
565,Dmitrij Jaskin,R,STL,88,14,9,23,3,32,3,3,0,0,4,0,148,9.5,12:34,17.9,53.3
566,Jordan Schroeder,C,MIN,86,9,14,23,2,8,1,2,0,0,2,0,104,8.6,12:05,16.7,44.6
567,David Rundblad,D,CHI,109,4,19,23,-6,30,0,4,0,0,1,0,130,3.1,13:44,17.8,0
568,Andrej Sustr,D,TBL,132,1,22,23,13,58,0,1,0,2,0,0,105,1,16:46,20.9,0
569,Vladislav Namestnikov,C,TBL,64,12,10,22,3,23,1,3,0,0,3,0,69,17.4,11:33,15.5,44
570,Cedric Paquette,C,TBL,74,13,9,22,5,55,0,0,2,2,3,0,104,12.5,13:35,18.1,48.5
571,Dalton Prout,D,CBJ,158,3,19,22,-16,153,0,1,0,0,0,0,147,2,17:37,21.6,0
572,Mark Fraser,D,OTT,219,4,18,22,7,302,0,0,0,1,0,0,104,3.8,14:26,20.1,0
573,Marko Dano,R,CHI,39,9,13,22,13,14,0,0,0,0,1,0,88,10.2,12:56,17.6,43.6
574,Matt Dumba,D,MIN,85,11,11,22,6,29,4,9,0,0,3,1,126,8.7,14:53,19.5,0
575,Jeremy Morin,R,CHI,82,10,12,22,8,69,0,1,0,0,0,0,141,7.1,10:09,15.1,40
576,Brian Gibbons,C,NYR,66,5,17,22,7,14,1,2,0,1,0,0,50,10,12:39,18.4,41.9
577,Nicolas Deslauriers,L,BUF,114,9,12,21,-38,96,0,0,0,1,1,0,122,7.4,11:56,15.7,0
578,Alexander Wennberg,C,CBJ,78,5,16,21,-21,22,1,4,0,0,0,0,99,5.1,15:18,21.3,42.1
579,Chris VandeVelde,C,PHI,133,11,10,21,-13,56,0,1,0,0,0,0,123,8.9,11:24,16.4,46.4
580,Dylan Olsen,D,FLA,116,5,16,21,-15,34,0,2,0,0,0,0,120,4.2,15:01,21.9,0
581,Markus Granlund,C,CGY,56,10,11,21,-3,16,1,2,1,1,1,0,74,13.5,13:06,20.9,38.1
582,Brandon Bollig,L,CGY,199,9,11,20,-16,324,0,0,0,0,1,0,238,3.8,08:57,14.3,54.5
583,Zac Dalpe,C,MIN,117,10,10,20,-28,14,1,1,0,0,1,0,135,7.4,08:23,13,45.7
584,Tyson Strachan,D,MIN,184,1,19,20,-43,199,0,0,0,1,0,0,157,0.6,16:14,21.4,0
585,Andrej Nestrasil,C,CAR,63,7,13,20,-7,8,2,5,0,0,0,0,91,7.7,13:03,17.9,53.8
586,Michael Kostka,D,OTT,70,4,16,20,4,35,0,5,0,0,1,0,105,3.8,18:44,24.6,0
587,Adam Cracknell,R,VAN,92,8,12,20,0,16,0,0,0,0,1,0,97,8.2,09:14,13.8,37.5
588,Connor Murphy,D,ARI,117,5,14,19,-22,60,0,0,0,0,1,0,113,4.4,17:14,23.7,0
589,Matt Donovan,D,BUF,67,2,17,19,-8,26,1,6,0,0,0,0,104,1.9,18:00,22.9,0
590,Steve Oleksy,D,PIT,62,3,16,19,15,86,0,0,0,0,1,0,53,5.7,16:07,19.4,0
591,Justin Falk,D,CBJ,147,2,17,19,-42,134,1,1,0,0,0,0,109,1.8,14:46,21.4,0
592,Steven Kampfer,D,FLA,87,9,10,19,3,32,0,4,0,0,2,0,105,8.6,16:44,21.1,0
593,Leon Draisaitl,C,EDM,43,6,13,19,-12,6,3,6,0,0,2,0,63,9.5,13:36,18.3,40.5
594,Michael Bournival,L,MTL,89,10,9,19,-3,22,1,3,0,0,2,0,105,9.5,09:31,13.7,48.5
595,Jesper Fast,R,NYR,82,9,10,19,-4,12,0,1,0,0,1,0,76,11.8,12:08,18.1,18.2
596,Paul Postma,D,WPG,102,7,11,18,-5,30,4,6,0,0,1,0,98,7.1,14:31,19,0
597,Stefan Elliott,D,ARI,68,6,12,18,-5,16,0,3,0,0,1,0,144,4.2,16:42,22.5,0
598,Rich Clune,L,TOR,122,7,11,18,-4,310,0,0,0,0,2,0,83,8.4,08:39,13.1,28.6
599,Nikita Zadorov,D,COL,78,4,14,18,-19,63,2,5,0,0,1,1,63,6.3,17:26,22.1,100
600,Marc-Andre Gragnani,D,NJD,74,3,15,18,6,34,1,9,0,0,1,1,62,4.8,15:37,20.7,100
601,Curtis Lazar,R,OTT,79,8,10,18,0,14,1,2,0,0,0,0,110,7.3,13:11,18.7,47
602,Matt Fraser,R,WPG,87,11,6,17,-16,27,1,1,0,0,1,0,123,8.9,10:57,14.9,44.4
603,Kevan Miller,D,BOS,102,4,13,17,41,60,0,1,0,0,2,0,95,4.2,18:06,24.2,0
604,Mark Barberio,D,MTL,103,6,11,17,4,44,1,1,0,0,0,0,108,5.6,15:42,20.2,0
605,Dylan Reese,D,ARI,78,3,14,17,-9,40,0,0,0,0,1,0,69,4.3,15:46,19.8,0
606,Tye McGinn,L,TBL,89,9,8,17,-1,44,0,0,0,0,1,0,110,8.2,10:48,14.8,50
607,Nathan Beaulieu,D,MTL,104,2,15,17,23,72,1,4,0,0,0,0,104,1.9,15:11,19.5,0
608,Blair Jones,C,VAN,132,7,10,17,-18,65,0,1,1,1,1,1,147,4.8,09:43,13.8,46.2
609,Mikhail Grigorenko,C,COL,80,6,10,16,-13,6,1,3,0,0,0,0,93,6.5,11:52,15.2,45.1
610,Viktor Tikhonov,R,CHI,71,8,8,16,-7,26,1,1,0,1,1,0,82,9.8,11:52,16.6,37.7
611,Patrick Bordeleau,L,COL,129,8,8,16,-8,185,0,0,0,0,1,0,61,13.1,06:38,10,20
612,Teuvo Teravainen,C,CHI,51,8,8,16,7,8,1,3,0,0,3,0,99,8.1,13:18,18.6,45.7
613,Mark Pysyk,D,BUF,85,4,12,16,-14,20,1,3,0,0,2,1,86,4.7,18:09,23.8,0
614,Eric Tangradi,L,DET,143,5,10,15,-19,86,0,0,0,0,0,0,146,3.4,09:21,12.4,45.5
615,Artemi Panarin,L,CHI,15,4,11,15,4,4,0,3,0,0,1,0,38,10.5,19:04,24.1,0
616,Anthony Duclair,L,ARI,33,7,8,15,9,14,3,4,0,0,1,0,39,17.9,13:20,18.6,0
617,Teemu Pulkkinen,L,DET,49,9,6,15,8,22,1,4,0,0,2,0,103,8.7,11:38,16.2,0
618,Barclay Goodrow,R,SJS,72,4,11,15,-1,46,0,0,0,2,2,0,75,5.3,10:58,16.5,55.2
619,Marc-Andre Cliche,C,COL,151,3,11,14,-12,34,0,0,0,1,0,0,137,2.2,10:33,16,48.8
620,Tim Erixon,D,PIT,93,2,12,14,-3,38,1,7,0,0,0,0,67,3,14:55,19,0
621,Jyrki Jokipakka,D,DAL,65,1,13,14,1,10,0,0,0,0,0,0,48,2.1,16:03,23.5,0
622,Aaron Palushaj,R,PHI,68,3,11,14,-1,18,0,0,0,0,0,0,71,4.2,09:02,12.8,14.3
623,Derek Smith,D,ARI,94,2,12,14,-17,24,0,4,0,0,1,0,91,2.2,13:58,18.9,66.7
624,Brian Lashoff,D,DET,117,2,11,13,-8,57,0,0,0,0,0,0,71,2.8,15:12,22.5,0
625,Pierre-Edouard Bellemare,L,PHI,89,7,6,13,-4,20,0,0,0,0,1,0,123,5.7,12:45,18.4,47.6
626,Max Domi,L,ARI,15,7,6,13,5,6,1,3,0,0,0,0,36,19.4,16:49,21.7,41.2
627,Mark Borowiecki,D,OTT,99,2,11,13,10,198,0,0,0,0,0,0,46,4.3,15:15,21.6,0
628,Cody Goloubef,D,CBJ,64,1,11,12,10,33,0,0,0,1,1,0,55,1.8,14:54,19.2,0
629,Dennis Everberg,R,COL,64,3,9,12,-10,10,0,0,0,0,0,0,69,4.3,11:34,17,0
630,Christian Folin,D,MIN,49,2,10,12,9,15,0,1,0,0,0,0,41,4.9,14:49,20.9,0
631,Matt Taormina,D,TBL,56,4,8,12,3,6,1,2,0,0,0,0,77,5.2,17:24,21.4,0
632,James Wright,C,NYI,146,4,8,12,-19,64,0,0,0,0,0,0,98,4.1,10:45,15.5,46.3
633,Ronalds Kenins,L,VAN,30,4,8,12,-2,8,0,0,0,0,0,0,38,10.5,12:16,17,0
634,Jim O'Brien,C,NJD,63,8,4,12,1,14,1,1,0,0,1,0,86,9.3,11:24,16.7,46.6
635,TJ Brennan,D,TOR,46,4,8,12,-16,23,1,5,0,0,0,0,67,6,16:05,20,0
636,Connor McDavid,C,EDM,13,5,7,12,-4,6,2,3,0,0,1,0,24,20.8,18:00,23.8,36.4
637,Oscar Lindberg,C,NYR,16,7,4,11,9,10,0,1,0,0,1,0,30,23.3,12:14,17.8,43.8
638,Matt Tennyson,D,SJS,46,2,9,11,4,18,1,2,0,1,0,0,60,3.3,15:41,22.1,0
639,Michael Latta,C,WSH,75,1,10,11,5,87,0,0,0,0,0,0,32,3.1,08:06,11.6,49.5
640,Nate Schmidt,D,WSH,77,3,8,11,2,16,0,0,0,0,0,0,92,3.3,15:47,19.2,0
641,Martin Marincin,D,TOR,95,1,10,11,-9,34,0,1,0,1,0,0,74,1.4,18:23,24.6,100
642,Jamie Oleksiak,D,DAL,61,1,10,11,-9,31,0,0,0,0,0,0,56,1.8,14:17,20.5,0
643,Scott Laughton,C,PHI,51,4,7,11,-2,25,0,1,0,0,0,0,90,4.4,12:39,18.5,44.9
644,Frazer McLaren,L,SJS,102,4,7,11,3,264,0,0,0,0,2,0,40,10,04:58,8.5,41.7
645,Seth Griffith,C,BOS,30,6,4,10,-2,6,1,3,0,0,1,0,33,18.2,13:26,17,33.3
646,Korbinian Holzer,D,ANA,65,2,8,10,-10,57,0,0,0,0,1,0,52,3.8,17:08,23,0
647,John Scott,L,ARI,277,5,5,10,-18,529,0,0,0,0,0,0,103,4.9,07:07,11.1,0
648,Sam Bennett,C,CGY,16,3,7,10,-1,2,1,2,0,0,1,0,20,15,15:02,21.8,42.6
649,Brett Sutter,L,MIN,60,2,8,10,-9,40,0,0,0,1,1,0,53,3.8,08:16,12.6,52.1
650,Chris Mueller,C,ANA,53,3,7,10,-8,8,1,1,0,0,1,0,51,5.9,09:43,15.3,51.8
651,Colton Parayko,D,STL,15,5,5,10,9,6,2,3,0,0,3,0,42,11.9,19:59,26.8,0
652,Quinton Howden,C,FLA,47,6,4,10,-8,14,0,0,1,1,0,0,61,9.8,11:53,16.1,28.6
653,Jayson Megna,C,NYR,48,5,5,10,-1,20,0,0,0,0,2,0,49,10.2,10:37,14.7,20
654,Anthony Peluso,R,WPG,114,3,7,10,-6,178,0,0,0,0,0,0,55,5.5,05:50,8.7,25
655,Dylan Larkin,C,DET,15,4,6,10,11,10,0,1,0,0,2,0,39,10.3,16:59,21.7,42.9
656,Brett Ritchie,R,DAL,31,6,3,9,-1,12,0,1,0,0,1,0,78,7.7,13:59,19.4,25
657,Ben Chiarot,D,WPG,52,2,7,9,1,26,0,0,0,0,0,0,47,4.3,16:45,20.9,0
658,Nikolaj Ehlers,R,WPG,16,4,5,9,5,4,1,2,0,0,0,0,53,7.5,14:50,20.9,0
659,Jack Eichel,C,BUF,15,6,3,9,-4,4,3,4,0,0,1,0,56,10.7,18:48,23.9,46.8
660,Chris Summers,D,NYR,67,2,7,9,-22,47,0,0,0,0,0,0,47,4.3,13:42,19.7,0
661,Harry Zolnierczyk,L,ANA,59,5,4,9,-12,83,0,0,0,0,0,0,66,7.6,08:18,12,43.8
662,Mike Blunden,R,TBL,104,4,4,8,-9,107,0,0,0,0,0,0,94,4.3,08:47,12.6,34
663,Reid Boucher,L,NJD,37,3,5,8,-2,6,0,0,0,0,0,0,50,6,11:22,15.4,33.3
664,Nick Shore,C,LAK,49,2,6,8,-6,18,0,1,0,0,0,0,50,4,11:40,15.8,54.7
665,Eric O'Dell,C,OTT,41,3,5,8,-2,29,0,0,0,0,1,0,23,13,09:05,13,48.7
666,Chris Bourque,L,WSH,51,2,6,8,-12,18,0,5,0,0,1,0,60,3.3,10:25,13.5,0
667,Ben Hutton,D,VAN,16,0,8,8,-1,4,0,2,0,0,0,0,25,0,17:45,24.6,0
668,Klas Dahlbeck,D,ARI,38,3,4,7,-4,10,0,0,0,0,0,0,34,8.8,17:24,25.5,0
669,Nikita Nesterov,D,TBL,33,2,5,7,5,35,1,2,0,0,0,0,47,4.3,15:55,19.7,0
670,Luke Gazdic,L,EDM,117,4,3,7,-16,185,0,0,0,0,0,0,61,6.6,06:21,9.6,100
671,Colin Miller,D,BOS,13,1,6,7,5,10,0,3,0,0,0,0,21,4.8,15:18,19.7,0
672,Craig Cunningham,L,ARI,53,3,4,7,-7,4,0,0,1,1,0,0,58,5.2,10:26,15.4,50.3
673,Derrick Pouliot,D,PIT,34,2,5,7,-11,4,1,4,0,0,2,0,56,3.6,17:32,22.4,0
674,Philip Varone,C,BUF,37,4,3,7,-17,14,0,0,0,0,0,0,43,9.3,12:56,17.3,45.3
675,Jared McCann,C,VAN,14,5,2,7,5,4,0,0,0,0,0,0,25,20,11:15,16.6,36.1
676,Alex Petrovic,D,FLA,60,0,7,7,-9,83,0,0,0,0,0,0,49,0,16:17,21,0
677,Taylor Chorney,D,WSH,73,1,6,7,-30,18,1,4,0,0,1,0,56,1.8,16:09,22,0
678,Jarred Tinordi,D,MTL,43,0,6,6,-2,61,0,0,0,0,0,0,20,0,13:15,18.1,0
679,William Karlsson,C,CBJ,36,3,3,6,-8,2,0,1,0,0,1,0,49,6.1,13:06,17.5,47.2
680,Taylor Fedun,D,VAN,11,2,4,6,-1,4,0,2,0,0,0,0,18,11.1,15:15,21.5,0
681,Michal Jordan,D,CAR,52,2,4,6,-11,10,2,2,0,0,0,0,56,3.6,15:27,21.7,0
682,Sam Reinhart,C,BUF,24,2,4,6,0,2,0,0,0,0,1,0,26,7.7,12:13,15.7,29.8
683,Jacob De La Rose,L,MTL,33,4,2,6,-5,12,0,0,1,1,0,0,38,10.5,13:47,19.8,40
684,Michael Chaput,C,CBJ,50,1,5,6,-8,23,0,0,0,0,0,0,29,3.4,09:45,14.5,47.2
685,Andrew Miller,R,EDM,13,1,5,6,-1,0,0,0,0,0,0,0,17,5.9,12:15,16.7,33.3
686,Micheal Ferland,L,CGY,34,2,4,6,-2,25,0,1,0,0,1,0,44,4.5,10:39,18.9,100
687,Nicklas Jensen,R,VAN,24,3,3,6,-3,10,0,1,0,0,1,0,37,8.1,14:13,18.2,0
688,Connor Carrick,D,WSH,34,1,5,6,-9,23,0,0,0,0,0,0,26,3.8,15:58,19.7,0
689,Bobby Sanguinetti,D,BUF,45,2,4,6,-6,8,0,1,0,0,1,0,58,3.4,14:12,19.6,0
690,Austin Watson,L,NSH,17,3,3,6,2,7,0,0,0,0,0,0,16,18.8,10:44,16.5,42.6
691,John McCarthy,C,SJS,88,3,3,6,-24,22,0,0,0,0,0,0,107,2.8,09:46,15.6,47.9
692,Joakim Nordstrom,L,CAR,58,1,5,6,-8,6,0,0,0,0,0,0,72,1.4,11:03,17.1,31.6
693,Mattias Janmark,C,DAL,16,3,3,6,-1,0,0,1,0,0,1,0,22,13.6,13:47,19,36.1
694,Lucas Lessio,L,ARI,29,2,3,5,-12,10,0,0,0,0,0,0,48,4.2,12:37,16.4,0
695,Zach Trotman,D,BOS,32,1,4,5,-3,0,0,0,0,0,1,0,57,1.8,16:14,22.7,0
696,Jordan Martinook,L,ARI,22,2,3,5,-7,0,0,0,0,0,1,0,28,7.1,13:44,18.5,70
697,Ryan Hamilton,L,EDM,30,1,4,5,-10,8,1,1,0,0,0,0,19,5.3,12:12,17.2,22.7
698,Bracken Kearns,C,NYI,31,3,2,5,-2,16,1,1,0,0,0,0,37,8.1,12:11,18.4,42.5
699,Cody Bass,C,NSH,49,2,3,5,-3,71,0,0,1,2,1,0,30,6.7,06:27,9.9,44.3
700,Colton Sissons,C,NSH,18,2,3,5,4,4,0,0,0,0,0,0,14,14.3,10:29,15.4,50
701,Max Reinhart,C,NSH,23,1,4,5,-5,6,0,1,0,0,0,0,36,2.8,12:01,17,32.6
702,Patrice Cormier,C,WPG,51,1,4,5,-5,18,0,0,0,0,0,0,44,2.3,07:15,11.2,58.2
703,Brandon Manning,D,PHI,33,0,5,5,5,17,0,0,0,0,0,0,37,0,16:17,23.2,0
704,Curtis McKenzie,L,DAL,37,4,1,5,-9,48,0,0,0,0,0,0,41,9.8,11:26,16.9,37.5
705,Stefan Matteau,L,NJD,30,2,2,4,-3,14,0,0,0,0,0,0,35,5.7,09:29,13.5,0
706,Darnell Nurse,D,EDM,9,1,3,4,-2,2,0,1,0,0,0,0,12,8.3,19:08,24.2,0
707,Jake Virtanen,R,VAN,12,1,3,4,2,13,0,0,0,0,0,0,19,5.3,09:49,15.2,50
708,Josh Manson,D,ANA,36,1,3,4,1,33,0,0,0,0,1,0,40,2.5,18:15,23.2,0
709,Brian Dumoulin,D,PIT,29,1,3,4,2,6,0,0,0,0,0,0,25,4,16:46,24.5,0
710,Jordan Szwarz,R,ARI,35,4,0,4,-8,21,0,0,0,0,1,0,33,12.1,09:53,14.6,33.3
711,Ty Rattie,R,STL,18,0,4,4,-3,4,0,0,0,0,0,0,16,0,09:15,14.3,0
712,Andy Andreoff,L,LAK,32,3,1,4,1,57,0,0,0,0,1,0,21,14.3,08:22,12.3,42.9
713,Matt Puempel,L,OTT,19,3,1,4,6,8,0,0,0,0,1,0,17,17.6,08:38,13.4,0
714,Zach Sill,C,WSH,83,1,3,4,-9,96,0,0,0,0,0,0,57,1.8,08:57,12.4,43.7
715,Shane Prince,L,OTT,13,0,4,4,0,0,0,0,0,0,0,0,15,0,11:56,16.2,0
716,Adam Clendening,D,PIT,22,1,3,4,3,14,1,3,0,0,0,0,17,5.9,16:29,22.5,0
717,Mirco Mueller,D,SJS,40,1,3,4,-8,10,0,0,0,0,0,0,32,3.1,16:50,24.4,0
718,Tyler Wotherspoon,D,CGY,15,0,4,4,-6,4,0,0,0,0,0,0,4,0,13:54,19.1,0
719,Iiro Pakarinen,R,EDM,25,2,2,4,-8,4,0,2,0,0,0,0,44,4.5,09:45,14.6,54.5
720,Brandon Gormley,D,COL,39,2,2,4,-6,18,1,1,0,0,0,0,46,4.3,14:58,21.3,0
721,Aaron Ness,D,WSH,29,1,2,3,-13,12,0,0,0,0,0,0,29,3.4,15:27,21.1,0
722,Gabriel Dumont,C,MTL,18,1,2,3,-1,13,0,0,0,0,0,0,26,3.8,09:05,13.9,54.1
723,Joonas Donskoi,R,SJS,10,2,1,3,3,4,0,0,0,0,0,0,18,11.1,14:44,20.3,0
724,Sven Andrighetto,R,MTL,12,2,1,3,0,0,0,0,0,0,0,0,12,16.7,09:24,13.3,20
725,Xavier Ouellet,D,DET,25,2,1,3,4,4,0,0,0,0,0,0,31,6.5,16:05,22.2,0
726,David Warsofsky,D,PIT,10,1,2,3,2,0,0,0,0,0,0,0,17,5.9,16:48,21,0
727,Chris Brown,C,WSH,22,2,1,3,1,21,0,0,0,0,0,0,18,11.1,07:56,11.1,37.2
728,Micheal Haley,C,SJS,60,2,1,3,-10,184,0,0,0,0,0,0,33,6.1,07:39,11,45.8
729,Robby Fabbri,C,STL,9,2,1,3,5,0,0,0,0,0,1,0,18,11.1,10:17,14.3,0
730,Mark Cundari,D,SJS,8,1,2,3,-6,2,1,2,0,0,0,0,14,7.1,15:16,19.1,0
731,Pierre-Luc Letourneau-Leblond,L,NJD,41,0,3,3,-2,101,0,0,0,0,0,0,16,0,05:12,8.7,50
732,Stuart Percy,D,TOR,9,0,3,3,-4,2,0,2,0,0,0,0,13,0,18:04,24.8,0
733,Jerry D'Amigo,R,BUF,31,1,2,3,-5,2,0,0,0,0,0,0,19,5.3,08:32,12.3,25
734,Patrik Nemeth,D,DAL,32,0,3,3,-6,12,0,0,0,0,0,0,22,0,15:34,21.6,0
735,Josh Leivo,L,TOR,16,2,1,3,-1,4,0,0,0,0,0,0,14,14.3,08:37,12.3,0
736,Brett Bulmer,R,MIN,14,0,3,3,-1,8,0,0,0,0,0,0,14,0,10:54,15.8,0
737,Tyler Pitlick,R,EDM,27,3,0,3,-5,4,0,0,0,0,1,0,27,11.1,11:09,16.3,50
738,Trevor van Riemsdyk,D,CHI,33,1,2,3,-4,7,0,0,0,0,0,0,38,2.6,16:35,22.2,0
739,Sean Collins,C,WSH,21,0,3,3,-2,10,0,0,0,0,0,0,10,0,10:03,15,30
740,Jake McCabe,D,BUF,22,2,1,3,-5,19,0,0,0,0,0,0,14,14.3,16:34,23.8,0
741,Brad Hunt,D,EDM,14,1,2,3,-9,0,1,1,0,0,0,0,21,4.8,18:00,23.8,0
742,Kerby Rychel,L,CBJ,6,0,3,3,2,7,0,0,0,0,0,0,4,0,10:27,16,0
743,Brock McGinn,L,CAR,12,2,1,3,-11,4,0,0,0,0,0,0,16,12.5,11:14,16.3,0
744,Andrew Copp,C,WPG,13,1,2,3,4,0,0,0,0,0,0,0,13,7.7,07:36,12.2,55.7
745,Connor Brickley,C,FLA,10,1,2,3,3,14,0,0,0,0,1,0,4,25,08:13,12.3,0
746,Petteri Lindbohm,D,STL,23,2,1,3,-1,26,0,0,0,0,0,0,32,6.3,15:34,22.5,0
747,Brandon Davidson,D,EDM,20,3,0,3,-4,6,1,1,0,0,0,0,19,15.8,15:51,22.6,0
748,Tim Schaller,C,BUF,20,1,2,3,-5,2,0,0,0,0,0,0,21,4.8,11:00,16.1,40
749,Radek Faksa,C,DAL,12,1,1,2,3,8,0,0,0,0,0,0,17,5.9,12:07,17.5,48
750,Jason Akeson,R,BUF,15,1,1,2,2,8,0,0,0,0,0,0,13,7.7,08:41,12.3,50
751,Kevin Czuczman,D,NYI,13,0,2,2,-5,14,0,0,0,0,0,0,24,0,19:32,25.2,100
752,Nikolay Goldobin,L,SJS,5,1,1,2,1,0,0,0,0,0,0,0,6,16.7,12:48,18,0
753,Borna Rendulic,R,COL,14,1,1,2,-1,6,0,0,0,0,0,0,7,14.3,09:00,13.1,0
754,Sam Carrick,C,TOR,16,1,1,2,1,9,0,0,0,0,0,0,17,5.9,06:29,9.8,41.8
755,Frank Corrado,D,TOR,28,2,0,2,-10,4,0,0,0,0,0,0,32,6.3,14:24,19.8,0
756,Joey Hishon,C,COL,13,1,1,2,-1,0,0,0,0,0,1,0,19,5.3,10:06,14.5,44.9
757,Alexey Marchenko,D,DET,22,1,1,2,-1,6,0,0,0,0,0,0,9,11.1,15:29,23.9,0
758,Dave Dziurzynski,L,OTT,12,2,0,2,-1,13,0,0,0,0,0,0,20,10,12:32,16.9,75
759,Tyler Randell,R,BOS,7,2,0,2,1,5,0,0,0,0,1,0,6,33.3,07:23,11,0
760,Chris Breen,D,BOS,9,0,2,2,1,5,0,0,0,0,0,0,4,0,09:23,15.4,0
761,Alex Grant,D,ARI,2,2,0,2,3,2,0,0,0,0,0,0,2,100,12:10,18.5,0
762,Kenny Agostino,L,CGY,8,1,1,2,-2,0,0,0,0,0,0,0,12,8.3,11:05,17,0
763,Daniel Sprong,R,PIT,11,2,0,2,1,0,0,0,0,0,0,0,18,11.1,09:38,13.4,0
764,Kael Mouillierat,L,PIT,6,1,1,2,-3,8,0,0,0,0,0,0,1,100,08:40,13.7,47.1
765,Viktor Svedberg,D,CHI,14,1,1,2,0,2,0,0,0,0,0,0,23,4.3,17:19,24.9,0
766,Petr Straka,R,PHI,3,0,2,2,1,0,0,0,0,0,0,0,2,0,09:27,13.3,0
767,David Musil,D,EDM,4,0,2,2,-2,2,0,0,0,0,0,0,3,0,19:48,27.3,0
768,Derek Grant,C,CGY,31,0,2,2,-7,4,0,0,0,0,0,0,42,0,09:25,15.3,53.9
769,Jeremy Welsh,C,STL,25,1,1,2,0,10,0,0,0,0,0,0,19,5.3,07:02,10.9,52.8
770,Rocco Grimaldi,C,FLA,12,2,0,2,-1,4,0,0,0,0,0,0,27,7.4,13:09,18.2,41.2
771,Chad Ruhwedel,D,BUF,32,0,2,2,0,2,0,1,0,0,0,0,47,0,16:23,21.3,0
772,Bryan Rust,R,PIT,19,1,1,2,-1,4,0,0,0,0,0,0,40,2.5,11:01,16.1,0
773,Liam O'Brien,C,WSH,13,1,1,2,4,23,0,0,0,0,0,0,16,6.3,07:32,11.5,50
774,Sergei Plotnikov,L,PIT,11,0,2,2,2,10,0,0,0,0,0,0,10,0,09:47,15,50
775,Bobby Farnham,R,NJD,19,1,1,2,2,38,0,0,0,0,0,0,13,7.7,07:26,11.3,0
776,Justin Florek,L,NYI,4,1,1,2,1,0,0,0,0,0,0,0,5,20,11:50,16,0
777,Seth Helgeson,D,NJD,22,0,2,2,4,18,0,0,0,0,0,0,11,0,13:27,19.8,0
778,Sergey Kalinin,C,NJD,14,1,1,2,-4,6,0,0,0,0,0,0,13,7.7,11:34,15.5,48.6
779,Ben Street,C,COL,26,0,2,2,-4,6,0,0,0,1,0,0,39,0,10:55,17.3,48
780,Erik Gustafsson,D,CHI,5,0,2,2,4,0,0,0,0,0,0,0,7,0,13:39,18.6,0
781,Andrew MacWilliam,D,WPG,12,0,2,2,-6,12,0,0,0,0,0,0,5,0,15:24,20.2,0
782,Andy Miele,C,DET,15,0,2,2,2,11,0,0,0,0,0,0,10,0,09:08,12.7,32.9
783,Noah Hanifin,D,CAR,12,0,2,2,-5,6,0,0,0,0,0,0,15,0,16:34,21.3,0
784,Danny Biega,D,CAR,10,0,2,2,-5,0,0,0,0,0,0,0,7,0,16:08,22.5,0
785,Joe Morrow,D,BOS,24,2,0,2,1,8,0,0,0,0,0,0,25,8,16:25,22,0
786,Jaime Sifers,D,CBJ,37,0,2,2,-3,24,0,1,0,0,0,0,34,0,12:53,18.3,0
787,Stanislav Galiev,R,WSH,4,1,1,2,2,2,0,0,0,0,0,0,3,33.3,09:30,12,0
788,Joonas Kemppainen,C,BOS,12,1,1,2,-2,2,0,0,0,0,0,0,10,10,12:09,18.5,49.6
789,Michael Paliotta,D,CBJ,1,0,1,1,0,0,0,0,0,0,0,0,2,0,12:45,19,0
790,Andrew Campbell,D,TOR,36,0,1,1,-13,10,0,0,0,0,0,0,32,0,17:08,25.9,0
791,Joel Edmundson,D,STL,14,0,1,1,3,18,0,0,0,0,0,0,17,0,13:41,20.1,0
792,Cameron Gaunce,D,FLA,20,1,0,1,-2,23,0,0,0,0,0,0,13,7.7,13:13,18.6,0
793,Justin Hodgman,C,STL,5,1,0,1,-2,2,1,1,0,0,0,0,3,33.3,11:23,16.2,54.3
794,Tanner Kero,C,CHI,6,1,0,1,0,0,0,0,0,0,0,0,11,9.1,12:15,17.7,44.4
795,Joe Whitney,R,NYI,5,1,0,1,-1,0,0,0,0,0,0,0,1,100,07:06,10.6,0
796,Andreas Athanasiou,C,DET,2,1,0,1,1,0,0,0,0,0,1,0,3,33.3,09:14,15,45.5
797,Carter Camper,C,WSH,3,1,0,1,1,0,0,0,0,0,0,0,1,100,06:42,10.3,42.9
798,Josh Anderson,R,CBJ,6,0,1,1,-1,2,0,0,0,0,0,0,10,0,13:27,19.8,0
799,Mike Angelidis,L,TBL,10,1,0,1,-1,17,0,0,0,0,0,0,8,12.5,06:50,11.1,42.4
800,Corban Knight,C,FLA,9,1,0,1,-1,0,0,0,0,0,0,0,6,16.7,07:35,12.7,53.2
801,Alex Biega,D,VAN,8,1,0,1,0,0,0,0,0,0,1,0,8,12.5,16:04,24.4,0
802,Frank Vatrano,C,BOS,2,1,0,1,1,0,0,0,0,0,0,0,8,12.5,13:12,18,0
803,Tommy Cross,D,BOS,3,0,1,1,-1,0,0,0,0,1,0,0,0,0,13:05,17.7,0
804,Chris Wideman,D,OTT,4,1,0,1,3,0,0,0,0,0,0,0,10,10,15:55,19.8,0
805,Freddie Hamilton,C,CGY,29,1,0,1,-7,2,0,0,0,0,1,0,24,4.2,08:37,13.2,39.2
806,Mike Moore,D,WSH,6,1,0,1,-1,7,0,0,0,0,0,0,5,20,10:06,14.8,0
807,Emile Poirier,L,CGY,6,0,1,1,1,0,0,0,0,0,0,0,2,0,07:59,13.7,0
808,Jonathan Marchessault,C,TBL,6,1,0,1,-1,0,0,0,0,0,0,0,4,25,10:06,13.7,33.3
809,Christian Thomas,L,MTL,21,1,0,1,-3,7,0,0,0,0,0,0,29,3.4,09:05,13.1,0
810,Michael Sgarbossa,C,ANA,9,0,1,1,-3,14,0,0,0,0,0,0,8,0,09:16,12.9,40
811,Griffin Reinhart,D,EDM,16,0,1,1,2,12,0,0,0,0,0,0,9,0,15:24,20.9,0
812,Brendan Gaunce,C,VAN,2,1,0,1,0,0,0,0,0,0,0,0,2,50,10:48,16,100
813,Scott Harrington,D,TOR,20,0,1,1,-12,8,0,0,0,0,0,0,18,0,15:22,22.5,0
814,Brett Pesce,D,CAR,8,0,1,1,-1,2,0,0,0,0,0,0,9,0,18:35,25.3,0
815,Mat Clark,D,COL,9,0,1,1,0,6,0,0,0,0,0,0,4,0,12:23,16.7,0
816,Anton Slepyshev,L,EDM,10,0,1,1,-4,2,0,0,0,0,0,0,5,0,08:27,12.2,100
817,Eric Selleck,L,ARI,2,0,1,1,2,17,0,0,0,0,0,0,2,0,07:55,12.5,0
818,Jordan Oesterle,D,EDM,6,0,1,1,-4,0,0,0,0,0,0,0,7,0,14:41,17.8,0
819,Mike Sislo,R,NJD,24,0,1,1,-3,2,0,0,0,0,0,0,33,0,10:15,15.1,83.3
820,Ryan Hartman,R,CHI,8,0,1,1,-2,2,0,0,0,0,0,0,11,0,08:38,13.5,25
821,Casey Bailey,C,TOR,6,1,0,1,1,2,0,0,0,0,0,0,9,11.1,09:02,12,0
822,Nic Petan,L,WPG,12,1,0,1,0,6,0,0,0,0,0,0,5,20,09:22,13,52.6
823,Derek Forbort,D,LAK,5,0,1,1,0,2,0,0,0,0,0,0,5,0,12:48,19.4,0
824,Landon Ferraro,C,DET,17,1,0,1,-2,9,0,0,0,0,1,0,18,5.6,09:50,15,25
825,Mike Halmo,L,NYI,20,1,0,1,-1,32,0,0,0,0,0,0,25,4,09:29,13.2,20
826,David Broll,L,TBL,5,0,1,1,1,5,0,0,0,0,0,0,3,0,08:11,13.4,0
827,Alexei Kaigorodov,C,ARI,6,0,1,1,1,0,0,0,0,0,0,0,3,0,04:52,7,20.8
828,Brian Ferlin,R,BOS,7,0,1,1,0,0,0,0,0,0,0,0,6,0,08:47,14.1,0
829,Travis Morin,C,DAL,13,0,1,1,3,0,0,0,0,0,0,0,16,0,10:48,15.3,49.1
830,Andrew Agozzino,L,COL,1,0,1,1,1,0,0,0,0,0,0,0,1,0,09:45,14,0
831,Byron Froese,C,TOR,9,0,1,1,-4,2,0,0,0,0,0,0,13,0,12:42,21.4,54
832,Viktor Arvidsson,L,NSH,10,1,0,1,-1,4,0,0,0,0,1,0,15,6.7,10:06,13.5,0
833,Evgeny Medvedev,D,PHI,10,0,1,1,-1,6,0,1,0,0,0,0,15,0,17:28,23.2,0
834,Miikka Salomaki,R,NSH,5,1,0,1,1,2,0,0,0,0,0,0,9,11.1,11:41,17.2,0
835,Tyler Gaudet,C,ARI,7,0,1,1,-3,0,0,0,0,0,0,0,3,0,11:44,15.4,50
836,Bryan Lerg,C,SJS,8,1,0,1,0,0,0,0,0,0,1,0,12,8.3,09:48,14.8,56.8
837,Paul Carey,C,WSH,22,0,1,1,4,0,0,0,0,0,0,0,11,0,07:05,10.3,0
838,Brendan Shinnimin,C,ARI,12,0,1,1,-1,8,0,0,0,0,0,0,10,0,11:02,15.8,41.6
839,Brian O'Neill,R,NJD,13,0,0,0,-6,6,0,0,0,0,0,0,10,0,10:23,15.3,100
840,Cameron Schilling,D,CHI,6,0,0,0,-2,4,0,0,0,0,0,0,4,0,12:32,16.5,0
841,Bogdan Yakimov,C,EDM,1,0,0,0,-1,0,0,0,0,0,0,0,1,0,11:19,18,42.9
842,Kevin Fiala,L,NSH,1,0,0,0,-1,0,0,0,0,0,0,0,3,0,11:25,15,0
843,Patrick Brown,C,CAR,7,0,0,0,-4,4,0,0,0,0,0,0,4,0,08:52,13,0
844,Luke Witkowski,D,TBL,16,0,0,0,0,15,0,0,0,0,0,0,10,0,15:11,21.1,0
845,Ryan Sproul,D,DET,1,0,0,0,0,0,0,0,0,0,0,0,3,0,18:25,25,0
846,Joe Piskula,D,ANA,13,0,0,0,-8,10,0,0,0,0,0,0,8,0,11:10,16.5,0
847,Bryce Van Brabant,L,CGY,6,0,0,0,-1,2,0,0,0,0,0,0,4,0,09:09,14.3,0
848,Colin Smith,C,COL,1,0,0,0,0,0,0,0,0,0,0,0,1,0,06:06,9,40
849,Ben Holmstrom,C,NYI,7,0,0,0,-1,7,0,0,0,0,0,0,3,0,07:23,10.9,43.5
850,Mark Alt,D,PHI,1,0,0,0,-1,0,0,0,0,0,0,0,0,0,09:25,13,0
851,Garrett Wilson,L,FLA,9,0,0,0,-2,0,0,0,0,0,0,0,13,0,10:32,14.4,0
852,Nick Cousins,C,PHI,11,0,0,0,1,2,0,0,0,0,0,0,6,0,08:49,12.9,44.2
853,Duncan Siemens,D,COL,1,0,0,0,0,0,0,0,0,0,0,0,0,0,14:00,22,0
854,Dominik Uher,C,PIT,2,0,0,0,-1,0,0,0,0,0,0,0,0,0,06:27,9.5,0
855,Joel Armia,R,WPG,1,0,0,0,0,0,0,0,0,0,0,0,0,0,14:47,19,0
856,Logan Shaw,R,FLA,1,0,0,0,0,0,0,0,0,0,0,0,1,0,10:49,12,0
857,Brody Sutter,C,CAR,4,0,0,0,-2,0,0,0,0,0,0,0,0,0,07:26,11.3,50
858,Justin Shugg,R,CAR,3,0,0,0,0,2,0,0,0,0,0,0,3,0,05:41,7.7,0
859,Mitch Callahan,R,DET,1,0,0,0,0,0,0,0,0,0,0,0,0,0,09:01,13,0
860,Henrik Samuelsson,C,ARI,3,0,0,0,-2,2,0,0,0,0,0,0,4,0,13:16,17,100
861,Greg McKegg,C,FLA,4,0,0,0,0,0,0,0,0,0,0,0,2,0,07:49,12.3,46.2
862,Alex Khokhlachev,C,BOS,6,0,0,0,-3,2,0,0,0,0,0,0,6,0,11:31,16,48.6
863,Jordan Weal,C,LAK,2,0,0,0,-1,0,0,0,0,0,0,0,0,0,07:17,11,57.1
864,Slater Koekkoek,D,TBL,4,0,0,0,-1,2,0,0,0,0,0,0,6,0,15:01,20.5,0
865,Andreas Martinsen,L,COL,1,0,0,0,0,2,0,0,0,0,0,0,2,0,10:21,17,0
866,Julian Melchiori,D,WPG,1,0,0,0,-1,0,0,0,0,0,0,0,0,0,08:41,14,0
867,Jamie Devane,L,NSH,2,0,0,0,-1,0,0,0,0,0,0,0,1,0,05:51,9.5,0
868,Andrew Bodnarchuk,D,CBJ,5,0,0,0,-2,2,0,0,0,0,0,0,0,0,07:19,10.4,0
869,Brett Kulak,D,CGY,7,0,0,0,-1,2,0,0,0,0,0,0,6,0,12:12,18.6,0
870,Tyler Graovac,C,MIN,4,0,0,0,-1,0,0,0,0,0,0,0,4,0,10:19,14.3,44.1
871,Mikko Rantanen,R,COL,6,0,0,0,-5,0,0,0,0,0,0,0,7,0,09:12,12.7,0
872,Phillip Danault,C,CHI,2,0,0,0,0,0,0,0,0,0,0,0,2,0,09:30,14.5,30
873,Conor Allen,D,NSH,7,0,0,0,-2,4,0,0,0,0,0,0,4,0,13:09,18.9,0
874,Matt Lindblad,C,NYR,4,0,0,0,0,0,0,0,0,0,0,0,3,0,09:45,14.5,28.6
875,Raman Hrabarenka,D,NJD,1,0,0,0,1,0,0,0,0,0,0,0,0,0,11:55,16,0
876,Chris Wagner,C,ANA,19,0,0,0,-3,17,0,0,0,0,0,0,24,0,09:34,14.3,55.3
877,Stefan Noesen,R,ANA,1,0,0,0,0,0,0,0,0,0,0,0,0,0,06:54,10,0
878,Chandler Stephenson,C,WSH,9,0,0,0,-3,2,0,0,0,0,0,0,2,0,07:51,10.7,54.5
879,Karl Stollery,D,SJS,12,0,0,0,0,8,0,0,0,0,0,0,10,0,13:21,19.2,0
880,Philip Samuelsson,D,ARI,9,0,0,0,-4,0,0,0,0,0,0,0,9,0,16:09,21.6,0
881,Scott Mayfield,D,NYI,5,0,0,0,-3,7,0,0,0,0,0,0,7,0,17:22,23.8,0
882,Rasmus Rissanen,D,CAR,6,0,0,0,-5,4,0,0,0,0,0,0,3,0,14:58,22.5,0
883,Kurtis Gabriel,R,MIN,1,0,0,0,0,5,0,0,0,0,0,0,0,0,02:51,6,0
884,Brandon DeFazio,L,BOS,2,0,0,0,0,0,0,0,0,0,0,0,2,0,05:56,9,0
885,Anthony Bitetto,D,NSH,8,0,0,0,-2,7,0,0,0,0,0,0,3,0,11:59,14.9,100
886,Scott Wilson,L,PIT,1,0,0,0,0,0,0,0,0,0,0,0,0,0,04:21,7,0
887,Ryan Bourque,C,NYR,1,0,0,0,-1,0,0,0,0,0,0,0,1,0,11:49,18,0
888,Shayne Gostisbehere,D,PHI,2,0,0,0,-2,0,0,0,0,0,0,0,2,0,12:33,17,0
889,Brandon Mashinter,L,CHI,23,0,0,0,-5,27,0,0,0,0,0,0,10,0,05:49,8.9,100
890,Max Friberg,L,ANA,5,0,0,0,0,2,0,0,0,0,0,0,1,0,09:39,14.6,0
891,Brendan Woods,L,CAR,2,0,0,0,-1,0,0,0,0,0,0,0,3,0,06:02,9.5,0
892,Brendan Ranford,L,DAL,1,0,0,0,0,0,0,0,0,0,0,0,0,0,09:19,13,0
893,Petter Granberg,D,TOR,8,0,0,0,1,6,0,0,0,0,0,0,1,0,11:29,16.3,0
894,Jonathan Racine,D,FLA,1,0,0,0,-1,2,0,0,0,0,0,0,0,0,15:35,25,0
895,Devin Shore,C,DAL,3,0,0,0,2,0,0,0,0,0,0,0,1,0,12:07,16.7,0
896,Christoph Bertschy,C,MIN,1,0,0,0,0,0,0,0,0,0,0,0,2,0,08:08,11,0
897,Greg Pateryn,D,MTL,20,0,0,0,0,6,0,0,0,0,0,0,10,0,12:11,17.1,0
898,Dylan McIlrath,D,NYR,6,0,0,0,0,16,0,0,0,0,0,0,4,0,11:21,16.7,0
899,Keegan Lowe,D,CAR,2,0,0,0,-2,10,0,0,0,0,0,0,0,0,13:50,19.5,0
900,Max McCormick,R,OTT,4,0,0,0,1,0,0,0,0,0,0,0,6,0,09:45,13.8,0
901,Bill Arnold,C,CGY,1,0,0,0,-1,0,0,0,0,0,0,0,0,0,13:35,16,55.6
902,Maxim Noreau,D,COL,6,0,0,0,-1,0,0,0,0,0,0,0,8,0,13:04,18.8,0
903,Kyle Baun,R,CHI,5,0,0,0,-3,0,0,0,0,0,0,0,5,0,11:08,15.2,0
904,John Ramage,D,CBJ,1,0,0,0,-1,0,0,0,0,0,0,0,4,0,18:10,25,0
905,Brett Gallant,L,CBJ,4,0,0,0,0,17,0,0,0,0,0,0,3,0,06:53,10.8,0
906,Vincent Hinostroza,C,CHI,4,0,0,0,0,2,0,0,0,0,0,0,4,0,08:46,12.5,41.4
907,Dylan DeMelo,D,SJS,2,0,0,0,-1,2,0,0,0,0,0,0,2,0,13:36,19,0
