,Player,Pos,GP,G,A,P,Plus_minus,PIM,PPG,PPP,SHG,SHP,GWG,OTG,S,S_perc,TOI_GP,Shifts_GP,FOW_Perc,G_GP,A_GP,P_GP,PIM_GP,S_GP,Plus_minus_GP
0,Wayne Gretzky,1,1487,894,1963,2857,518.0,577,204.0,500.0,73.0,149.0,91.0,1.0,5089.0,17.6,130.0,2.3,49.0,0.6012104909213181,1.320107599193006,1.921318090114324,0.38802958977807667,3.4223268325487557,0.34835238735709484
1,Mark Messier,1,1756,694,1193,1887,210.0,1910,179.0,433.0,63.0,95.0,92.0,7.0,4219.0,16.4,329.0,6.6,54.7,0.3952164009111617,0.679384965831435,1.0746013667425969,1.0876993166287017,2.402619589977221,0.11958997722095673
2,Gordie Howe,3,1767,801,1049,1850,87.0,1685,39.0,,5.0,,18.0,,1141.0,70.2,393.6,,,0.4533106960950764,0.5936615732880589,1.0469722693831354,0.9535936615732881,0.645727221279004,0.04923599320882852
3,Jaromir Jagr,3,1554,726,1082,1808,294.0,1053,205.0,587.0,11.0,15.0,129.0,19.0,5291.0,13.7,859.0,15.2,23.9,0.4671814671814672,0.6962676962676962,1.1634491634491635,0.6776061776061776,3.4047619047619047,0.1891891891891892
4,Ron Francis,1,1731,549,1249,1798,-10.0,979,188.0,548.0,12.0,26.0,79.0,3.0,3754.0,14.6,401.0,8.0,54.8,0.317157712305026,0.7215482380127094,1.0387059503177354,0.5655690352397458,2.1686886192952053,-0.005777007510109763
5,Marcel Dionne,1,1348,731,1040,1771,28.0,600,234.0,55.0,19.0,0.0,74.0,2.0,5366.0,13.6,393.6,0.0,0.0,0.5422848664688428,0.771513353115727,1.3137982195845697,0.44510385756676557,3.9807121661721068,0.020771513353115726
6,Steve Yzerman,1,1514,692,1063,1755,202.0,924,202.0,479.0,50.0,81.0,94.0,8.0,4602.0,15.0,377.0,7.3,57.4,0.4570673712021136,0.702113606340819,1.1591809775429327,0.6103038309114928,3.0396301188903565,0.1334214002642008
7,Mario Lemieux,1,915,690,1033,1723,115.0,834,236.0,564.0,49.0,71.0,74.0,7.0,3633.0,19.0,252.0,4.6,49.4,0.7540983606557377,1.1289617486338799,1.8830601092896175,0.9114754098360656,3.9704918032786884,0.12568306010928962
8,Joe Sakic,1,1378,625,1016,1641,30.0,614,205.0,631.0,32.0,49.0,86.0,7.0,4621.0,13.5,685.0,15.0,52.4,0.45355587808417996,0.737300435413643,1.190856313497823,0.4455732946298984,3.353410740203193,0.02177068214804064
9,Phil Esposito,1,1282,717,873,1590,197.0,910,249.0,,23.0,,118.0,,4595.0,15.6,393.6,,,0.5592823712948518,0.6809672386895476,1.2402496099843994,0.7098283931357254,3.5842433697347893,0.15366614664586584
10,Ray Bourque,4,1612,410,1169,1579,528.0,1141,173.0,504.0,16.0,25.0,60.0,4.0,6206.0,6.6,338.0,5.5,0.0,0.2543424317617866,0.7251861042183623,0.9795285359801489,0.7078163771712159,3.8498759305210917,0.32754342431761785
11,Mark Recchi,3,1652,577,956,1533,0.0,1033,200.0,569.0,18.0,32.0,91.0,6.0,3820.0,15.1,710.0,14.4,47.7,0.349273607748184,0.5786924939467313,0.9279661016949152,0.6253026634382567,2.3123486682808716,0.0
12,Paul Coffey,4,1409,396,1135,1531,294.0,1802,135.0,437.0,20.0,12.0,43.0,0.0,4385.0,9.0,172.0,3.1,0.0,0.28105039034776436,0.8055358410220014,1.0865862313697658,1.2789212207239176,3.1121362668559263,0.20865862313697658
13,Stan Mikita,1,1394,541,926,1467,159.0,1270,86.0,,9.0,,48.0,,2624.0,20.6,393.6,,,0.3880918220946915,0.6642754662840746,1.052367288378766,0.9110473457675753,1.8823529411764706,0.11406025824964132
14,Teemu Selanne,3,1451,684,773,1457,95.0,660,255.0,588.0,7.0,9.0,110.0,9.0,4540.0,15.1,858.0,16.8,47.0,0.47139903514817366,0.5327360441075121,1.0041350792556858,0.4548587181254307,3.128876636802205,0.06547208821502412
15,Bryan Trottier,1,1279,524,901,1425,452.0,912,161.0,60.0,19.0,7.0,68.0,0.0,2841.0,18.4,393.6,0.0,0.0,0.40969507427677876,0.7044566067240031,1.1141516810007819,0.7130570758405004,2.2212666145426114,0.3534010946051603
16,Adam Oates,1,1337,341,1079,1420,35.0,415,103.0,498.0,12.0,34.0,56.0,5.0,2392.0,14.2,474.0,8.6,57.6,0.2550486163051608,0.8070306656694092,1.06207928197457,0.31039640987284967,1.7890800299177263,0.02617801047120419
17,Doug Gilmour,1,1474,450,964,1414,132.0,1301,153.0,419.0,18.0,34.0,56.0,2.0,2833.0,15.9,331.0,6.3,52.6,0.30529172320217096,0.6540027137042063,0.9592944369063772,0.8826322930800543,1.9219810040705563,0.08955223880597014
18,Dale Hawerchuk,1,1188,518,891,1409,-92.0,740,182.0,358.0,13.0,12.0,49.0,2.0,3754.0,13.8,393.6,0.0,0.0,0.43602693602693604,0.75,1.186026936026936,0.622895622895623,3.15993265993266,-0.07744107744107744
19,Jari Kurri,3,1251,601,797,1398,282.0,545,150.0,226.0,37.0,43.0,67.0,3.0,3142.0,19.1,50.0,1.1,36.0,0.48041566746602715,0.6370903277378097,1.1175059952038369,0.43565147881694644,2.5115907274180653,0.22541966426858512
20,Luc Robitaille,2,1431,668,726,1394,72.0,1177,247.0,473.0,3.0,6.0,89.0,7.0,3961.0,16.9,416.0,8.0,40.3,0.46680642907058,0.5073375262054507,0.9741439552760307,0.822501747030049,2.7679944095038436,0.050314465408805034
21,Brett Hull,3,1269,741,650,1391,23.0,458,265.0,536.0,20.0,28.0,110.0,12.0,4876.0,15.2,458.0,9.2,40.0,0.5839243498817966,0.512214342001576,1.0961386918833727,0.3609141055949567,3.8423955870764384,0.018124507486209612
22,Mike Modano,1,1499,561,813,1374,114.0,926,157.0,493.0,29.0,47.0,92.0,9.0,4273.0,13.1,729.0,15.2,51.7,0.3742494996664443,0.542361574382922,0.9166110740493663,0.6177451634422949,2.850567044696464,0.07605070046697798
23,John Bucyk,2,1540,556,813,1369,146.0,497,121.0,,1.0,,59.0,,1723.0,32.3,393.6,,,0.36103896103896105,0.5279220779220779,0.888961038961039,0.32272727272727275,1.1188311688311687,0.09480519480519481
24,Brendan Shanahan,3,1524,656,698,1354,151.0,2489,237.0,507.0,23.0,37.0,109.0,12.0,5086.0,12.9,580.0,11.6,48.4,0.4304461942257218,0.458005249343832,0.8884514435695539,1.6332020997375327,3.3372703412073492,0.09908136482939632
25,Guy Lafleur,3,1126,560,793,1353,453.0,399,153.0,42.0,3.0,0.0,97.0,0.0,3521.0,15.9,393.6,0.0,0.0,0.49733570159857904,0.7042628774422736,1.2015985790408525,0.3543516873889876,3.1269982238010656,0.40230905861456484
26,Mats Sundin,1,1346,564,785,1349,73.0,1093,160.0,453.0,31.0,56.0,96.0,15.0,4015.0,14.0,727.0,14.3,55.2,0.41901931649331353,0.5832095096582467,1.0022288261515602,0.812035661218425,2.9829123328380387,0.05423476968796434
27,Denis Savard,1,1196,473,865,1338,97.0,1336,127.0,236.0,20.0,31.0,56.0,1.0,3143.0,15.0,393.6,0.0,0.0,0.39548494983277593,0.7232441471571907,1.1187290969899666,1.117056856187291,2.6279264214046822,0.08110367892976589
28,Dave Andreychuk,2,1639,640,698,1338,38.0,1125,274.0,443.0,11.0,13.0,77.0,5.0,4556.0,14.0,327.0,7.1,55.4,0.3904820012202563,0.425869432580842,0.8163514338010982,0.6863941427699817,2.7797437461866994,0.023184868822452714
29,Mike Gartner,3,1432,708,627,1335,67.0,1159,217.0,236.0,23.0,16.0,90.0,4.0,5090.0,13.9,37.0,0.8,52.4,0.49441340782122906,0.4378491620111732,0.9322625698324022,0.8093575418994413,3.554469273743017,0.0467877094972067
30,Pierre Turgeon,1,1294,515,812,1327,139.0,452,190.0,487.0,10.0,20.0,86.0,11.0,3154.0,16.3,419.0,8.7,50.7,0.3979907264296754,0.6275115919629057,1.025502318392581,0.34930448222565685,2.437403400309119,0.10741885625965997
31,Gilbert Perreault,1,1191,512,814,1326,42.0,500,134.0,,8.0,,81.0,,3079.0,16.6,393.6,,,0.42989084802686817,0.6834592779177162,1.1133501259445844,0.41981528127623846,2.5852225020990764,0.03526448362720403
32,Alex Delvecchio,1,1549,456,825,1281,33.0,383,38.0,,0.0,,17.0,,1084.0,42.1,393.6,,,0.29438347320852165,0.5326016785022595,0.8269851517107811,0.2472562943834732,0.6998063266623629,0.02130406714009038
33,Al MacInnis,4,1416,340,934,1274,373.0,1511,166.0,577.0,10.0,32.0,44.0,3.0,5157.0,6.6,489.0,8.3,100.0,0.2401129943502825,0.6596045197740112,0.8997175141242938,1.067090395480226,3.641949152542373,0.2634180790960452
34,Jean Ratelle,1,1281,491,776,1267,299.0,276,128.0,,4.0,,60.0,,2481.0,19.8,393.6,,,0.3832943013270882,0.6057767369242779,0.9890710382513661,0.2154566744730679,1.936768149882904,0.23341139734582358
35,Joe Thornton,1,1288,360,902,1262,178.0,1051,122.0,452.0,6.0,12.0,56.0,9.0,2567.0,14.0,1174.0,24.0,52.7,0.2795031055900621,0.7003105590062112,0.9798136645962733,0.8159937888198758,1.9930124223602483,0.13819875776397517
36,Peter Stastny,1,977,450,789,1239,-12.0,824,145.0,204.0,7.0,5.0,54.0,1.0,2374.0,19.0,393.6,0.0,0.0,0.46059365404298874,0.8075742067553736,1.2681678607983624,0.8433981576253838,2.4298874104401227,-0.012282497441146366
37,Phil Housley,4,1495,338,894,1232,-53.0,822,129.0,458.0,7.0,6.0,49.0,4.0,3808.0,8.9,355.0,6.5,66.7,0.22608695652173913,0.5979933110367893,0.8240802675585285,0.5498327759197325,2.5471571906354513,-0.03545150501672241
38,Norm Ullman,1,1410,490,739,1229,40.0,712,53.0,,2.0,,14.0,,1581.0,31.0,393.6,,,0.3475177304964539,0.524113475177305,0.8716312056737588,0.5049645390070922,1.1212765957446809,0.028368794326241134
39,Jarome Iginla,3,1395,591,637,1228,79.0,933,179.0,400.0,13.0,22.0,94.0,6.0,4426.0,13.4,1133.0,22.1,51.7,0.4236559139784946,0.45663082437275987,0.8802867383512545,0.6688172043010753,3.172759856630824,0.056630824372759854
40,Jean Beliveau,1,1125,507,712,1219,67.0,1029,26.0,,0.0,,13.0,,782.0,64.8,393.6,,,0.45066666666666666,0.6328888888888888,1.0835555555555556,0.9146666666666666,0.6951111111111111,0.059555555555555556
41,Jeremy Roenick,1,1363,513,703,1216,153.0,1463,184.0,431.0,28.0,48.0,92.0,5.0,3281.0,15.6,604.0,12.7,50.0,0.3763756419662509,0.5157740278796772,0.8921496698459281,1.0733675715333821,2.4071900220102713,0.11225238444607484
42,Larry Murphy,4,1615,287,929,1216,179.0,1084,114.0,361.0,9.0,14.0,36.0,3.0,3606.0,8.0,256.0,4.7,100.0,0.17770897832817337,0.5752321981424149,0.7529411764705882,0.6712074303405573,2.2328173374613005,0.1108359133126935
43,Bobby Clarke,1,1144,358,852,1210,506.0,1453,99.0,,32.0,,38.0,,2587.0,13.8,393.6,,,0.3129370629370629,0.7447552447552448,1.0576923076923077,1.2701048951048952,2.2613636363636362,0.4423076923076923
44,Bernie Nicholls,1,1127,475,734,1209,-38.0,1292,152.0,291.0,28.0,31.0,35.0,5.0,3231.0,14.7,53.0,1.1,57.6,0.42147293700088734,0.6512866015971606,1.072759538598048,1.1464063886424134,2.8669032830523515,-0.03371783496007098
45,Vincent Damphousse,1,1378,432,773,1205,9.0,1190,130.0,402.0,17.0,36.0,78.0,5.0,3511.0,12.3,443.0,8.6,49.7,0.3134978229317852,0.5609579100145138,0.874455732946299,0.8635703918722787,2.5478955007256894,0.006531204644412192
46,Dino Ciccarelli,3,1232,608,592,1200,-2.0,1425,232.0,245.0,1.0,3.0,73.0,0.0,3706.0,16.4,60.0,1.1,0.0,0.4935064935064935,0.4805194805194805,0.974025974025974,1.156655844155844,3.008116883116883,-0.0016233766233766235
47,Rod Brind'Amour,1,1484,452,732,1184,-39.0,1100,149.0,397.0,28.0,56.0,67.0,8.0,3290.0,13.7,744.0,15.2,58.7,0.3045822102425876,0.49326145552560646,0.7978436657681941,0.7412398921832885,2.2169811320754715,-0.02628032345013477
48,Sergei Fedorov,1,1248,483,696,1179,261.0,839,144.0,400.0,36.0,65.0,93.0,15.0,3985.0,12.1,710.0,14.3,54.0,0.3870192307692308,0.5576923076923077,0.9447115384615384,0.6722756410256411,3.1931089743589745,0.2091346153846154
49,Bobby Hull,2,1063,610,560,1170,105.0,640,59.0,,9.0,,45.0,,1819.0,33.5,393.6,,,0.5738476011288806,0.5268109125117592,1.1006585136406397,0.6020696142991533,1.711194731890875,0.09877704609595485
50,Daniel Alfredsson,3,1246,444,713,1157,155.0,510,135.0,428.0,25.0,43.0,73.0,6.0,3471.0,12.8,1034.0,20.6,35.6,0.3563402889245586,0.57223113964687,0.9285714285714286,0.40930979133226325,2.7857142857142856,0.12439807383627609
51,Michel Goulet,2,1089,548,604,1152,97.0,825,178.0,169.0,16.0,4.0,64.0,2.0,3143.0,17.4,393.6,0.0,0.0,0.5032139577594124,0.5546372819100092,1.0578512396694215,0.7575757575757576,2.88613406795225,0.08907254361799816
52,Nicklas Lidstrom,4,1564,264,878,1142,450.0,514,132.0,590.0,10.0,40.0,35.0,4.0,3875.0,6.8,1149.0,20.0,0.0,0.16879795396419436,0.5613810741687979,0.7301790281329923,0.32864450127877237,2.477621483375959,0.2877237851662404
53,Bernard Federko,1,1000,369,761,1130,-132.0,487,119.0,96.0,2.0,0.0,40.0,0.0,2076.0,17.8,393.6,0.0,0.0,0.369,0.761,1.13,0.487,2.076,-0.132
54,Mike Bossy,3,752,573,553,1126,381.0,210,181.0,,8.0,,82.0,,2705.0,21.2,393.6,,,0.761968085106383,0.7353723404255319,1.497340425531915,0.27925531914893614,3.5970744680851063,0.5066489361702128
55,Joe Nieuwendyk,1,1257,564,562,1126,155.0,677,215.0,417.0,12.0,14.0,93.0,7.0,3242.0,17.4,434.0,9.8,59.3,0.4486873508353222,0.44709626093874305,0.8957836117740652,0.5385839299920445,2.579156722354813,0.12330946698488465
56,Darryl Sittler,1,1096,484,637,1121,53.0,948,150.0,,10.0,,57.0,,3812.0,12.7,393.6,,,0.4416058394160584,0.5812043795620438,1.022810218978102,0.864963503649635,3.478102189781022,0.048357664233576646
57,Francis Mahovlich,2,1181,533,570,1103,173.0,1056,64.0,,11.0,,31.0,,1662.0,32.1,393.6,,,0.45131244707874685,0.4826418289585097,0.9339542760372566,0.8941574936494496,1.4072819644369179,0.14648602878916173
58,Glenn Anderson,3,1129,498,601,1099,201.0,1120,151.0,160.0,13.0,5.0,85.0,3.0,3108.0,16.0,393.6,0.0,0.0,0.44109831709477415,0.5323294951284322,0.9734278122232064,0.9920283436669619,2.752878653675819,0.17803365810451727
59,Theo Fleury,3,1084,455,633,1088,145.0,1840,125.0,364.0,35.0,50.0,67.0,11.0,3611.0,12.6,516.0,9.5,54.6,0.41974169741697415,0.5839483394833949,1.003690036900369,1.6974169741697418,3.331180811808118,0.13376383763837638
60,Dave Taylor,3,1111,431,638,1069,181.0,1589,123.0,59.0,4.0,2.0,47.0,3.0,2413.0,17.9,393.6,0.0,0.0,0.38793879387938796,0.5742574257425742,0.9621962196219622,1.4302430243024302,2.1719171917191717,0.1629162916291629
61,Keith Tkachuk,2,1201,538,527,1065,33.0,2219,212.0,373.0,13.0,27.0,72.0,8.0,3530.0,15.2,749.0,16.3,50.7,0.4479600333055787,0.43880099916736054,0.8867610324729392,1.8476269775187344,2.939217318900916,0.027477102414654453
62,Ray Whitney,2,1330,385,679,1064,-79.0,465,112.0,423.0,5.0,8.0,45.0,6.0,3040.0,12.7,925.0,18.1,45.4,0.2894736842105263,0.5105263157894737,0.8,0.34962406015037595,2.2857142857142856,-0.059398496240601506
63,Pat Verbeek,3,1424,522,541,1063,-44.0,2905,186.0,312.0,4.0,5.0,67.0,2.0,3284.0,15.9,217.0,4.7,33.3,0.36657303370786515,0.37991573033707865,0.7464887640449438,2.0400280898876404,2.306179775280899,-0.03089887640449438
64,Joe Mullen,3,1062,502,561,1063,163.0,241,150.0,180.0,11.0,15.0,73.0,1.0,2787.0,18.0,393.6,0.0,0.0,0.4726930320150659,0.5282485875706214,1.0009416195856873,0.22693032015065914,2.6242937853107344,0.1534839924670433
65,Marian Hossa,3,1177,486,572,1058,228.0,596,136.0,355.0,30.0,41.0,76.0,11.0,3888.0,12.5,1131.0,24.2,34.1,0.4129141886151232,0.48598130841121495,0.8988954970263382,0.5063721325403568,3.3033135089209855,0.1937128292268479
66,Denis Potvin,4,1060,310,742,1052,460.0,1356,127.0,28.0,10.0,0.0,44.0,0.0,3053.0,10.2,393.6,0.0,0.0,0.29245283018867924,0.7,0.9924528301886792,1.2792452830188679,2.880188679245283,0.4339622641509434
67,Henri Richard,1,1256,358,688,1046,126.0,928,8.0,,0.0,,14.0,,1279.0,28.0,393.6,,,0.28503184713375795,0.5477707006369427,0.8328025477707006,0.7388535031847133,1.018312101910828,0.10031847133757962
68,Bobby Smith,1,1077,357,679,1036,-10.0,917,125.0,115.0,1.0,1.0,51.0,0.0,2703.0,13.2,393.6,0.0,0.0,0.33147632311977715,0.6304549675023212,0.9619312906220984,0.851439182915506,2.5097493036211698,-0.009285051067780872
69,Martin St. Louis,3,1134,391,642,1033,37.0,310,101.0,317.0,29.0,46.0,66.0,10.0,2884.0,13.6,1221.0,24.2,41.2,0.3447971781305115,0.5661375661375662,0.9109347442680776,0.27336860670194,2.54320987654321,0.03262786596119929
70,Doug Weight,1,1238,278,755,1033,-58.0,970,80.0,438.0,2.0,7.0,34.0,6.0,2655.0,10.5,773.0,14.5,49.1,0.2245557350565428,0.6098546042003231,0.8344103392568659,0.7835218093699515,2.144588045234249,-0.046849757673667204
71,Alexander Mogilny,3,990,473,559,1032,81.0,432,141.0,349.0,20.0,34.0,66.0,1.0,2966.0,15.9,515.0,9.6,29.5,0.4777777777777778,0.5646464646464646,1.0424242424242425,0.43636363636363634,2.995959595959596,0.08181818181818182
72,Alex Kovalev,3,1316,430,599,1029,-31.0,1304,133.0,380.0,9.0,18.0,70.0,8.0,3585.0,12.0,916.0,16.3,44.3,0.32674772036474165,0.4551671732522796,0.7819148936170213,0.9908814589665653,2.724164133738602,-0.023556231003039513
73,Brian Leetch,4,1205,247,781,1028,25.0,571,111.0,542.0,8.0,22.0,38.0,7.0,3640.0,6.8,759.0,13.1,0.0,0.2049792531120332,0.6481327800829876,0.8531120331950207,0.4738589211618257,3.020746887966805,0.02074688796680498
74,Brian Bellows,2,1188,485,537,1022,-125.0,718,198.0,284.0,13.0,6.0,58.0,5.0,3588.0,13.5,68.0,1.2,0.0,0.40824915824915825,0.45202020202020204,0.8602693602693603,0.6043771043771043,3.0202020202020203,-0.10521885521885523
75,Rod Gilbert,3,1065,406,615,1021,89.0,508,83.0,,0.0,,40.0,,2291.0,17.7,393.6,,,0.3812206572769953,0.5774647887323944,0.9586854460093897,0.47699530516431926,2.151173708920188,0.0835680751173709
76,Dale Hunter,1,1407,323,697,1020,98.0,3565,92.0,192.0,10.0,6.0,41.0,3.0,2045.0,15.8,64.0,1.4,53.0,0.22956645344705046,0.4953802416488984,0.7249466950959488,2.533759772565743,1.4534470504619759,0.06965174129353234
77,Patrik Elias,1,1224,406,611,1017,167.0,539,113.0,331.0,16.0,33.0,80.0,16.0,3266.0,12.4,1069.0,22.8,43.0,0.33169934640522875,0.4991830065359477,0.8308823529411765,0.440359477124183,2.668300653594771,0.136437908496732
78,Pat LaFontaine,1,865,468,545,1013,-4.0,552,156.0,345.0,11.0,10.0,59.0,3.0,2665.0,17.6,83.0,1.6,54.3,0.5410404624277456,0.630057803468208,1.1710982658959537,0.638150289017341,3.0809248554913293,-0.004624277456647399
79,Steve Larmer,3,1006,441,571,1012,204.0,532,162.0,232.0,24.0,51.0,60.0,1.0,2803.0,15.7,393.6,0.0,0.0,0.4383697813121272,0.5675944333996024,1.0059642147117296,0.5288270377733598,2.786282306163022,0.20278330019880716
80,Lanny McDonald,3,1111,500,506,1006,41.0,899,139.0,1.0,11.0,0.0,53.0,0.0,3444.0,14.5,393.6,0.0,0.0,0.45004500450045004,0.45544554455445546,0.9054905490549054,0.8091809180918091,3.0999099909991,0.0369036903690369
81,Brian Propp,2,1016,425,579,1004,310.0,830,120.0,126.0,22.0,15.0,59.0,1.0,3111.0,13.7,393.6,0.0,0.0,0.4183070866141732,0.5698818897637795,0.9881889763779528,0.8169291338582677,3.062007874015748,0.3051181102362205
82,Patrick Marleau,2,1332,458,533,991,12.0,421,142.0,353.0,16.0,20.0,88.0,8.0,3407.0,13.4,1092.0,22.5,47.0,0.34384384384384387,0.40015015015015015,0.743993993993994,0.3160660660660661,2.5578078078078077,0.009009009009009009
83,Paul Kariya,2,989,402,587,989,31.0,399,139.0,390.0,17.0,23.0,53.0,4.0,3509.0,11.5,1008.0,20.2,40.9,0.4064711830131446,0.5935288169868554,1.0,0.4034378159757331,3.5480283114256825,0.03134479271991911
84,Rick Middleton,3,1005,448,540,988,180.0,157,115.0,4.0,25.0,5.0,59.0,0.0,2275.0,19.7,393.6,0.0,0.0,0.445771144278607,0.5373134328358209,0.9830845771144279,0.1562189054726368,2.263681592039801,0.1791044776119403
85,David Keon,1,1296,396,590,986,-12.0,117,32.0,,24.0,,40.0,,2368.0,16.7,393.6,,,0.3055555555555556,0.45524691358024694,0.7608024691358025,0.09027777777777778,1.8271604938271604,-0.009259259259259259
86,Andy Bathgate,3,1069,349,624,973,-22.0,624,9.0,,0.0,,7.0,,502.0,69.5,393.6,,,0.3264733395696913,0.5837231057062675,0.9101964452759589,0.5837231057062675,0.4695977549111319,-0.0205799812909261
87,Maurice Richard,3,978,544,421,965,,1285,,,,,,,,,393.6,,,0.556237218813906,0.43047034764826175,0.9867075664621677,1.3139059304703475,,
88,Kirk Muller,2,1349,357,602,959,-146.0,1223,134.0,249.0,11.0,18.0,47.0,5.0,2792.0,12.8,236.0,5.4,50.0,0.26464047442550037,0.4462564862861379,0.7108969607116382,0.9065974796145293,2.0696812453669384,-0.10822831727205337
89,Larry Robinson,4,1384,208,750,958,730.0,793,66.0,41.0,3.0,2.0,29.0,0.0,2338.0,8.9,393.6,0.0,0.0,0.15028901734104047,0.541907514450867,0.6921965317919075,0.5729768786127167,1.689306358381503,0.5274566473988439
90,Rick Tocchet,3,1144,440,512,952,82.0,2972,130.0,252.0,13.0,15.0,50.0,2.0,2804.0,15.7,261.0,5.1,30.0,0.38461538461538464,0.44755244755244755,0.8321678321678322,2.597902097902098,2.4510489510489513,0.07167832167832168
91,Chris Chelios,4,1651,185,763,948,350.0,2891,69.0,335.0,13.0,46.0,31.0,1.0,3626.0,5.1,598.0,11.0,20.0,0.11205330102967898,0.46214415505754086,0.5741974560872198,1.7510599636583888,2.1962447001817083,0.21199273167777105
92,Jason Arnott,1,1244,417,521,938,81.0,1242,145.0,323.0,2.0,3.0,64.0,6.0,3460.0,12.0,819.0,16.9,50.2,0.33520900321543406,0.4188102893890675,0.7540192926045016,0.9983922829581994,2.7813504823151125,0.06511254019292605
93,Steve Thomas,3,1235,421,512,933,30.0,1306,106.0,229.0,0.0,1.0,78.0,10.0,3170.0,13.3,323.0,6.5,32.7,0.3408906882591093,0.4145748987854251,0.7554655870445344,1.0574898785425102,2.5668016194331984,0.024291497975708502
94,Vincent Lecavalier,1,1163,411,520,931,-140.0,826,121.0,314.0,13.0,23.0,63.0,9.0,3401.0,12.1,1120.0,22.0,47.3,0.35339638865004297,0.4471195184866724,0.8005159071367154,0.710232158211522,2.9243336199484093,-0.12037833190025796
95,Neal Broten,1,1099,289,634,923,18.0,569,67.0,138.0,25.0,34.0,34.0,2.0,2316.0,12.5,393.6,0.0,0.0,0.2629663330300273,0.5768880800727935,0.8398544131028207,0.5177434030937216,2.1073703366696996,0.01637852593266606
96,Henrik Sedin,1,1096,212,705,917,218.0,598,55.0,317.0,6.0,8.0,34.0,4.0,1597.0,13.3,1048.0,22.7,49.2,0.19343065693430658,0.6432481751824818,0.8366788321167883,0.5456204379562044,1.457116788321168,0.1989051094890511
97,Bobby Orr,4,657,270,645,915,597.0,953,73.0,,15.0,,26.0,,2795.0,9.7,393.6,,,0.410958904109589,0.9817351598173516,1.3926940639269407,1.4505327245053272,4.254185692541857,0.908675799086758
98,Gary Roberts,2,1224,438,472,910,229.0,2560,109.0,214.0,13.0,17.0,52.0,5.0,2374.0,18.4,536.0,10.7,45.5,0.35784313725490197,0.38562091503267976,0.7434640522875817,2.0915032679738563,1.9395424836601307,0.18709150326797386
99,Scott Stevens,4,1635,196,712,908,377.0,2785,75.0,218.0,5.0,21.0,34.0,2.0,3240.0,6.0,449.0,7.9,0.0,0.1198776758409786,0.43547400611620796,0.5553516819571865,1.7033639143730888,1.981651376146789,0.23058103975535169
100,Brad Richards,1,1061,288,617,905,-70.0,243,91.0,363.0,8.0,14.0,40.0,2.0,3292.0,8.7,1213.0,22.9,48.9,0.2714420358152686,0.5815268614514609,0.8529688972667295,0.2290292177191329,3.1027332704995287,-0.06597549481621112
101,Tony Amonte,3,1174,416,484,900,96.0,752,108.0,266.0,23.0,31.0,58.0,6.0,3260.0,12.8,722.0,15.1,34.1,0.3543441226575809,0.4122657580919932,0.7666098807495741,0.6405451448040886,2.7768313458262353,0.0817717206132879
102,Shane Doan,3,1397,368,530,898,-56.0,1211,113.0,291.0,6.0,19.0,65.0,11.0,3635.0,10.1,1012.0,20.4,42.2,0.2634216177523264,0.3793843951324266,0.642806012884753,0.8668575518969219,2.602004294917681,-0.04008589835361489
103,Alex Ovechkin,2,762,477,421,898,58.0,516,176.0,356.0,4.0,5.0,80.0,15.0,3840.0,12.4,1284.0,22.0,34.7,0.6259842519685039,0.55249343832021,1.178477690288714,0.6771653543307087,5.039370078740157,0.07611548556430446
104,Ray Ferraro,1,1258,408,490,898,-104.0,1288,130.0,206.0,0.0,2.0,45.0,6.0,2164.0,18.9,261.0,5.2,48.6,0.32432432432432434,0.38950715421303655,0.7138314785373608,1.0238473767885532,1.7201907790143085,-0.08267090620031796
105,Brad Park,4,1113,213,683,896,358.0,1429,93.0,,5.0,,28.0,,2820.0,7.6,393.6,,,0.19137466307277629,0.6136567834681043,0.8050314465408805,1.2839173405211142,2.533692722371968,0.3216531895777179
106,Peter Bondra,3,1081,503,389,892,74.0,761,149.0,280.0,32.0,36.0,78.0,6.0,3531.0,14.2,657.0,12.0,24.3,0.4653098982423682,0.3598519888991674,0.8251618871415356,0.7039777983348752,3.2664199814986126,0.06845513413506013
107,Robert Goring,1,1107,375,513,888,-20.0,102,71.0,,40.0,,39.0,,2279.0,16.5,393.6,,,0.33875338753387535,0.4634146341463415,0.8021680216802168,0.0921409214092141,2.058717253839205,-0.018066847335140017
108,Owen Nolan,3,1200,422,463,885,-40.0,1793,155.0,305.0,23.0,37.0,53.0,3.0,3128.0,13.5,718.0,15.0,49.3,0.3516666666666667,0.3858333333333333,0.7375,1.4941666666666666,2.6066666666666665,-0.03333333333333333
109,Peter Forsberg,1,708,249,636,885,238.0,690,71.0,323.0,16.0,32.0,43.0,4.0,1693.0,14.7,899.0,19.2,48.4,0.3516949152542373,0.8983050847457628,1.25,0.9745762711864406,2.3912429378531073,0.3361581920903955
110,Daniel Sedin,2,1065,328,556,884,180.0,440,115.0,311.0,0.0,3.0,72.0,13.0,2828.0,11.6,1016.0,22.2,38.5,0.307981220657277,0.5220657276995305,0.8300469483568075,0.4131455399061033,2.6553990610328637,0.16901408450704225
111,Bill Barber,2,903,420,463,883,316.0,623,104.0,,31.0,,54.0,,3250.0,12.9,393.6,,,0.46511627906976744,0.512735326688815,0.9778516057585825,0.689922480620155,3.5991140642303434,0.34994462901439644
112,Dennis Maruk,1,888,356,522,878,-75.0,761,89.0,4.0,14.0,0.0,26.0,0.0,2229.0,16.0,393.6,0.0,0.0,0.4009009009009009,0.5878378378378378,0.9887387387387387,0.8569819819819819,2.510135135135135,-0.08445945945945946
113,Markus Naslund,2,1117,395,474,869,6.0,736,126.0,328.0,6.0,8.0,53.0,5.0,3046.0,13.0,864.0,17.8,38.6,0.35362578334825423,0.4243509400179051,0.7779767233661593,0.6589077887197852,2.7269471799462845,0.005371530886302597
114,Cliff Ronning,1,1137,306,563,869,45.0,453,109.0,338.0,0.0,1.0,34.0,4.0,2806.0,10.9,471.0,8.8,46.4,0.2691292875989446,0.4951627088830255,0.7642919964819701,0.39841688654353563,2.4678979771328056,0.0395778364116095
115,Pavel Datsyuk,1,887,298,571,869,242.0,214,89.0,310.0,6.0,11.0,50.0,7.0,2063.0,14.4,1128.0,23.4,53.9,0.3359639233370913,0.6437429537767756,0.979706877113867,0.24126268320180383,2.3258173618940248,0.27282976324689967
116,Trevor Linden,1,1382,375,492,867,-64.0,895,119.0,282.0,18.0,31.0,41.0,0.0,2704.0,13.9,519.0,11.1,53.1,0.27134587554269174,0.35600578871201155,0.6273516642547033,0.6476121562952243,1.9565846599131693,-0.04630969609261939
117,Ivan Boldirev,1,1052,361,505,866,-190.0,507,102.0,,3.0,,42.0,,2518.0,14.3,393.6,,,0.3431558935361217,0.48003802281368824,0.8231939163498099,0.48193916349809884,2.393536121673004,-0.1806083650190114
118,Eric Lindros,1,760,372,493,865,215.0,1398,111.0,263.0,7.0,9.0,46.0,6.0,2312.0,16.1,741.0,14.3,56.8,0.48947368421052634,0.6486842105263158,1.138157894736842,1.8394736842105264,3.042105263157895,0.28289473684210525
119,Yvan Cournoyer,3,968,428,435,863,272.0,255,112.0,,1.0,,61.0,,2095.0,20.4,393.6,,,0.44214876033057854,0.4493801652892562,0.8915289256198347,0.2634297520661157,2.1642561983471076,0.2809917355371901
120,Dean Prentice,2,1378,391,469,860,-33.0,484,37.0,,2.0,,13.0,,1116.0,35.0,393.6,,,0.28374455732946297,0.34034833091436867,0.6240928882438317,0.35123367198838895,0.8098693759071117,-0.023947750362844702
121,Bill Guerin,3,1263,429,427,856,51.0,1660,130.0,265.0,2.0,3.0,77.0,9.0,3693.0,11.6,790.0,15.1,44.0,0.33966745843230406,0.33808392715756136,0.6777513855898654,1.3143309580364213,2.9239904988123517,0.040380047505938245
122,Tomas Sandstrom,3,983,394,462,856,6.0,1193,119.0,221.0,10.0,14.0,44.0,4.0,2741.0,14.4,130.0,2.8,35.3,0.4008138351983723,0.46998982706002035,0.8708036622583927,1.2136317395727365,2.7884028484231944,0.006103763987792472
123,Vyacheslav Kozlov,2,1182,356,497,853,96.0,704,99.0,300.0,4.0,11.0,56.0,7.0,2843.0,12.5,770.0,15.2,40.7,0.3011844331641286,0.42047377326565144,0.7216582064297801,0.5956006768189509,2.4052453468697124,0.08121827411167512
124,Sidney Crosby,1,631,302,551,853,129.0,510,91.0,325.0,3.0,8.0,37.0,7.0,2100.0,14.4,1263.0,23.9,51.7,0.4786053882725832,0.873217115689382,1.3518225039619651,0.8082408874801902,3.3280507131537242,0.20443740095087162
125,Ted Lindsay,2,1068,379,472,851,,1808,,,,,,,,,393.6,,,0.3548689138576779,0.4419475655430712,0.7968164794007491,1.692883895131086,,
126,Gary Suter,4,1145,203,641,844,126.0,1349,90.0,414.0,8.0,22.0,18.0,1.0,3091.0,6.6,348.0,6.2,40.0,0.17729257641921398,0.5598253275109171,0.737117903930131,1.1781659388646288,2.6995633187772925,0.11004366812227075
127,Thomas Lysiak,1,919,292,551,843,-14.0,567,75.0,,8.0,,43.0,,2210.0,13.2,393.6,,,0.3177366702937976,0.5995647442872688,0.9173014145810664,0.6169749727965179,2.4047878128400435,-0.015233949945593036
128,Ryan Smyth,2,1270,386,456,842,-54.0,976,159.0,281.0,8.0,15.0,56.0,6.0,3433.0,11.2,1006.0,20.0,46.3,0.30393700787401573,0.3590551181102362,0.662992125984252,0.768503937007874,2.7031496062992124,-0.04251968503937008
129,John MacLean,3,1194,413,429,842,42.0,1328,115.0,196.0,13.0,21.0,63.0,3.0,3324.0,12.4,243.0,4.9,50.0,0.3458961474036851,0.3592964824120603,0.7051926298157454,1.1122278056951425,2.7839195979899496,0.035175879396984924
130,Scott Mellanby,3,1431,364,476,840,-36.0,2479,140.0,271.0,1.0,1.0,56.0,0.0,2960.0,12.3,414.0,8.9,43.4,0.2543675751222921,0.3326345213137666,0.5870020964360587,1.73235499650594,2.06848357791754,-0.025157232704402517
131,John Tonelli,2,1028,325,511,836,222.0,911,72.0,66.0,4.0,2.0,47.0,0.0,1846.0,17.6,393.6,0.0,0.0,0.316147859922179,0.4970817120622568,0.8132295719844358,0.8861867704280155,1.7957198443579767,0.21595330739299612
132,Jacques Lemaire,1,853,366,469,835,349.0,217,89.0,,4.0,,58.0,,3051.0,12.0,393.6,,,0.42907385697538103,0.5498241500586166,0.9788980070339977,0.2543962485345838,3.5767878077373974,0.4091441969519343
133,Saku Koivu,1,1124,255,577,832,10.0,809,79.0,290.0,11.0,29.0,46.0,10.0,2024.0,12.6,981.0,20.7,52.3,0.22686832740213522,0.5133451957295374,0.7402135231316725,0.7197508896797153,1.800711743772242,0.008896797153024912
134,Alex Tanguay,2,1021,275,555,830,155.0,497,61.0,235.0,7.0,10.0,42.0,4.0,1458.0,18.9,1073.0,23.9,38.9,0.2693437806072478,0.5435847208619001,0.8129285014691479,0.48677766895200786,1.4280117531831538,0.15181194906953965
135,Brent Sutter,1,1111,363,466,829,167.0,1054,110.0,151.0,18.0,23.0,47.0,2.0,2393.0,15.2,38.0,0.9,51.1,0.32673267326732675,0.41944194419441944,0.7461746174617462,0.9486948694869487,2.153915391539154,0.15031503150315031
136,Douglas Wilson,4,1024,237,590,827,53.0,830,85.0,145.0,9.0,6.0,23.0,1.0,3293.0,7.2,393.6,0.0,0.0,0.2314453125,0.576171875,0.8076171875,0.810546875,3.2158203125,0.0517578125
137,John Ogrodnick,2,928,402,425,827,-51.0,260,121.0,86.0,10.0,1.0,45.0,0.0,2813.0,14.3,393.6,0.0,0.0,0.4331896551724138,0.4579741379310345,0.8911637931034483,0.2801724137931034,3.03125,-0.05495689655172414
138,Red Kelly,4,1316,281,542,823,,327,,,,,,,,,393.6,,,0.2135258358662614,0.41185410334346506,0.6253799392097265,0.24848024316109424,,
139,Bernie Geoffrion,3,883,393,429,822,1.0,689,4.0,,0.0,,0.0,,84.0,467.9,393.6,,,0.4450736126840317,0.48584371460928655,0.9309173272933182,0.7802944507361268,0.09513023782559456,0.0011325028312570782
140,Pierre Larouche,1,812,395,427,822,-25.0,237,114.0,6.0,1.0,0.0,36.0,0.0,2288.0,17.3,393.6,0.0,0.0,0.48645320197044334,0.5258620689655172,1.0123152709359606,0.291871921182266,2.8177339901477834,-0.03078817733990148
141,Stephane Richer,3,1054,421,398,819,77.0,614,93.0,183.0,13.0,19.0,72.0,7.0,2849.0,14.8,196.0,4.0,35.7,0.39943074003795065,0.3776091081593928,0.7770398481973435,0.5825426944971537,2.70303605313093,0.0730550284629981
142,John Leclair,2,967,406,413,819,204.0,501,118.0,224.0,1.0,1.0,65.0,5.0,2611.0,15.5,617.0,12.0,37.9,0.41985522233712513,0.4270941054808687,0.8469493278179938,0.5180972078593589,2.7001034126163392,0.2109617373319545
143,Thomas Steen,1,950,264,553,817,-70.0,753,74.0,159.0,13.0,10.0,28.0,2.0,2034.0,13.0,393.6,0.0,0.0,0.27789473684210525,0.5821052631578948,0.86,0.7926315789473685,2.1410526315789475,-0.07368421052631578
144,Stephen Shutt,2,930,424,393,817,393.0,410,95.0,,0.0,,50.0,,2405.0,17.6,393.6,,,0.4559139784946237,0.42258064516129035,0.878494623655914,0.44086021505376344,2.586021505376344,0.42258064516129035
145,Ilya Kovalchuk,3,816,417,399,816,-116.0,516,138.0,315.0,10.0,15.0,60.0,14.0,2967.0,14.1,1318.0,22.3,35.4,0.5110294117647058,0.4889705882352941,1.0,0.6323529411764706,3.636029411764706,-0.14215686274509803
146,Wilf Paiement,3,946,356,458,814,-140.0,1757,83.0,0.0,19.0,0.0,29.0,0.0,2720.0,13.1,393.6,0.0,0.0,0.3763213530655391,0.48414376321353064,0.8604651162790697,1.857293868921776,2.875264270613108,-0.14799154334038056
147,Peter Mcnab,1,954,363,450,813,130.0,179,82.0,,1.0,,47.0,,1956.0,18.6,393.6,,,0.3805031446540881,0.4716981132075472,0.8522012578616353,0.18763102725366876,2.050314465408805,0.13626834381551362
148,Sergei Gonchar,4,1301,220,591,811,33.0,981,102.0,427.0,2.0,11.0,35.0,4.0,2866.0,7.7,1227.0,22.4,100.0,0.16910069177555725,0.45426594926979247,0.6233666410453498,0.7540353574173713,2.202920830130669,0.02536510376633359
149,Pit Martin,1,1101,324,485,809,127.0,609,56.0,,7.0,,35.0,,1739.0,18.6,393.6,,,0.29427792915531337,0.4405086285195277,0.734786557674841,0.553133514986376,1.5794732061762033,0.11534968210717529
150,Ken Linseman,1,860,256,551,807,224.0,1727,61.0,64.0,12.0,7.0,29.0,0.0,1634.0,15.7,393.6,0.0,0.0,0.29767441860465116,0.6406976744186047,0.9383720930232559,2.0081395348837208,1.9,0.26046511627906976
151,Milan Hejduk,3,1020,375,430,805,101.0,316,140.0,285.0,6.0,11.0,59.0,9.0,2667.0,14.1,1115.0,25.0,42.3,0.36764705882352944,0.4215686274509804,0.7892156862745098,0.30980392156862746,2.614705882352941,0.09901960784313725
152,Garry Unger,1,1105,413,391,804,-131.0,1075,105.0,,4.0,,54.0,,3433.0,12.0,393.6,,,0.3737556561085973,0.35384615384615387,0.7276018099547511,0.9728506787330317,3.106787330316742,-0.11855203619909502
153,Ken Hodge,3,881,328,472,800,241.0,779,86.0,,2.0,,53.0,,1932.0,17.0,393.6,,,0.37230419977298523,0.5357548240635641,0.9080590238365494,0.8842224744608399,2.1929625425652666,0.2735527809307605
154,Geoff Courtnall,2,1048,367,432,799,121.0,1463,107.0,220.0,2.0,4.0,55.0,7.0,3090.0,11.9,96.0,2.0,16.7,0.3501908396946565,0.4122137404580153,0.7624045801526718,1.3959923664122138,2.948473282442748,0.11545801526717557
155,Eddie Olczyk,3,1031,342,452,794,-67.0,874,100.0,199.0,12.0,16.0,37.0,0.0,2578.0,13.3,119.0,2.6,51.4,0.3317167798254122,0.4384093113482056,0.7701260911736179,0.8477206595538312,2.5004849660523765,-0.06498545101842872
156,Wayne Cashman,2,1027,277,516,793,281.0,1041,56.0,,3.0,,37.0,,1745.0,15.9,393.6,,,0.2697176241480039,0.5024342745861733,0.7721518987341772,1.0136319376825706,1.6991236611489775,0.2736124634858812
157,Henrik Zetterberg,2,839,298,495,793,164.0,341,95.0,284.0,9.0,18.0,60.0,7.0,2870.0,10.4,1175.0,24.2,51.0,0.35518474374255066,0.5899880810488677,0.9451728247914184,0.4064362336114422,3.4207389749702024,0.19547079856972585
158,Dany Heatley,2,869,372,419,791,38.0,620,143.0,298.0,8.0,13.0,64.0,5.0,2565.0,14.5,1201.0,23.0,43.3,0.428078250863061,0.48216340621403914,0.9102416570771001,0.713463751438435,2.951668584579977,0.04372842347525892
159,Richard Vaive,3,876,441,347,788,-78.0,1445,143.0,96.0,11.0,0.0,52.0,1.0,2602.0,16.9,393.6,0.0,0.0,0.5034246575342466,0.3961187214611872,0.8995433789954338,1.6495433789954337,2.970319634703196,-0.08904109589041095
160,Borje Salming,4,1148,150,637,787,175.0,1344,46.0,21.0,6.0,2.0,13.0,0.0,2536.0,5.9,393.6,0.0,0.0,0.13066202090592335,0.5548780487804879,0.6855400696864111,1.170731707317073,2.2090592334494774,0.1524390243902439
161,Claude Lemieux,3,1215,379,407,786,13.0,1777,114.0,226.0,6.0,15.0,58.0,3.0,3650.0,10.4,395.0,8.0,40.7,0.31193415637860084,0.33497942386831275,0.6469135802469136,1.4625514403292181,3.0041152263374484,0.010699588477366255
162,Alexei Yashin,1,850,337,444,781,-83.0,401,124.0,305.0,4.0,8.0,49.0,3.0,2828.0,11.9,821.0,15.9,45.4,0.39647058823529413,0.5223529411764706,0.9188235294117647,0.4717647058823529,3.327058823529412,-0.0976470588235294
163,Pavel Bure,3,702,437,342,779,42.0,484,121.0,236.0,34.0,49.0,59.0,6.0,3130.0,14.0,737.0,12.5,25.2,0.6225071225071225,0.48717948717948717,1.1096866096866096,0.6894586894586895,4.4586894586894585,0.05982905982905983
164,Rob Blake,4,1270,240,537,777,-4.0,1679,136.0,379.0,4.0,19.0,41.0,2.0,3896.0,6.2,1043.0,21.1,35.7,0.1889763779527559,0.42283464566929135,0.6118110236220472,1.3220472440944881,3.0677165354330707,-0.0031496062992125984
165,Joseph Pronovost,3,998,391,383,774,49.0,413,85.0,,17.0,,57.0,,2783.0,14.0,393.6,,,0.39178356713426854,0.3837675350701403,0.7755511022044088,0.41382765531062127,2.788577154308617,0.04909819639278557
166,Dave Christian,3,1009,340,433,773,-65.0,284,102.0,83.0,8.0,7.0,35.0,0.0,2167.0,15.7,393.6,0.0,0.0,0.33696729435084244,0.42913776015857286,0.7661050545094152,0.2814667988107037,2.147670961347869,-0.06442021803766106
167,Peter Mahovlich,1,884,288,485,773,234.0,916,70.0,,19.0,,38.0,,2045.0,14.1,393.6,,,0.3257918552036199,0.5486425339366516,0.8744343891402715,1.0361990950226245,2.313348416289593,0.2647058823529412
168,Sergei Zubov,4,1068,152,619,771,148.0,337,81.0,408.0,5.0,18.0,22.0,3.0,2266.0,6.7,1112.0,19.3,100.0,0.14232209737827714,0.5795880149812734,0.7219101123595506,0.3155430711610487,2.1217228464419478,0.13857677902621723
169,Todd Bertuzzi,3,1159,314,456,770,-44.0,1478,110.0,238.0,1.0,2.0,41.0,7.0,2411.0,13.0,911.0,19.4,45.4,0.27092320966350303,0.39344262295081966,0.6643658326143227,1.275237273511648,2.0802415875754963,-0.03796376186367558
170,Pavol Demitra,3,847,304,464,768,124.0,284,90.0,260.0,10.0,14.0,59.0,9.0,2160.0,14.1,1067.0,22.4,46.9,0.358913813459268,0.5478158205430933,0.9067296340023613,0.33530106257378983,2.550177095631641,0.14639905548996457
171,Rick Kehoe,3,906,371,396,767,-79.0,120,102.0,,1.0,,34.0,,2636.0,14.1,393.6,,,0.4094922737306843,0.4370860927152318,0.8465783664459161,0.13245033112582782,2.9094922737306845,-0.08719646799116998
172,Vinny Prospal,2,1108,255,510,765,-57.0,581,79.0,255.0,1.0,3.0,34.0,4.0,2417.0,10.5,1022.0,21.0,51.9,0.23014440433212996,0.4602888086642599,0.6904332129963899,0.5243682310469314,2.181407942238267,-0.05144404332129964
173,Brian Rolston,3,1256,342,419,761,65.0,472,98.0,260.0,33.0,43.0,72.0,6.0,3836.0,8.9,960.0,20.7,46.9,0.27229299363057324,0.3335987261146497,0.6058917197452229,0.37579617834394907,3.054140127388535,0.0517515923566879
174,Kevin Dineen,3,1188,355,405,760,-23.0,2229,91.0,164.0,14.0,18.0,56.0,3.0,2769.0,12.8,171.0,3.7,30.4,0.2988215488215488,0.3409090909090909,0.6397306397306397,1.8762626262626263,2.330808080808081,-0.01936026936026936
175,Richard Macleish,1,846,349,410,759,152.0,434,104.0,,23.0,,52.0,,2608.0,13.4,393.6,,,0.41252955082742315,0.4846335697399527,0.8971631205673759,0.5130023640661938,3.08274231678487,0.17966903073286053
176,Murray Craven,2,1071,266,493,759,128.0,524,55.0,157.0,22.0,31.0,42.0,4.0,1906.0,14.0,112.0,2.4,49.7,0.24836601307189543,0.4603174603174603,0.7086834733893558,0.4892623716153128,1.7796451914098972,0.11951447245564893
177,Mike Ridley,1,866,292,466,758,37.0,424,87.0,179.0,19.0,31.0,46.0,4.0,1513.0,19.3,393.6,0.0,0.0,0.3371824480369515,0.5381062355658198,0.8752886836027713,0.4896073903002309,1.7471131639722863,0.042725173210161664
178,Scott Young,3,1181,342,415,757,-40.0,448,108.0,307.0,21.0,26.0,50.0,5.0,3501.0,9.8,506.0,10.7,25.5,0.28958509737510585,0.35139712108382726,0.6409822184589331,0.3793395427603726,2.964436917866215,-0.03386960203217612
179,Jason Spezza,1,772,272,483,755,49.0,462,94.0,280.0,2.0,4.0,38.0,3.0,2018.0,13.5,1108.0,22.0,52.6,0.35233160621761656,0.6256476683937824,0.977979274611399,0.5984455958549223,2.6139896373056994,0.06347150259067358
180,Steve Duchesne,4,1113,227,525,752,88.0,824,84.0,302.0,10.0,18.0,30.0,2.0,2542.0,8.9,387.0,7.4,28.6,0.20395327942497754,0.4716981132075472,0.6756513926325247,0.7403414195867026,2.283917340521114,0.07906558849955077
181,Craig Janney,1,760,188,563,751,-13.0,170,66.0,294.0,1.0,1.0,32.0,2.0,1057.0,17.8,147.0,2.9,46.0,0.24736842105263157,0.7407894736842106,0.9881578947368421,0.2236842105263158,1.3907894736842106,-0.017105263157894738
182,Marian Gaborik,3,882,374,377,751,101.0,432,103.0,242.0,7.0,10.0,65.0,9.0,2867.0,13.0,1096.0,23.7,26.7,0.42403628117913833,0.427437641723356,0.8514739229024944,0.4897959183673469,3.250566893424036,0.1145124716553288
183,Olli Jokinen,1,1231,321,429,750,-132.0,1071,97.0,248.0,13.0,15.0,54.0,13.0,3343.0,9.6,1091.0,22.5,45.8,0.2607636068237206,0.34849715678310317,0.6092607636068237,0.8700243704305443,2.7156783103168154,-0.10722989439480098
184,Steve Sullivan,2,1011,290,457,747,93.0,587,75.0,221.0,20.0,28.0,52.0,5.0,2129.0,13.6,996.0,20.6,45.4,0.2868447082096934,0.4520276953511375,0.7388724035608308,0.5806132542037586,2.105835806132542,0.09198813056379822
185,Scott Gomez,1,1045,180,567,747,6.0,649,48.0,251.0,1.0,3.0,32.0,3.0,2494.0,7.2,1043.0,21.2,49.5,0.1722488038277512,0.5425837320574163,0.7148325358851675,0.6210526315789474,2.3866028708133973,0.005741626794258373
186,Bobby Holik,1,1314,326,421,747,115.0,1423,74.0,182.0,1.0,3.0,58.0,5.0,3345.0,9.7,631.0,13.5,56.2,0.2480974124809741,0.3203957382039574,0.5684931506849316,1.082952815829528,2.545662100456621,0.08751902587519025
187,Russ Courtnall,3,1029,297,447,744,-1.0,557,58.0,135.0,29.0,31.0,40.0,3.0,2800.0,10.6,103.0,2.2,45.3,0.2886297376093295,0.43440233236151604,0.7230320699708455,0.5413022351797862,2.7210884353741496,-0.0009718172983479105
188,Greg Adams,2,1056,355,388,743,-48.0,326,122.0,195.0,7.0,18.0,31.0,0.0,2328.0,15.2,230.0,4.8,50.9,0.33617424242424243,0.36742424242424243,0.7035984848484849,0.3087121212121212,2.2045454545454546,-0.045454545454545456
189,Mathieu Schneider,4,1289,223,520,743,66.0,1245,100.0,393.0,4.0,8.0,36.0,4.0,3092.0,7.2,872.0,15.6,12.5,0.1730023273855702,0.4034134988363072,0.5764158262218774,0.9658650116369278,2.3987587276958884,0.05120248254460822
190,Eric Staal,1,849,313,430,743,-55.0,648,104.0,245.0,16.0,21.0,47.0,3.0,2887.0,10.8,1217.0,25.8,47.3,0.36866902237926974,0.5064782096584217,0.8751472320376914,0.7632508833922261,3.4004711425206127,-0.06478209658421673
191,Mark Howe,4,929,197,545,742,400.0,455,58.0,101.0,28.0,12.0,24.0,0.0,2123.0,9.3,393.6,0.0,0.0,0.21205597416576966,0.5866523143164694,0.798708288482239,0.4897739504843918,2.2852529601722282,0.43057050592034446
192,Scott Niedermayer,4,1263,172,568,740,167.0,784,90.0,335.0,1.0,17.0,39.0,13.0,2436.0,7.1,1067.0,18.1,23.1,0.13618368962787014,0.44972288202692,0.5859065716547902,0.620744259699129,1.9287410926365796,0.13222486144101345
193,Miroslav Satan,3,1050,363,372,735,20.0,464,120.0,241.0,16.0,24.0,50.0,4.0,2582.0,14.1,991.0,18.4,52.1,0.3457142857142857,0.35428571428571426,0.7,0.4419047619047619,2.459047619047619,0.01904761904761905
194,Andrew Brunette,2,1110,268,465,733,-78.0,314,114.0,292.0,0.0,0.0,32.0,1.0,1516.0,17.7,914.0,19.9,48.8,0.24144144144144145,0.4189189189189189,0.6603603603603604,0.2828828828828829,1.3657657657657658,-0.07027027027027027
195,Andrew Cassels,1,1015,204,528,732,-73.0,410,72.0,284.0,9.0,36.0,28.0,5.0,1515.0,13.5,573.0,11.6,48.8,0.20098522167487684,0.5201970443349754,0.7211822660098522,0.4039408866995074,1.4926108374384237,-0.07192118226600985
196,Bobby Carpenter,1,1178,320,408,728,-81.0,919,82.0,68.0,7.0,13.0,40.0,2.0,2646.0,12.1,95.0,2.3,47.9,0.27164685908319186,0.3463497453310696,0.6179966044142614,0.7801358234295416,2.2461799660441426,-0.06876061120543293
197,Murray Oliver,1,1127,274,454,728,-18.0,320,28.0,,5.0,,15.0,,1310.0,20.9,393.6,,,0.24312333629103816,0.4028393966282165,0.6459627329192547,0.2839396628216504,1.1623779946761312,-0.015971606033717833
198,Michael Foligno,3,1018,355,372,727,101.0,2049,85.0,55.0,2.0,1.0,51.0,0.0,2123.0,16.7,393.6,0.0,0.0,0.3487229862475442,0.3654223968565815,0.7141453831041258,2.012770137524558,2.0854616895874263,0.09921414538310412
199,Cory Stillman,2,1025,278,449,727,-20.0,489,99.0,264.0,9.0,12.0,47.0,3.0,2097.0,13.3,912.0,19.4,46.5,0.27121951219512197,0.4380487804878049,0.7092682926829268,0.4770731707317073,2.0458536585365854,-0.01951219512195122
200,Kevin Stevens,2,874,329,397,726,-103.0,1470,134.0,255.0,0.0,0.0,35.0,4.0,2331.0,14.1,284.0,6.0,41.7,0.37643020594965676,0.45423340961098396,0.8306636155606407,1.6819221967963387,2.6670480549199085,-0.11784897025171624
201,Bob Nevin,3,1128,307,419,726,85.0,211,36.0,,4.0,,29.0,,1289.0,23.8,393.6,,,0.2721631205673759,0.37145390070921985,0.6436170212765957,0.1870567375886525,1.1427304964539007,0.07535460992907801
202,David Babych,4,1195,142,581,723,-223.0,970,86.0,156.0,1.0,4.0,20.0,1.0,2791.0,5.1,82.0,1.7,0.0,0.11882845188284519,0.48619246861924686,0.605020920502092,0.8117154811715481,2.3355648535564852,-0.18661087866108786
203,Petr Sykora,3,1017,323,398,721,58.0,455,111.0,252.0,5.0,6.0,58.0,2.0,2747.0,11.8,929.0,19.2,47.5,0.3176007866273353,0.3913470993117011,0.7089478859390363,0.4473942969518191,2.7010816125860373,0.05703048180924287
204,Dave Gagner,1,946,318,401,719,-65.0,1018,115.0,267.0,7.0,16.0,36.0,4.0,2358.0,13.5,144.0,3.0,50.9,0.3361522198731501,0.42389006342494717,0.7600422832980972,1.0761099365750528,2.492600422832981,-0.06871035940803383
205,Alexei Zhamnov,1,807,249,470,719,10.0,668,64.0,255.0,9.0,22.0,34.0,1.0,2078.0,12.0,785.0,15.6,48.8,0.30855018587360594,0.5824039653035935,0.8909541511771994,0.8277571251548946,2.5749690210656753,0.012391573729863693
206,Mike Ribeiro,1,951,217,502,719,-2.0,505,69.0,257.0,2.0,4.0,32.0,6.0,1471.0,14.8,1055.0,20.0,44.7,0.22818086225026288,0.5278654048370137,0.7560462670872765,0.5310199789695058,1.5467928496319663,-0.002103049421661409
207,Martin Straka,1,954,257,460,717,67.0,360,54.0,214.0,11.0,18.0,40.0,2.0,1713.0,15.0,860.0,16.0,42.1,0.2693920335429769,0.48218029350104824,0.7515723270440252,0.37735849056603776,1.7955974842767295,0.07023060796645703
208,Petr Nedved,1,982,310,407,717,-21.0,708,80.0,209.0,13.0,21.0,39.0,4.0,2207.0,14.0,632.0,12.4,51.6,0.31568228105906315,0.41446028513238287,0.730142566191446,0.7209775967413442,2.2474541751527495,-0.021384928716904276
209,Ziggy Palffy,3,684,329,384,713,83.0,322,92.0,256.0,19.0,26.0,45.0,5.0,2136.0,15.4,894.0,16.7,40.5,0.48099415204678364,0.5614035087719298,1.0423976608187135,0.47076023391812866,3.1228070175438596,0.12134502923976608
210,George Armstrong,3,1187,296,417,713,15.0,721,5.0,,1.0,,7.0,,414.0,71.5,393.6,,,0.2493681550126369,0.35130581297388375,0.6006739679865206,0.607413647851727,0.34877843302443134,0.012636899747262006
211,Vic Hadfield,2,1002,323,389,712,98.0,1154,82.0,,4.0,,37.0,,2082.0,15.5,393.6,,,0.3223552894211577,0.38822355289421157,0.7105788423153693,1.1516966067864272,2.0778443113772456,0.09780439121756487
212,Charles Simmer,2,712,342,369,711,113.0,544,125.0,12.0,2.0,0.0,41.0,1.0,1531.0,22.3,393.6,0.0,0.0,0.4803370786516854,0.5182584269662921,0.9985955056179775,0.7640449438202247,2.1502808988764044,0.15870786516853932
213,Doug Mohns,2,1390,248,462,710,10.0,1250,21.0,,3.0,,12.0,,853.0,29.1,393.6,,,0.17841726618705037,0.33237410071942447,0.5107913669064749,0.8992805755395683,0.6136690647482015,0.007194244604316547
214,Marc Savard,1,807,207,499,706,-54.0,737,80.0,292.0,4.0,12.0,36.0,8.0,1932.0,10.7,1111.0,22.3,50.7,0.25650557620817843,0.6183395291201983,0.8748451053283767,0.9132589838909542,2.3940520446096656,-0.06691449814126393
215,Evgeni Malkin,1,591,269,435,704,57.0,588,97.0,271.0,4.0,5.0,45.0,7.0,2104.0,12.8,1230.0,22.3,43.7,0.45516074450084604,0.7360406091370558,1.1912013536379018,0.9949238578680203,3.560067681895093,0.09644670050761421
216,Robert Lang,1,989,261,442,703,55.0,422,88.0,238.0,5.0,8.0,34.0,2.0,1853.0,14.1,936.0,18.6,47.8,0.2639029322548028,0.44691607684529827,0.7108190091001011,0.42669362992922144,1.8736097067745197,0.055611729019211326
217,Bobby Rousseau,3,942,245,458,703,54.0,359,29.0,,4.0,,27.0,,1237.0,19.8,393.6,,,0.26008492569002123,0.4861995753715499,0.7462845010615711,0.38110403397027603,1.313163481953291,0.05732484076433121
218,Rene Robert,3,744,284,418,702,0.0,597,73.0,,0.0,,36.0,,2310.0,12.3,393.6,,,0.3817204301075269,0.5618279569892473,0.9435483870967742,0.8024193548387096,3.1048387096774195,0.0
219,Richard Martin,2,685,384,317,701,15.0,477,115.0,,0.0,,47.0,,2530.0,15.2,393.6,,,0.5605839416058395,0.46277372262773725,1.0233576642335767,0.6963503649635037,3.6934306569343067,0.021897810218978103
220,Mel Bridgman,1,977,252,449,701,102.0,1625,55.0,4.0,13.0,1.0,26.0,0.0,1739.0,14.5,393.6,0.0,0.0,0.2579324462640737,0.4595701125895599,0.7175025588536336,1.6632548618219039,1.7799385875127942,0.10440122824974411
221,Geoff Sanderson,2,1104,355,345,700,-100.0,511,116.0,227.0,7.0,11.0,48.0,6.0,3072.0,11.6,539.0,11.1,46.9,0.32155797101449274,0.3125,0.6340579710144928,0.4628623188405797,2.782608695652174,-0.09057971014492754
222,Rick Nash,2,867,378,320,698,-18.0,672,96.0,210.0,21.0,29.0,64.0,6.0,3035.0,12.5,1119.0,24.7,39.6,0.4359861591695502,0.3690888119953864,0.8050749711649365,0.7750865051903114,3.5005767012687428,-0.020761245674740483
223,Chris Pronger,4,1167,157,541,698,183.0,1590,83.0,374.0,2.0,18.0,27.0,5.0,2610.0,6.0,1250.0,22.3,33.3,0.13453299057412169,0.46358183376178236,0.598114824335904,1.3624678663239074,2.236503856041131,0.15681233933161953
224,Clark Gillies,2,958,319,378,697,241.0,1023,93.0,0.0,0.0,0.0,44.0,0.0,2251.0,14.2,393.6,0.0,0.0,0.33298538622129437,0.3945720250521921,0.7275574112734864,1.067849686847599,2.349686847599165,0.25156576200417535
225,Daniel Briere,1,973,307,389,696,-24.0,744,106.0,256.0,0.0,2.0,43.0,12.0,2174.0,14.1,969.0,19.6,49.6,0.31551901336073995,0.3997944501541624,0.7153134635149023,0.7646454265159301,2.234326824254882,-0.024665981500513873
226,Cam Neely,3,726,395,299,694,82.0,1241,142.0,183.0,1.0,2.0,61.0,2.0,2148.0,18.4,393.6,0.0,0.0,0.5440771349862259,0.4118457300275482,0.9559228650137741,1.709366391184573,2.958677685950413,0.11294765840220386
227,Shayne Corson,2,1156,273,420,693,44.0,2357,90.0,202.0,6.0,15.0,35.0,0.0,2253.0,12.1,380.0,7.6,45.8,0.23615916955017302,0.3633217993079585,0.5994809688581315,2.0389273356401385,1.948961937716263,0.03806228373702422
228,Kent Nilsson,1,553,264,422,686,-20.0,116,97.0,1.0,16.0,0.0,28.0,0.0,1374.0,19.2,393.6,0.0,0.0,0.47739602169981915,0.7631103074141049,1.240506329113924,0.20976491862567812,2.484629294755877,-0.03616636528028933
229,Daniel Gare,3,827,354,331,685,161.0,1285,79.0,,2.0,,43.0,,2552.0,13.9,393.6,,,0.4280532043530834,0.40024183796856105,0.8282950423216445,1.5538089480048367,3.0858524788391777,0.1946795646916566
230,Reed Larson,4,904,222,463,685,-127.0,1391,88.0,32.0,8.0,3.0,17.0,0.0,2923.0,7.6,393.6,0.0,0.0,0.24557522123893805,0.5121681415929203,0.7577433628318584,1.538716814159292,3.2334070796460175,-0.1404867256637168
231,Dan Quinn,1,805,266,419,685,-125.0,533,123.0,187.0,7.0,5.0,37.0,1.0,1775.0,15.0,393.6,0.0,0.0,0.33043478260869563,0.5204968944099378,0.8509316770186336,0.662111801242236,2.2049689440993787,-0.15527950310559005
232,Donald Lever,1,1020,313,367,680,-240.0,593,77.0,,10.0,,22.0,,2161.0,14.5,393.6,,,0.30686274509803924,0.35980392156862745,0.6666666666666666,0.5813725490196079,2.118627450980392,-0.23529411764705882
233,Michael Nylander,1,920,209,470,679,75.0,468,63.0,201.0,0.0,2.0,33.0,5.0,1671.0,12.5,793.0,15.1,47.7,0.22717391304347825,0.5108695652173914,0.7380434782608696,0.508695652173913,1.816304347826087,0.08152173913043478
234,Ryan Getzlaf,1,713,208,470,678,122.0,626,65.0,251.0,5.0,8.0,40.0,7.0,1685.0,12.3,1169.0,23.1,48.1,0.2917251051893408,0.6591865357643759,0.9509116409537167,0.8779803646563815,2.3632538569424963,0.17110799438990182
235,Walt Tkaczuk,1,945,227,451,678,185.0,556,41.0,,11.0,,23.0,,2146.0,10.6,393.6,,,0.2402116402116402,0.47724867724867726,0.7174603174603175,0.5883597883597883,2.270899470899471,0.19576719576719576
236,Kevin Hatcher,4,1157,227,450,677,-28.0,1392,91.0,292.0,8.0,22.0,37.0,2.0,2947.0,7.7,330.0,6.1,50.0,0.1961970613656007,0.3889369057908384,0.5851339671564391,1.2031114952463267,2.547104580812446,-0.024200518582541054
237,Jozef Stumpel,2,957,196,481,677,47.0,245,53.0,194.0,3.0,10.0,33.0,4.0,1557.0,12.6,808.0,16.2,51.5,0.20480668756530826,0.5026123301985371,0.7074190177638453,0.2560083594566353,1.6269592476489028,0.04911180773249739
238,Michael Bullard,1,727,329,345,674,-102.0,703,112.0,107.0,2.0,0.0,28.0,1.0,1849.0,17.8,393.6,0.0,0.0,0.45254470426409904,0.47455295735900965,0.9270976616231087,0.9669876203576341,2.5433287482806053,-0.14030261348005502
239,Tim Kerr,3,655,370,304,674,74.0,596,150.0,87.0,0.0,0.0,48.0,0.0,1971.0,18.8,393.6,0.0,0.0,0.5648854961832062,0.46412213740458014,1.0290076335877862,0.9099236641221374,3.0091603053435114,0.11297709923664122
240,Phil Goyette,1,941,207,467,674,4.0,131,32.0,,0.0,,16.0,,628.0,33.0,393.6,,,0.2199787460148778,0.4962805526036132,0.7162592986184909,0.1392136025504782,0.667375132837407,0.004250797024442083
241,Paul MacLean,3,719,324,349,673,-35.0,968,115.0,86.0,0.0,0.0,37.0,0.0,1513.0,21.4,393.6,0.0,0.0,0.4506258692628651,0.4853963838664812,0.9360222531293463,1.3463143254520167,2.1043115438108484,-0.048678720445062586
242,Stanley Smyl,3,896,262,411,673,-77.0,1556,74.0,15.0,13.0,1.0,20.0,0.0,1903.0,13.8,393.6,0.0,0.0,0.2924107142857143,0.45870535714285715,0.7511160714285714,1.7366071428571428,2.1238839285714284,-0.0859375
243,Daymond Langkow,1,1090,270,402,672,81.0,547,72.0,195.0,11.0,24.0,42.0,3.0,2456.0,11.0,1019.0,20.9,45.5,0.24770642201834864,0.3688073394495413,0.6165137614678899,0.501834862385321,2.253211009174312,0.07431192660550459
244,Craig Ramsay,2,1070,252,420,672,328.0,201,17.0,,27.0,,32.0,,1614.0,15.6,393.6,,,0.23551401869158878,0.3925233644859813,0.6280373831775701,0.18785046728971963,1.5084112149532711,0.30654205607476637
245,Reginald Leach,3,934,381,285,666,123.0,387,88.0,,5.0,,58.0,,2866.0,13.3,393.6,,,0.4079229122055675,0.30513918629550324,0.7130620985010707,0.4143468950749465,3.068522483940043,0.1316916488222698
246,Guy Carbonneau,1,1318,260,403,663,186.0,820,12.0,18.0,32.0,25.0,42.0,3.0,1923.0,13.5,147.0,3.5,55.5,0.19726858877086495,0.30576631259484066,0.5030349013657056,0.622154779969651,1.4590288315629742,0.1411229135053111
247,Jamie Langenbrunner,3,1109,243,420,663,62.0,837,67.0,185.0,15.0,20.0,58.0,6.0,2559.0,9.5,953.0,21.0,46.2,0.21911632100991885,0.3787195671776375,0.5978358881875564,0.7547339945897205,2.307484220018034,0.05590622182146077
248,Martin Gelinas,2,1273,309,351,660,52.0,820,60.0,105.0,9.0,15.0,41.0,3.0,2382.0,13.0,538.0,11.8,44.0,0.24273369992144542,0.27572663000785547,0.5184603299293009,0.6441476826394344,1.8711704634721131,0.0408483896307934
249,Kelly Kisio,1,761,229,429,658,0.0,768,59.0,133.0,15.0,16.0,16.0,2.0,1348.0,17.0,393.6,0.0,0.0,0.3009198423127464,0.5637319316688568,0.8646517739816032,1.0091984231274638,1.771353482260184,0.0
250,Red Berenson,1,987,261,397,658,-120.0,305,71.0,,9.0,,35.0,,2256.0,11.6,393.6,,,0.26443768996960487,0.4022289766970618,0.6666666666666666,0.3090172239108409,2.2857142857142856,-0.12158054711246201
251,Ray Sheppard,3,817,357,300,657,10.0,212,125.0,227.0,1.0,3.0,52.0,3.0,2114.0,16.9,229.0,4.3,53.3,0.4369645042839657,0.3671970624235006,0.8041615667074663,0.2594859241126071,2.5875152998776008,0.012239902080783354
252,Ulf Dahlen,3,966,301,354,655,-20.0,230,120.0,250.0,2.0,2.0,49.0,1.0,2014.0,14.9,249.0,5.0,52.8,0.3115942028985507,0.36645962732919257,0.6780538302277432,0.23809523809523808,2.0848861283643894,-0.020703933747412008
253,Dennis Hull,2,959,303,351,654,13.0,261,49.0,,6.0,,37.0,,2338.0,13.0,393.6,,,0.3159541188738269,0.3660062565172054,0.6819603753910324,0.2721584984358707,2.437956204379562,0.013555787278415016
254,Barry Pederson,1,701,238,416,654,71.0,472,72.0,46.0,12.0,6.0,36.0,0.0,1490.0,16.0,393.6,0.0,0.0,0.33951497860199714,0.5934379457917262,0.9329529243937232,0.6733238231098431,2.1255349500713265,0.10128388017118402
255,Glen Murray,3,1009,337,314,651,14.0,679,86.0,155.0,9.0,15.0,55.0,11.0,2576.0,13.1,833.0,16.3,37.6,0.333994053518335,0.311199207135778,0.645193260654113,0.6729435084241824,2.5530227948463824,0.013875123885034688
256,Bryan Smolinski,1,1056,274,377,651,46.0,606,69.0,185.0,14.0,23.0,45.0,2.0,2466.0,11.1,770.0,16.4,48.3,0.25946969696969696,0.35700757575757575,0.6164772727272727,0.5738636363636364,2.335227272727273,0.043560606060606064
257,Randy Carlyle,4,1055,148,499,647,-135.0,1400,56.0,72.0,4.0,9.0,18.0,1.0,2173.0,6.8,393.6,0.0,0.0,0.14028436018957346,0.4729857819905213,0.6132701421800948,1.3270142180094786,2.0597156398104266,-0.12796208530805686
258,Ryan Walter,1,1003,264,382,646,-3.0,946,96.0,16.0,6.0,6.0,23.0,0.0,1720.0,15.3,393.6,0.0,0.0,0.26321036889332006,0.38085742771684944,0.6440677966101694,0.9431704885343968,1.7148554336989033,-0.0029910269192422734
259,Igor Larionov,1,921,169,475,644,104.0,474,57.0,222.0,10.0,23.0,31.0,1.0,1046.0,16.2,492.0,9.5,46.7,0.18349619978284473,0.5157437567861021,0.6992399565689468,0.5146579804560261,1.1357220412595006,0.11292073832790445
260,Bob Pulford,2,1079,281,362,643,-80.0,792,18.0,,6.0,,7.0,,975.0,28.8,393.6,,,0.26042632066728455,0.33549582947173306,0.5959221501390176,0.7340129749768304,0.9036144578313253,-0.07414272474513438
261,Ronald Ellis,3,1034,332,308,640,67.0,207,42.0,,4.0,,40.0,,1909.0,17.4,393.6,,,0.32108317214700194,0.2978723404255319,0.6189555125725339,0.20019342359767892,1.8462282398452612,0.06479690522243714
262,Tony McKegney,2,912,320,319,639,3.0,517,77.0,57.0,9.0,4.0,28.0,0.0,2092.0,15.3,393.6,0.0,0.0,0.3508771929824561,0.34978070175438597,0.7006578947368421,0.5668859649122807,2.293859649122807,0.003289473684210526
263,James Patrick,4,1280,149,490,639,104.0,759,62.0,242.0,3.0,12.0,16.0,0.0,1845.0,8.1,336.0,7.4,100.0,0.11640625,0.3828125,0.49921875,0.59296875,1.44140625,0.08125
264,Ralph Backstrom,1,1032,278,361,639,-13.0,386,16.0,,4.0,,21.0,,1040.0,26.7,393.6,,,0.2693798449612403,0.3498062015503876,0.6191860465116279,0.374031007751938,1.0077519379844961,-0.012596899224806201
265,Roman Hamrlik,4,1395,155,483,638,-49.0,1408,62.0,295.0,5.0,23.0,23.0,4.0,2988.0,5.2,1068.0,20.1,33.3,0.1111111111111111,0.34623655913978496,0.45734767025089607,1.0093189964157707,2.141935483870968,-0.03512544802867384
266,Teppo Numminen,4,1372,117,520,637,56.0,513,40.0,274.0,2.0,18.0,20.0,1.0,2051.0,5.7,734.0,14.6,28.6,0.08527696793002916,0.37900874635568516,0.4642857142857143,0.3739067055393586,1.4948979591836735,0.04081632653061224
267,Brian Sutter,2,779,303,333,636,-63.0,1786,107.0,9.0,3.0,5.0,29.0,0.0,1686.0,18.0,393.6,0.0,0.0,0.3889602053915276,0.4274711168164313,0.8164313222079589,2.292682926829268,2.1643132220795893,-0.08087291399229782
268,Anton Stastny,2,650,252,384,636,13.0,150,80.0,56.0,0.0,0.0,31.0,1.0,1398.0,18.0,393.6,0.0,0.0,0.38769230769230767,0.5907692307692308,0.9784615384615385,0.23076923076923078,2.1507692307692308,0.02
269,Mats Naslund,2,651,251,383,634,116.0,111,68.0,74.0,2.0,0.0,35.0,2.0,1359.0,18.5,393.6,0.0,0.0,0.38556067588325654,0.5883256528417818,0.9738863287250384,0.17050691244239632,2.087557603686636,0.1781874039938556
270,John Anderson,3,814,282,349,631,5.0,263,75.0,34.0,4.0,0.0,41.0,0.0,2006.0,14.1,393.6,0.0,0.0,0.3464373464373464,0.42874692874692877,0.7751842751842751,0.3230958230958231,2.4643734643734643,0.006142506142506142
271,Esa Tikkanen,2,877,244,386,630,81.0,1077,59.0,180.0,29.0,40.0,41.0,3.0,1900.0,12.8,87.0,1.7,46.4,0.2782212086659065,0.44013683010262256,0.7183580387685291,1.2280501710376284,2.1664766248574687,0.09236031927023945
272,Robert Reichel,1,830,252,378,630,58.0,388,68.0,222.0,3.0,5.0,34.0,2.0,1973.0,12.8,474.0,9.4,51.8,0.3036144578313253,0.45542168674698796,0.7590361445783133,0.4674698795180723,2.3771084337349397,0.06987951807228916
273,Brent Ashton,2,998,284,345,629,-59.0,635,57.0,56.0,12.0,11.0,29.0,2.0,1929.0,14.7,393.6,0.0,0.0,0.2845691382765531,0.3456913827655311,0.6302605210420842,0.6362725450901804,1.9328657314629258,-0.05911823647294589
274,Matt Cullen,1,1216,219,408,627,-38.0,512,53.0,173.0,14.0,27.0,28.0,1.0,2377.0,9.2,987.0,21.9,51.1,0.18009868421052633,0.3355263157894737,0.515625,0.42105263157894735,1.9547697368421053,-0.03125
275,Ed Westfall,3,1226,231,394,625,149.0,544,25.0,,23.0,,23.0,,1610.0,14.3,393.6,,,0.18841761827079934,0.32137030995106036,0.5097879282218597,0.4437194127243067,1.3132137030995106,0.12153344208809136
276,Elmer Lach,1,664,215,408,623,,478,,,,,,,,,393.6,,,0.32379518072289154,0.6144578313253012,0.9382530120481928,0.7198795180722891,,
277,Guy Lapointe,4,884,171,451,622,329.0,893,59.0,,4.0,,22.0,,2484.0,6.9,393.6,,,0.19343891402714933,0.5101809954751131,0.7036199095022625,1.010180995475113,2.8099547511312215,0.3721719457013575
278,Brian Mullen,3,832,260,362,622,10.0,414,74.0,87.0,13.0,15.0,30.0,2.0,1977.0,13.2,393.6,0.0,0.0,0.3125,0.43509615384615385,0.7475961538461539,0.49759615384615385,2.376201923076923,0.01201923076923077
279,Ron Duguay,1,864,274,346,620,-99.0,582,64.0,2.0,14.0,4.0,19.0,0.0,1809.0,15.1,393.6,0.0,0.0,0.31712962962962965,0.40046296296296297,0.7175925925925926,0.6736111111111112,2.09375,-0.11458333333333333
280,Keith Primeau,1,909,266,353,619,124.0,1541,64.0,138.0,14.0,29.0,40.0,1.0,1699.0,15.7,602.0,13.1,53.0,0.29262926292629265,0.38833883388338836,0.680968096809681,1.6952695269526952,1.869086908690869,0.13641364136413642
281,Adam Graves,2,1152,329,287,616,-25.0,1224,105.0,177.0,19.0,31.0,40.0,5.0,2855.0,11.5,429.0,8.7,49.4,0.2855902777777778,0.24913194444444445,0.5347222222222222,1.0625,2.478298611111111,-0.021701388888888888
282,Fred Stanfield,2,914,211,405,616,52.0,134,57.0,,2.0,,24.0,,1938.0,10.9,393.6,,,0.23085339168490154,0.4431072210065646,0.6739606126914661,0.14660831509846828,2.1203501094091903,0.05689277899343545
283,Chris Drury,1,892,255,360,615,-6.0,468,96.0,238.0,8.0,16.0,47.0,5.0,2151.0,11.9,1076.0,24.2,54.3,0.2858744394618834,0.40358744394618834,0.6894618834080718,0.5246636771300448,2.4114349775784754,-0.006726457399103139
284,Derek King,2,830,261,351,612,9.0,417,95.0,209.0,1.0,1.0,37.0,2.0,1786.0,14.6,179.0,3.3,25.0,0.3144578313253012,0.42289156626506025,0.7373493975903614,0.5024096385542168,2.1518072289156627,0.010843373493975903
285,Martin Rucinsky,2,961,241,371,612,46.0,821,61.0,178.0,15.0,22.0,35.0,2.0,2158.0,11.2,713.0,15.3,42.9,0.25078043704474506,0.38605619146722164,0.6368366285119667,0.854318418314256,2.2455775234131115,0.047866805411030174
286,Anze Kopitar,1,686,218,392,610,42.0,184,70.0,231.0,9.0,13.0,31.0,4.0,1790.0,12.2,1248.0,25.1,50.9,0.3177842565597668,0.5714285714285714,0.8892128279883382,0.26822157434402333,2.60932944606414,0.061224489795918366
287,Ron Greschner,4,982,179,431,610,-80.0,1226,51.0,7.0,6.0,0.0,18.0,0.0,1883.0,9.5,393.6,0.0,0.0,0.18228105906313646,0.43890020366598775,0.6211812627291242,1.2484725050916496,1.9175152749490836,-0.0814663951120163
288,Thomas Vanek,2,745,299,311,610,36.0,445,118.0,215.0,3.0,3.0,47.0,6.0,2059.0,14.5,1017.0,20.4,37.6,0.40134228187919463,0.4174496644295302,0.8187919463087249,0.5973154362416108,2.7637583892617448,0.04832214765100671
289,Dickie Moore,2,719,261,347,608,-8.0,652,1.0,,0.0,,1.0,,37.0,705.4,393.6,,,0.36300417246175243,0.48261474269819193,0.8456189151599444,0.9068150208623088,0.05146036161335188,-0.011126564673157162
290,Peter Zezel,1,873,219,389,608,39.0,435,65.0,138.0,3.0,5.0,37.0,1.0,1501.0,14.6,71.0,1.6,54.4,0.2508591065292096,0.44558991981672397,0.6964490263459335,0.49828178694158076,1.7193585337915236,0.044673539518900345
291,Syl Apps Jr.,1,727,183,423,606,41.0,311,39.0,,11.0,,22.0,,1505.0,12.2,393.6,,,0.2517193947730399,0.5818431911966988,0.8335625859697386,0.42778541953232463,2.0701513067400277,0.05639614855570839
292,Walter McKechnie,1,955,214,392,606,-115.0,469,35.0,,17.0,,24.0,,1633.0,13.1,393.6,,,0.22408376963350785,0.41047120418848165,0.6345549738219896,0.49109947643979057,1.7099476439790575,-0.12041884816753927
293,Terry O'Reilly,3,891,204,402,606,212.0,2095,18.0,,4.0,,32.0,,1254.0,16.3,393.6,,,0.22895622895622897,0.4511784511784512,0.6801346801346801,2.351290684624018,1.4074074074074074,0.23793490460157127
294,Mike Ricci,1,1099,243,362,605,-20.0,974,105.0,214.0,13.0,26.0,41.0,3.0,1552.0,15.7,537.0,12.0,50.5,0.2211101000909918,0.3293903548680619,0.5505004549590536,0.8862602365787079,1.4121929026387625,-0.018198362147406732
295,David Legwand,1,1060,223,381,604,8.0,537,43.0,152.0,10.0,17.0,43.0,9.0,2059.0,10.8,1038.0,22.8,46.0,0.21037735849056605,0.3594339622641509,0.569811320754717,0.5066037735849057,1.9424528301886792,0.007547169811320755
296,Bert Olmstead,2,848,181,421,602,,884,,,,,,,,,393.6,,,0.2134433962264151,0.4964622641509434,0.7099056603773585,1.0424528301886793,,
297,Corey Perry,3,725,296,306,602,91.0,872,80.0,184.0,6.0,10.0,53.0,6.0,2215.0,13.4,1102.0,22.0,31.1,0.40827586206896554,0.4220689655172414,0.8303448275862069,1.2027586206896552,3.0551724137931036,0.12551724137931033
298,Simon Gagne,2,822,291,310,601,129.0,328,81.0,191.0,12.0,24.0,53.0,7.0,2312.0,12.6,1065.0,23.1,41.1,0.354014598540146,0.3771289537712895,0.7311435523114356,0.39902676399026765,2.812652068126521,0.15693430656934307
299,Brendan Morrison,1,934,200,401,601,86.0,452,53.0,186.0,8.0,14.0,42.0,10.0,1613.0,12.4,1040.0,21.9,50.0,0.21413276231263384,0.42933618843683086,0.6434689507494646,0.48394004282655245,1.7269807280513918,0.09207708779443255
